{
  "implemented": true,
  "name": "Yanma",
  "nationalPokedexNumber": 193,
  "primaryType": "bug",
  "secondaryType": "flying",
  "abilities": [
    "speedboost",
    "compoundeyes",
    "h:frisk"
  ],
  "drops": {
    "amount": 1,
    "entries": [
      {
        "item": "cobblemon:charti_berry",
        "percentage": 2.5
      }
    ]
  },
  "baseStats": {
    "hp": 65,
    "attack": 65,
    "defence": 45,
    "special_attack": 75,
    "special_defence": 45,
    "speed": 95
  },
  "catchRate": 75,
  "maleRatio": 0.5,
  "shoulderMountable": false,
  "baseExperienceYield": 78,
  "experienceGroup": "medium_fast",
  "eggCycles": 20,
  "eggGroups": [
    "bug"
  ],
  "behaviour": {
    "moving": {
      "fly": {
        "canFly": true
      },
      "swim": {
        "canWalkOnWater": true
      }
    }
  },
  "moves": [
    "1:foresight",
    "1:tackle",
    "6:quickattack",
    "11:doubleteam",
    "14:aircutter",
    "14:sonicboom",
    "17:detect",
    "22:supersonic",
    "27:uproar",
    "30:bugbite",
    "30:pursuit",
    "33:ancientpower",
    "38:hypnosis",
    "43:wingattack",
    "46:screech",
    "49:uturn",
    "54:airslash",
    "57:bugbuzz",
    "egg:doubleedge",
    "egg:feint",
    "egg:feintattack",
    "egg:leechlife",
    "egg:pursuit",
    "egg:reversal",
    "egg:secretpower",
    "egg:signalbeam",
    "egg:silverwind",
    "egg:whirlwind",
    "tm:aerialace",
    "tm:aircutter",
    "tm:airslash",
    "tm:attract",
    "tm:bugbite",
    "tm:bugbuzz",
    "tm:captivate",
    "tm:confide",
    "tm:defog",
    "tm:doubleedge",
    "tm:doubleteam",
    "tm:dreameater",
    "tm:endure",
    "tm:facade",
    "tm:flash",
    "tm:frustration",
    "tm:gigadrain",
    "tm:hiddenpower",
    "tm:leechlife",
    "tm:lunge",
    "tm:naturalgift",
    "tm:pounce",
    "tm:protect",
    "tm:psychic",
    "tm:psychicnoise",
    "tm:psychup",
    "tm:rest",
    "tm:return",
    "tm:reversal",
    "tm:roost",
    "tm:round",
    "tm:secretpower",
    "tm:shadowball",
    "tm:silverwind",
    "tm:skittersmack",
    "tm:sleeptalk",
    "tm:solarbeam",
    "tm:steelwing",
    "tm:strugglebug",
    "tm:substitute",
    "tm:sunnyday",
    "tm:swagger",
    "tm:swift",
    "tm:swordsdance",
    "tm:tailwind",
    "tm:takedown",
    "tm:terablast",
    "tm:thief",
    "tm:toxic",
    "tm:uproar",
    "tm:uturn",
    "tutor:aircutter",
    "tutor:ancientpower",
    "tutor:attract",
    "tutor:bugbite",
    "tutor:curse",
    "tutor:defog",
    "tutor:detect",
    "tutor:doubleedge",
    "tutor:doubleteam",
    "tutor:dreameater",
    "tutor:endure",
    "tutor:feint",
    "tutor:flash",
    "tutor:foresight",
    "tutor:frustration",
    "tutor:gigadrain",
    "tutor:headbutt",
    "tutor:hiddenpower",
    "tutor:leechlife",
    "tutor:mimic",
    "tutor:ominouswind",
    "tutor:protect",
    "tutor:quickattack",
    "tutor:rest",
    "tutor:return",
    "tutor:reversal",
    "tutor:roost",
    "tutor:screech",
    "tutor:signalbeam",
    "tutor:sleeptalk",
    "tutor:snore",
    "tutor:solarbeam",
    "tutor:sonicboom",
    "tutor:stringshot",
    "tutor:substitute",
    "tutor:sunnyday",
    "tutor:supersonic",
    "tutor:swagger",
    "tutor:swift",
    "tutor:tackle",
    "tutor:tailwind",
    "tutor:thief",
    "tutor:toxic",
    "tutor:uproar",
    "tutor:whirlwind",
    "tutor:wingattack"
  ],
  "labels": [
    "gen2"
  ],
  "pokedex": [
    "cobblemon.species.yanma.desc"
  ],
  "evolutions": [
    {
      "id": "yanma_yanmega",
      "variant": "level_up",
      "result": "yanmega",
      "consumeHeldItem": false,
      "learnableMoves": [],
      "requirements": [
        {
          "variant": "has_move",
          "move": "ancientpower"
        }
      ]
    }
  ],
  "baseScale": 0.8,
  "hitbox": {
    "width": 0.99,
    "height": 0.75,
    "fixed": false
  },
  "baseFriendship": 70,
  "evYield": {
    "hp": 0,
    "attack": 0,
    "defence": 0,
    "special_attack": 0,
    "special_defence": 0,
    "speed": 1
  },
  "height": 12,
  "weight": 380,
  "aspects": [],
  "cannotDynamax": false
}