{
  "implemented": true,
  "name": "Avalugg",
  "nationalPokedexNumber": 713,
  "primaryType": "ice",
  "abilities": [
    "owntempo",
    "icebody",
    "h:sturdy"
  ],
  "drops": {
    "amount": 2,
    "entries": [
      {
        "item": "cobblemon:never_melt_ice",
        "percentage": 5.0
      },
      {
        "item": "cobblemon:aspear_berry",
        "percentage": 5.0
      }
    ]
  },
  "baseStats": {
    "hp": 95,
    "attack": 117,
    "defence": 184,
    "special_attack": 44,
    "special_defence": 46,
    "speed": 28
  },
  "features": [
    "hisuian"
  ],
  "catchRate": 55,
  "maleRatio": 0.5,
  "shoulderMountable": false,
  "forms": [
    {
      "name": "Hisui",
      "primaryType": "ice",
      "secondaryType": "rock",
      "abilities": [
        "strongjaw",
        "icebody",
        "h:sturdy"
      ],
      "baseStats": {
        "hp": 95,
        "attack": 127,
        "defence": 184,
        "special_attack": 34,
        "special_defence": 36,
        "speed": 38
      },
      "catchRate": 55,
      "maleRatio": 0.5,
      "baseExperienceYield": 180,
      "baseFriendship": 50,
      "evYield": {
        "hp": 0,
        "attack": 0,
        "defence": 2,
        "special_attack": 0,
        "special_defence": 0,
        "speed": 0
      },
      "experienceGroup": "medium_fast",
      "eggCycles": 20,
      "eggGroups": [
        "monster",
        "mineral"
      ],
      "moves": [
        "1:harden",
        "1:powdersnow",
        "1:rapidspin",
        "1:tackle",
        "1:wideguard",
        "9:curse",
        "12:icywind",
        "15:protect",
        "18:avalanche",
        "21:bite",
        "24:icefang",
        "27:irondefense",
        "30:recover",
        "33:crunch",
        "36:takedown",
        "41:blizzard",
        "46:doubleedge",
        "51:stoneedge",
        "61:mountaingale",
        "tm:avalanche",
        "tm:blizzard",
        "tm:bodypress",
        "tm:bodyslam",
        "tm:bulldoze",
        "tm:chillingwater",
        "tm:crunch",
        "tm:dig",
        "tm:earthquake",
        "tm:endure",
        "tm:facade",
        "tm:gigaimpact",
        "tm:heavyslam",
        "tm:hyperbeam",
        "tm:icebeam",
        "tm:icefang",
        "tm:icespinner",
        "tm:icywind",
        "tm:irondefense",
        "tm:ironhead",
        "tm:protect",
        "tm:raindance",
        "tm:rest",
        "tm:rockblast",
        "tm:rockslide",
        "tm:rocktomb",
        "tm:sandstorm",
        "tm:scaryface",
        "tm:sleeptalk",
        "tm:snowscape",
        "tm:stealthrock",
        "tm:stompingtantrum",
        "tm:stoneedge",
        "tm:substitute",
        "tm:takedown",
        "tm:terablast"
      ],
      "labels": [
        "gen8",
        "hisui_regional"
      ],
      "aspects": [
        "hisuian"
      ],
      "height": 14,
      "weight": 2624,
      "preEvolution": "bergmite",
      "cannotDynamax": false,
      "battleOnly": false,
      "drops": {
        "amount": 2,
        "entries": [
          {
            "item": "cobblemon:never_melt_ice",
            "percentage": 5.0
          },
          {
            "item": "cobblemon:babiri_berry",
            "percentage": 5.0
          }
        ]
      }
    }
  ],
  "baseExperienceYield": 180,
  "experienceGroup": "medium_fast",
  "eggCycles": 20,
  "eggGroups": [
    "monster",
    "mineral"
  ],
  "behaviour": {
    "moving": {
      "walk": {
        "walkSpeed": 0.2
      },
      "swim": {
        "swimSpeed": 0.1,
        "canSwimInWater": true,
        "canBreatheUnderwater": true,
        "canWalkOnWater": true
      }
    },
    "resting": {
      "canSleep": true,
      "willSleepOnBed": false,
      "depth": "normal",
      "light": "0-4"
    }
  },
  "moves": [
    "1:bodyslam",
    "1:harden",
    "1:powdersnow",
    "1:rapidspin",
    "1:tackle",
    "1:wideguard",
    "9:curse",
    "12:icywind",
    "15:protect",
    "18:avalanche",
    "20:sharpen",
    "21:bite",
    "24:icefang",
    "27:irondefense",
    "30:iceball",
    "30:recover",
    "33:crunch",
    "36:takedown",
    "41:blizzard",
    "46:doubleedge",
    "51:iciclecrash",
    "51:skullbash",
    "tm:attract",
    "tm:avalanche",
    "tm:blizzard",
    "tm:bodypress",
    "tm:bodyslam",
    "tm:bulldoze",
    "tm:chillingwater",
    "tm:confide",
    "tm:crunch",
    "tm:doubleteam",
    "tm:earthquake",
    "tm:endure",
    "tm:facade",
    "tm:flash",
    "tm:flashcannon",
    "tm:frostbreath",
    "tm:frustration",
    "tm:gigaimpact",
    "tm:gyroball",
    "tm:hail",
    "tm:heavyslam",
    "tm:hiddenpower",
    "tm:highhorsepower",
    "tm:hydropump",
    "tm:hyperbeam",
    "tm:icebeam",
    "tm:icefang",
    "tm:icespinner",
    "tm:iciclespear",
    "tm:icywind",
    "tm:irondefense",
    "tm:ironhead",
    "tm:protect",
    "tm:raindance",
    "tm:rest",
    "tm:return",
    "tm:roar",
    "tm:rockpolish",
    "tm:rockslide",
    "tm:rocksmash",
    "tm:rocktomb",
    "tm:round",
    "tm:safeguard",
    "tm:scaryface",
    "tm:secretpower",
    "tm:sleeptalk",
    "tm:snore",
    "tm:snowscape",
    "tm:stompingtantrum",
    "tm:stoneedge",
    "tm:strength",
    "tm:substitute",
    "tm:superpower",
    "tm:surf",
    "tm:swagger",
    "tm:takedown",
    "tm:terablast",
    "tm:toxic",
    "tutor:afteryou",
    "tutor:block",
    "tutor:icywind",
    "tutor:irondefense",
    "tutor:ironhead",
    "tutor:snore",
    "tutor:stompingtantrum",
    "tutor:superpower",
    "tutor:waterpulse"
  ],
  "labels": [
    "gen6",
    "kalos_regional"
  ],
  "pokedex": [
    "cobblemon.species.avalugg.desc"
  ],
  "preEvolution": "bergmite",
  "evolutions": [],
  "baseScale": 0.9,
  "hitbox": {
    "width": 4,
    "height": 3,
    "fixed": false
  },
  "baseFriendship": 50,
  "evYield": {
    "hp": 0,
    "attack": 0,
    "defence": 2,
    "special_attack": 0,
    "special_defence": 0,
    "speed": 0
  },
  "height": 20,
  "weight": 5050,
  "aspects": [],
  "cannotDynamax": false
}