{
	"format_version": "1.8.0",
	"animations": {
		"animation.pidgeot.ground_idle_PLACEHOLDER": {
			"loop": true,
			"bones": {
				"body": {
					"position": [0, -0.1, 0]
				},
				"torso": {
					"rotation": [-15, 0, 0]
				},
				"wing_closed_left": {
					"rotation": [-15.01365, 2.41476, -0.64743]
				},
				"wing_closed_left2": {
					"rotation": [27.58957, -4.43385, -2.31336]
				},
				"wing_closed_left3": {
					"rotation": [17.64168, -7.15102, -2.26708]
				},
				"tail": {
					"rotation": [-10, 0, 0]
				},
				"tail_left": {
					"rotation": [0, -5, 0]
				},
				"tail_right": {
					"rotation": [0, 5, 0]
				},
				"tail_left2": {
					"rotation": [-2.34484, -17.48462, 0.75259]
				},
				"tail_right2": {
					"rotation": [-2.35248, 14.98672, -0.64986]
				},
				"neck": {
					"rotation": [30, 0, 0]
				},
				"head": {
					"rotation": [-15, 0, 0]
				},
				"hair4": {
					"rotation": [-27.5, 0, 0]
				},
				"leg_right": {
					"rotation": [2.56834, 13.90237, 10.26538]
				},
				"foot_right": {
					"rotation": [0, 0, -10]
				},
				"leg_left": {
					"rotation": [1.94714, -14.21826, -7.70881]
				},
				"foot_left": {
					"rotation": [0, 0, 7.5]
				},
				"wing_open_left": {
					"rotation": [3.25489, 10.68992, 85.7423],
					"position": [0, 0, 0]
				},
				"wing_open_left2": {
					"rotation": [2.82275, -60.05071, 2.38486],
					"position": [0, 0.75, -0.75]
				},
				"wing_open_left3": {
					"rotation": [-1.44261, -29.96852, 2.88614]
				},
				"wing_open_left4": {
					"rotation": [0, 0, 0]
				},
				"wing_closed_right": {
					"rotation": [-15.01365, -2.41476, 0.64743]
				},
				"wing_closed_right2": {
					"rotation": [27.58957, 4.43385, 2.31336]
				},
				"wing_closed_right3": {
					"rotation": [17.64168, 7.15102, 2.26708]
				},
				"hair3": {
					"rotation": [-2.5, 0, 0]
				},
				"hair5": {
					"rotation": [15, 0, 0]
				},
				"hair6": {
					"rotation": [25, 0, 0]
				},
				"wing_open_right": {
					"rotation": [3.25489, -10.68992, -85.7423],
					"position": [0, 0, 0]
				},
				"wing_open_right2": {
					"rotation": [2.82275, 60.05071, -2.38486],
					"position": [0, 0.75, -0.75]
				},
				"wing_open_right3": {
					"rotation": [-1.44261, 29.96852, -2.88614]
				},
				"wing_open_right4": {
					"rotation": [0, 0, 0]
				}
			}
		},
		"animation.pidgeot.air_idle": {
			"loop": true,
			"animation_length": 1.33333,
			"bones": {
				"body": {
					"rotation": ["-10+math.sin(q.anim_time*90*3-60)*-1", 0, 0],
					"position": [0, "math.sin(q.anim_time*90*3-30)*-2", "math.sin(q.anim_time*90*3-30)*-0.5"]
				},
				"torso": {
					"rotation": ["-15+math.sin(q.anim_time*90*3-90)*-3", 0, 0]
				},
				"wing_closed_left": {
					"rotation": [-93.47882, -7.48957, -87.29442],
					"position": [0, -1, 6]
				},
				"wing_closed_left2": {
					"rotation": [5.08957, -4.43385, -2.31336]
				},
				"wing_closed_left3": {
					"rotation": [0.14168, -7.15102, -2.26708]
				},
				"tail": {
					"rotation": ["-10+math.sin(q.anim_time*90*3+30)*10", 0, 0]
				},
				"tail_left": {
					"rotation": [8.0352, -0.67621, 4.9829]
				},
				"tail_right": {
					"rotation": [8.1839, 0.88782, -6.47533]
				},
				"tail_left2": {
					"rotation": [12.64619, -1.47498, 22.81474]
				},
				"tail_right2": {
					"rotation": [12.64619, 1.47498, -22.81474]
				},
				"neck": {
					"rotation": ["47.5+math.sin(q.anim_time*90*3-70)*-2", 0, 0]
				},
				"head": {
					"rotation": ["-17.5+math.sin(q.anim_time*90*3-70)*5", 0, 0]
				},
				"hair4": {
					"rotation": ["-27.5+math.sin(q.anim_time*90*3)*5", 0, 0]
				},
				"leg_right": {
					"rotation": ["40+math.sin(q.anim_time*90*3-90)*-10", 0, 0],
					"position": [0, 1.05, 0]
				},
				"foot_right": {
					"rotation": ["15+math.sin(q.anim_time*90*3-150)*5", 0, -7.5],
					"position": [0, 0.3, 0]
				},
				"leg_left": {
					"rotation": ["40+math.sin(q.anim_time*90*3-80)*-10", 0, 0],
					"position": [0, 1.05, 0]
				},
				"foot_left": {
					"rotation": ["15+math.sin(q.anim_time*90*3-140)*5", 0, 7.5],
					"position": [0, 0.3, 0]
				},
				"hair2": {
					"rotation": ["math.sin(q.anim_time*90*3-90)*1", 0, 0]
				},
				"hair3": {
					"rotation": ["-2.5+math.sin(q.anim_time*90*3+60)*5", 0, 0]
				},
				"hair5": {
					"rotation": ["15+math.sin(q.anim_time*90*3-120)*20", 0, 0]
				},
				"hair6": {
					"rotation": ["math.sin(q.anim_time*90*3-210)*20", 0, 0]
				},
				"leg_right2": {
					"rotation": ["-32.5+math.sin(q.anim_time*90*3-120)*15", 0, 0]
				},
				"toe_back_right": {
					"rotation": ["-50+math.sin(q.anim_time*90*3-190)*-15", 0, 0]
				},
				"claw_back_right": {
					"rotation": {
						"0.0": [-23.06545, 0.03421, 1.5838],
						"0.375": [-23.08454, -2.26583, 2.56376]
					}
				},
				"toe_inner_right": {
					"rotation": ["40+math.sin(q.anim_time*90*3-180)*5", 0, 0]
				},
				"claw_inner_right": {
					"rotation": [25, 0, 0]
				},
				"toe_middle_right": {
					"rotation": ["35+math.sin(q.anim_time*90*3-170)*5", 0, 0]
				},
				"claw_middle_right": {
					"rotation": [20, 0, 0]
				},
				"toe_outer_right": {
					"rotation": ["40+math.sin(q.anim_time*90*3-180)*5", 0, 0]
				},
				"claw_outer_right": {
					"rotation": [20, 0, 0]
				},
				"leg_left2": {
					"rotation": ["-32.5+math.sin(q.anim_time*90*3-110)*15", 0, 0]
				},
				"toe_back_left": {
					"rotation": ["-50+math.sin(q.anim_time*90*3-180)*-15", 0, 0]
				},
				"claw_back_left": {
					"rotation": [-23.06545, -0.03421, -1.5838]
				},
				"toe_inner_left": {
					"rotation": ["40+math.sin(q.anim_time*90*3-170)*5", 0, 0]
				},
				"claw_inner_left": {
					"rotation": [25, 0, 0]
				},
				"toe_middle_left": {
					"rotation": ["35+math.sin(q.anim_time*90*3-160)*5", 0, 0]
				},
				"claw_middle_left": {
					"rotation": [20, 0, 0]
				},
				"toe_outer_left": {
					"rotation": ["40+math.sin(q.anim_time*90*3-170)*5", 0, 0]
				},
				"claw_outer_left": {
					"rotation": [20, 0, 0]
				},
				"wing_open_left": {
					"rotation": {
						"0.0": {
							"post": [-15, 5, 17],
							"lerp_mode": "catmullrom"
						},
						"0.125": {
							"post": [-14.05169, -4.62889, -27.79239],
							"lerp_mode": "catmullrom"
						},
						"0.3333": {
							"post": [-11.98514, -9.79709, -53.58204],
							"lerp_mode": "catmullrom"
						},
						"0.5": {
							"post": [-12.6067, -7.10863, -42.34742],
							"lerp_mode": "catmullrom"
						},
						"0.7917": {
							"post": [-9.31925, 5.38021, 49.62254],
							"lerp_mode": "catmullrom"
						},
						"1.0": {
							"post": [-7.79957, 7.8591, 65.10455],
							"lerp_mode": "catmullrom"
						},
						"1.2083": {
							"post": [-11.81925, 5.38021, 49.62254],
							"lerp_mode": "catmullrom"
						},
						"1.3333": {
							"post": [-15, 5, 17],
							"lerp_mode": "catmullrom"
						}
					},
					"position": {
						"0.0": {
							"post": [0, -0.5, 0],
							"lerp_mode": "catmullrom"
						},
						"0.3333": {
							"post": [0, 0, 0],
							"lerp_mode": "catmullrom"
						},
						"0.625": {
							"post": [0, -0.2, 0],
							"lerp_mode": "catmullrom"
						},
						"1.0": {
							"post": [0, -0.8, 0],
							"lerp_mode": "catmullrom"
						},
						"1.3333": {
							"post": [0, -0.5, 0],
							"lerp_mode": "catmullrom"
						}
					}
				},
				"wing_open_left2": {
					"rotation": {
						"0.0": {
							"post": [-7.56513, -3.37843, 44.83411],
							"lerp_mode": "catmullrom"
						},
						"0.3333": {
							"post": [0, 0, -18],
							"lerp_mode": "catmullrom"
						},
						"0.6667": {
							"post": [0, 5, -35.22],
							"lerp_mode": "catmullrom"
						},
						"1.0": {
							"post": [0, 0, 22],
							"lerp_mode": "catmullrom"
						},
						"1.3333": {
							"post": [-7.56513, -3.37843, 44.83411],
							"lerp_mode": "catmullrom"
						}
					}
				},
				"wing_open_left3": {
					"rotation": {
						"0.0": {
							"post": [0, -10, 32],
							"lerp_mode": "catmullrom"
						},
						"0.1667": {
							"post": [-0.45173, -7.48094, 42.82179],
							"lerp_mode": "catmullrom"
						},
						"0.375": {
							"post": [0, -5, -8.35],
							"lerp_mode": "catmullrom"
						},
						"0.625": {
							"post": [0, -2.5, -30.41],
							"lerp_mode": "catmullrom"
						},
						"0.9167": {
							"post": [0, 0, -30.4],
							"lerp_mode": "catmullrom"
						},
						"1.1667": {
							"post": [0, -5, 10.42],
							"lerp_mode": "catmullrom"
						},
						"1.3333": {
							"post": [0, -10, 32],
							"lerp_mode": "catmullrom"
						}
					}
				},
				"wing_open_left4": {
					"rotation": {
						"0.0": {
							"post": [0, 0, 27],
							"lerp_mode": "catmullrom"
						},
						"0.2083": {
							"post": [0, 0, 28.83],
							"lerp_mode": "catmullrom"
						},
						"0.375": {
							"post": [0, 0, 19.15],
							"lerp_mode": "catmullrom"
						},
						"0.625": {
							"post": [0, 0, -11.41],
							"lerp_mode": "catmullrom"
						},
						"0.9167": {
							"post": [0, 0, -21.9],
							"lerp_mode": "catmullrom"
						},
						"1.1667": {
							"post": [0, 0, -5.14],
							"lerp_mode": "catmullrom"
						},
						"1.3333": {
							"post": [0, 0, 27],
							"lerp_mode": "catmullrom"
						}
					}
				},
				"wing_closed_right": {
					"rotation": [-93.47882, 7.48957, 87.29442],
					"position": [0, -1, 6]
				},
				"wing_closed_right2": {
					"rotation": [5.08957, 4.43385, 2.31336]
				},
				"wing_closed_right3": {
					"rotation": [0.14168, 7.15102, 2.26708]
				},
				"wing_open_right": {
					"rotation": {
						"0.0": {
							"post": [-15, -5, -17],
							"lerp_mode": "catmullrom"
						},
						"0.125": {
							"post": [-14.05169, 4.62889, 27.79239],
							"lerp_mode": "catmullrom"
						},
						"0.3333": {
							"post": [-11.98514, 9.79709, 53.58204],
							"lerp_mode": "catmullrom"
						},
						"0.5": {
							"post": [-12.6067, 7.10863, 42.34742],
							"lerp_mode": "catmullrom"
						},
						"0.7917": {
							"post": [-9.31925, -5.38021, -49.62254],
							"lerp_mode": "catmullrom"
						},
						"1.0": {
							"post": [-7.79957, -7.8591, -65.10455],
							"lerp_mode": "catmullrom"
						},
						"1.2083": {
							"post": [-11.81925, -5.38021, -49.62254],
							"lerp_mode": "catmullrom"
						},
						"1.3333": {
							"post": [-15, -5, -17],
							"lerp_mode": "catmullrom"
						}
					},
					"position": {
						"0.0": {
							"post": [0, -0.5, 0],
							"lerp_mode": "catmullrom"
						},
						"0.3333": {
							"post": [0, 0, 0],
							"lerp_mode": "catmullrom"
						},
						"0.625": {
							"post": [0, -0.2, 0],
							"lerp_mode": "catmullrom"
						},
						"1.0": {
							"post": [0, -0.8, 0],
							"lerp_mode": "catmullrom"
						},
						"1.3333": {
							"post": [0, -0.5, 0],
							"lerp_mode": "catmullrom"
						}
					}
				},
				"wing_open_right2": {
					"rotation": {
						"0.0": {
							"post": [-7.56513, 12.47843, -44.83411],
							"lerp_mode": "catmullrom"
						},
						"0.3333": {
							"post": [0, 0, 18],
							"lerp_mode": "catmullrom"
						},
						"0.6667": {
							"post": [0, -5, 35.22],
							"lerp_mode": "catmullrom"
						},
						"1.0": {
							"post": [0, 0, -22],
							"lerp_mode": "catmullrom"
						},
						"1.3333": {
							"post": [-7.56513, 12.47843, -44.83411],
							"lerp_mode": "catmullrom"
						}
					}
				},
				"wing_open_right3": {
					"rotation": {
						"0.0": {
							"post": [0, 10, -32],
							"lerp_mode": "catmullrom"
						},
						"0.1667": {
							"post": [-0.45173, 7.48094, -42.82179],
							"lerp_mode": "catmullrom"
						},
						"0.375": {
							"post": [0, 5, 8.35],
							"lerp_mode": "catmullrom"
						},
						"0.625": {
							"post": [0, 2.5, 30.41],
							"lerp_mode": "catmullrom"
						},
						"0.9167": {
							"post": [0, 0, 30.4],
							"lerp_mode": "catmullrom"
						},
						"1.1667": {
							"post": [0, 5, -10.42],
							"lerp_mode": "catmullrom"
						},
						"1.3333": {
							"post": [0, 10, -32],
							"lerp_mode": "catmullrom"
						}
					}
				},
				"wing_open_right4": {
					"rotation": {
						"0.0": {
							"post": [0, 0, -27],
							"lerp_mode": "catmullrom"
						},
						"0.2083": {
							"post": [0, 0, -28.83],
							"lerp_mode": "catmullrom"
						},
						"0.375": {
							"post": [0, 0, -19.15],
							"lerp_mode": "catmullrom"
						},
						"0.625": {
							"post": [0, 0, 11.41],
							"lerp_mode": "catmullrom"
						},
						"0.9167": {
							"post": [0, 0, 21.9],
							"lerp_mode": "catmullrom"
						},
						"1.1667": {
							"post": [0, 0, 5.14],
							"lerp_mode": "catmullrom"
						},
						"1.3333": {
							"post": [0, 0, -27],
							"lerp_mode": "catmullrom"
						}
					}
				}
			}
		},
		"animation.pidgeot.air_fly": {
			"loop": true,
			"bones": {
				"body": {
					"rotation": ["17.5+math.sin(q.anim_time*90*0.8-60)*-3", 0, "0+math.sin(q.anim_time*90*0.5-90)*1"],
					"position": ["math.sin(q.anim_time*90*0.5-90)*-3", "math.sin(q.anim_time*90*0.8)*-2", 0]
				},
				"torso": {
					"rotation": ["-17.5+math.sin(q.anim_time*90*0.8-90)*-1", 0, "0+math.sin(q.anim_time*90*0.5-120)*1"]
				},
				"wing_closed_left": {
					"rotation": [-92.46677, -7.8791, -94.85228],
					"position": [0, -1, 6]
				},
				"wing_closed_left2": {
					"rotation": [5.08145, 3.03671, -1.64897]
				},
				"wing_closed_left3": {
					"rotation": [0.14119, 5.34894, -2.23628]
				},
				"tail": {
					"rotation": ["-7.5+math.sin(q.anim_time*90*0.8-120)*-3", 0, 0]
				},
				"tail_left": {
					"rotation": ["8.0352+math.sin(q.anim_time*90*12)*0.2", -0.67621, 4.9829]
				},
				"tail_right": {
					"rotation": ["8.1839+math.sin(q.anim_time*90*12-90)*0.2", 0.88782, -6.47533]
				},
				"tail_left2": {
					"rotation": ["12.6462+math.sin(q.anim_time*90*12+30)*0.2", -1.47498, 22.81474]
				},
				"tail_right2": {
					"rotation": ["12.6462+math.sin(q.anim_time*90*12+120)*0.2", 1.47498, -22.81474]
				},
				"neck": {
					"rotation": ["72.5+math.sin(q.anim_time*90*0.8-30)*-3", 0, "math.sin(q.anim_time*90*0.5-60)*-2"]
				},
				"head": {
					"rotation": ["-67.5+math.sin(q.anim_time*90*0.8+90)*-6", 0, 0]
				},
				"hair4": {
					"rotation": ["math.sin(q.anim_time*90*2-60)*10", 0, "math.sin(q.anim_time*90*0.5-60)*2"]
				},
				"leg_right": {
					"rotation": [55, 0, 0],
					"position": [0, 2, 0]
				},
				"foot_right": {
					"rotation": ["80+math.sin(q.anim_time*90*0.8-120)*-4", 20, -7],
					"position": [-0.25, 0.25, -0.75]
				},
				"leg_left": {
					"rotation": [55, 0, 0],
					"position": [0, 2, 0]
				},
				"foot_left": {
					"rotation": ["80+math.sin(q.anim_time*90*0.8-120)*-4", -20, 7],
					"position": [0.25, 0.25, -0.75]
				},
				"hair2": {
					"rotation": ["math.sin(q.anim_time*90*0.8-120)*2+math.sin(q.anim_time*90*2+120)*2", 0, 0]
				},
				"hair3": {
					"rotation": ["22.5+math.sin(q.anim_time*90*0.8-90)*-6+math.sin(q.anim_time*90*2+60)*3", 0, "math.sin(q.anim_time*90*0.5)*0.3"]
				},
				"hair5": {
					"rotation": ["math.sin(q.anim_time*90*2-150)*20", 0, "math.sin(q.anim_time*90*0.5-120)*3"]
				},
				"hair6": {
					"rotation": ["math.sin(q.anim_time*90*2-90)*-20+math.sin(q.anim_time*90*12-180)*2", 0, "math.sin(q.anim_time*90*0.5-180)*4"]
				},
				"leg_right2": {
					"rotation": [-17.5, 0, 0]
				},
				"toe_back_right": {
					"rotation": ["-127.5+math.sin(q.anim_time*90*0.8-150)*-4", 0, 0],
					"position": [0, -1, -1]
				},
				"claw_back_right": {
					"rotation": [-23.06545, 0.03421, 1.5838]
				},
				"toe_inner_right": {
					"rotation": ["50+math.sin(q.anim_time*90*0.8-150)*-4", 0, 0],
					"position": [0, -0.1, 0]
				},
				"claw_inner_right": {
					"rotation": [25, 0, 0]
				},
				"toe_middle_right": {
					"rotation": ["45+math.sin(q.anim_time*90*0.8-150)*-4", 0, 0],
					"position": [0, -0.1, 0]
				},
				"claw_middle_right": {
					"rotation": [20, 0, 0]
				},
				"toe_outer_right": {
					"rotation": ["50+math.sin(q.anim_time*90*0.8-150)*-4", 0, 0],
					"position": [0, -0.1, 0]
				},
				"claw_outer_right": {
					"rotation": [20, 0, 0]
				},
				"leg_left2": {
					"rotation": [-17.5, 0, 0]
				},
				"toe_back_left": {
					"rotation": ["-127.5+math.sin(q.anim_time*90*0.8-150)*-4", 0, 0],
					"position": [0, -1, -1]
				},
				"claw_back_left": {
					"rotation": [-23, 0, -1.5]
				},
				"toe_inner_left": {
					"rotation": ["50+math.sin(q.anim_time*90*0.8-150)*-4", 0, 0],
					"position": [0, -0.1, 0]
				},
				"claw_inner_left": {
					"rotation": [25, 0, 0]
				},
				"toe_middle_left": {
					"rotation": ["45+math.sin(q.anim_time*90*0.8-150)*-4", 0, 0],
					"position": [0, -0.1, 0]
				},
				"claw_middle_left": {
					"rotation": [20, 0, 0]
				},
				"toe_outer_left": {
					"rotation": ["50+math.sin(q.anim_time*90*0.8-150)*-4", 0, 0],
					"position": [0, -0.1, 0]
				},
				"claw_outer_left": {
					"rotation": [20, 0, 0]
				},
				"wing_open_left": {
					"rotation": ["-10+math.sin(q.anim_time*90*0.8)*-3+math.sin(q.anim_time*90*12-90)*0.2", 0, "math.sin(q.anim_time*90*0.8-60)*2"],
					"position": [0, -0.5, 0]
				},
				"wing_open_left2": {
					"rotation": ["2.5+math.sin(q.anim_time*90*0.8-60)*1", 0.2, "-5+math.sin(q.anim_time*90*0.8-120)*4"],
					"position": [0, -0.2, 0]
				},
				"wing_open_left3": {
					"rotation": [2.5, 0.1, "-2.5+math.sin(q.anim_time*90*0.8-180)*4+math.sin(q.anim_time*90*12)*-0.2"],
					"position": [0, -0.5, 0]
				},
				"wing_open_left4": {
					"rotation": [0, 0, "-7.5+math.sin(q.anim_time*90*0.8-240)*10+math.sin(q.anim_time*90*12-120)*-0.4"]
				},
				"wing_closed_right": {
					"rotation": [-92.46677, 7.8791, 94.85228],
					"position": [0, -1, 6]
				},
				"wing_closed_right2": {
					"rotation": [5.08145, -3.03671, 1.64897]
				},
				"wing_closed_right3": {
					"rotation": [0.14119, -5.34894, 2.23628]
				},
				"wing_open_right": {
					"rotation": ["-10+math.sin(q.anim_time*90*0.8)*-3+math.sin(q.anim_time*90*12-90)*0.2", 0, "math.sin(q.anim_time*90*0.8-60)*-2"],
					"position": [0, -0.5, 0]
				},
				"wing_open_right2": {
					"rotation": ["2.5+math.sin(q.anim_time*90*0.8-60)*-1", -0.2, "5+math.sin(q.anim_time*90*0.8-120)*-4"],
					"position": [0, -0.2, 0]
				},
				"wing_open_right3": {
					"rotation": [2.5, -0.1, "2.5+math.sin(q.anim_time*90*0.8-180)*-4+math.sin(q.anim_time*90*12)*0.2"],
					"position": [0, -0.5, 0]
				},
				"wing_open_right4": {
					"rotation": [0, 0, "7.5+math.sin(q.anim_time*90*0.8-240)*-10+math.sin(q.anim_time*90*12-120)*0.4"]
				}
			}
		},
		"animation.pidgeot.air_fly_quirk": {
			"animation_length": 4.20833,
			"bones": {
				"body": {
					"rotation": {
						"0.0": {
							"post": [0, 0, 0],
							"lerp_mode": "catmullrom"
						},
						"0.5417": {
							"post": [1, 0, 0],
							"lerp_mode": "catmullrom"
						},
						"0.9583": {
							"post": [0.4, 0, 0],
							"lerp_mode": "catmullrom"
						},
						"1.3333": {
							"post": [-3, 0, 0],
							"lerp_mode": "catmullrom"
						},
						"1.625": {
							"post": [-7.03, 0, 0],
							"lerp_mode": "catmullrom"
						},
						"2.0": {
							"post": [-1, 0, 0],
							"lerp_mode": "catmullrom"
						},
						"2.4583": {
							"post": [4.33, 0, 0],
							"lerp_mode": "catmullrom"
						},
						"2.8333": {
							"post": [4.1, 0, 0],
							"lerp_mode": "catmullrom"
						},
						"3.3333": {
							"post": [0.81, 0, 0],
							"lerp_mode": "catmullrom"
						},
						"3.75": {
							"post": [0, 0, 0],
							"lerp_mode": "catmullrom"
						}
					},
					"position": {
						"0.0": {
							"post": [0, 0, 0],
							"lerp_mode": "catmullrom"
						},
						"0.5": {
							"post": [0, -1, 0],
							"lerp_mode": "catmullrom"
						},
						"0.875": {
							"post": [0, -2.75, 0],
							"lerp_mode": "catmullrom"
						},
						"1.25": {
							"post": [0, -3, 0],
							"lerp_mode": "catmullrom"
						},
						"1.7917": {
							"post": [0, 2, 0],
							"lerp_mode": "catmullrom"
						},
						"2.2083": {
							"post": [0, 2, 0],
							"lerp_mode": "catmullrom"
						},
						"3.0": {
							"post": [0, -0.4, 0],
							"lerp_mode": "catmullrom"
						},
						"3.75": {
							"post": [0, 0, 0],
							"lerp_mode": "catmullrom"
						}
					}
				},
				"tail": {
					"rotation": {
						"0.0": {
							"post": [0, 0, 0],
							"lerp_mode": "catmullrom"
						},
						"0.875": {
							"post": [2.5, 0, 0],
							"lerp_mode": "catmullrom"
						},
						"1.5": {
							"post": [0, 0, 0],
							"lerp_mode": "catmullrom"
						},
						"2.1667": {
							"post": [-10, 0, 0],
							"lerp_mode": "catmullrom"
						},
						"2.9583": {
							"post": [2.5, 0, 0],
							"lerp_mode": "catmullrom"
						},
						"4.2083": {
							"post": [0, 0, 0],
							"lerp_mode": "catmullrom"
						}
					}
				},
				"tail_left": {
					"rotation": {
						"0.0": {
							"post": [0, 0, 0],
							"lerp_mode": "catmullrom"
						},
						"0.875": {
							"post": [0, 1, 0],
							"lerp_mode": "catmullrom"
						},
						"1.125": {
							"post": [0, 1, 0],
							"lerp_mode": "catmullrom"
						},
						"1.625": {
							"post": [1, -3, 0],
							"lerp_mode": "catmullrom"
						},
						"3.0": {
							"post": [0, 0, 0],
							"lerp_mode": "catmullrom"
						}
					}
				},
				"tail_right": {
					"rotation": {
						"0.0": {
							"post": [0, 0, 0],
							"lerp_mode": "catmullrom"
						},
						"0.875": {
							"post": [0, -1, 0],
							"lerp_mode": "catmullrom"
						},
						"1.125": {
							"post": [0, -1, 0],
							"lerp_mode": "catmullrom"
						},
						"1.625": {
							"post": [1, 3, 0],
							"lerp_mode": "catmullrom"
						},
						"3.0": {
							"post": [0, 0, 0],
							"lerp_mode": "catmullrom"
						}
					}
				},
				"tail_left2": {
					"rotation": {
						"0.0": {
							"post": [0, 0, 0],
							"lerp_mode": "catmullrom"
						},
						"0.875": {
							"post": [0, 2, 0],
							"lerp_mode": "catmullrom"
						},
						"1.125": {
							"post": [0, 2, 0],
							"lerp_mode": "catmullrom"
						},
						"1.625": {
							"post": [0, -7, 0],
							"lerp_mode": "catmullrom"
						},
						"3.0": {
							"post": [0, 0, 0],
							"lerp_mode": "catmullrom"
						}
					}
				},
				"tail_right2": {
					"rotation": {
						"0.0": {
							"post": [0, 0, 0],
							"lerp_mode": "catmullrom"
						},
						"0.875": {
							"post": [0, -2, 0],
							"lerp_mode": "catmullrom"
						},
						"1.125": {
							"post": [0, -2, 0],
							"lerp_mode": "catmullrom"
						},
						"1.625": {
							"post": [0, 7, 0],
							"lerp_mode": "catmullrom"
						},
						"3.0": {
							"post": [0, 0, 0],
							"lerp_mode": "catmullrom"
						}
					}
				},
				"neck": {
					"rotation": {
						"0.0": {
							"post": [0, 0, 0],
							"lerp_mode": "catmullrom"
						},
						"0.7917": {
							"post": [10, 0, 0],
							"lerp_mode": "catmullrom"
						},
						"1.3333": {
							"post": [0, 0, 0],
							"lerp_mode": "catmullrom"
						},
						"1.7917": {
							"post": [-5, 0, 0],
							"lerp_mode": "catmullrom"
						},
						"2.7083": {
							"post": [1.9, 0, 0],
							"lerp_mode": "catmullrom"
						},
						"3.3333": {
							"post": [1.2, 0, 0],
							"lerp_mode": "catmullrom"
						},
						"3.9167": {
							"post": [0, 0, 0],
							"lerp_mode": "catmullrom"
						}
					}
				},
				"head": {
					"rotation": {
						"0.0": {
							"post": [0, 0, 0],
							"lerp_mode": "catmullrom"
						},
						"0.3333": {
							"post": [-2.5, 0, 0],
							"lerp_mode": "catmullrom"
						},
						"0.7917": {
							"post": [-5, 0, 0],
							"lerp_mode": "catmullrom"
						},
						"1.0833": {
							"post": [-3.31, 0, 0],
							"lerp_mode": "catmullrom"
						},
						"1.5": {
							"post": [0.25, 0, 0],
							"lerp_mode": "catmullrom"
						},
						"2.1667": {
							"post": [2.49, 0, 0],
							"lerp_mode": "catmullrom"
						},
						"2.625": {
							"post": [2.49, 0, 0],
							"lerp_mode": "catmullrom"
						},
						"3.3333": {
							"post": [0.5, 0, 0],
							"lerp_mode": "catmullrom"
						},
						"3.875": {
							"post": [0, 0, 0],
							"lerp_mode": "catmullrom"
						}
					}
				},
				"hair4": {
					"rotation": {
						"0.0": {
							"post": [0, 0, 0],
							"lerp_mode": "catmullrom"
						},
						"0.7917": {
							"post": [-12.28, 0, 0],
							"lerp_mode": "catmullrom"
						},
						"1.2917": {
							"post": [11.57, 0, 0],
							"lerp_mode": "catmullrom"
						},
						"1.5": {
							"post": [11.57, 0, 0],
							"lerp_mode": "catmullrom"
						},
						"1.8333": {
							"post": [0.2, 0, 0],
							"lerp_mode": "catmullrom"
						},
						"2.75": {
							"post": [4.81, 0, 0],
							"lerp_mode": "catmullrom"
						},
						"4.0417": {
							"post": [0, 0, 0],
							"lerp_mode": "catmullrom"
						}
					}
				},
				"foot_right": {
					"rotation": {
						"0.0": {
							"post": [0, 0, 0],
							"lerp_mode": "catmullrom"
						},
						"0.2083": {
							"post": [0, 0, 0],
							"lerp_mode": "catmullrom"
						},
						"0.7083": {
							"post": [5, 0, 0],
							"lerp_mode": "catmullrom"
						},
						"1.2083": {
							"post": [-5, 0, 0],
							"lerp_mode": "catmullrom"
						},
						"1.875": {
							"post": [-20, 0, 0],
							"lerp_mode": "catmullrom"
						},
						"2.8333": {
							"post": [2, 0, 0],
							"lerp_mode": "catmullrom"
						},
						"3.5833": {
							"post": [-1, 0, 0],
							"lerp_mode": "catmullrom"
						},
						"4.0417": {
							"post": [0, 0, 0],
							"lerp_mode": "catmullrom"
						}
					}
				},
				"foot_left": {
					"rotation": {
						"0.0": {
							"post": [0, 0, 0],
							"lerp_mode": "catmullrom"
						},
						"0.2083": {
							"post": [0, 0, 0],
							"lerp_mode": "catmullrom"
						},
						"0.7083": {
							"post": [5, 0, 0],
							"lerp_mode": "catmullrom"
						},
						"1.2083": {
							"post": [-5, 0, 0],
							"lerp_mode": "catmullrom"
						},
						"1.875": {
							"post": [-20, 0, 0],
							"lerp_mode": "catmullrom"
						},
						"2.8333": {
							"post": [2, 0, 0],
							"lerp_mode": "catmullrom"
						},
						"3.5833": {
							"post": [-1, 0, 0],
							"lerp_mode": "catmullrom"
						},
						"4.0417": {
							"post": [0, 0, 0],
							"lerp_mode": "catmullrom"
						}
					}
				},
				"hair3": {
					"rotation": {
						"0.0": {
							"post": [0, 0, 0],
							"lerp_mode": "catmullrom"
						},
						"0.4583": {
							"post": [5.7, 0, 0],
							"lerp_mode": "catmullrom"
						},
						"0.8333": {
							"post": [15, 0, 0],
							"lerp_mode": "catmullrom"
						},
						"1.75": {
							"post": [-3, 0, 0],
							"lerp_mode": "catmullrom"
						},
						"2.2917": {
							"post": [3.8, 0, 0],
							"lerp_mode": "catmullrom"
						},
						"3.125": {
							"post": [0.69, 0, 0],
							"lerp_mode": "catmullrom"
						},
						"3.9167": {
							"post": [0, 0, 0],
							"lerp_mode": "catmullrom"
						}
					}
				},
				"hair5": {
					"rotation": {
						"0.0": {
							"post": [0, 0, 0],
							"lerp_mode": "catmullrom"
						},
						"0.6667": {
							"post": [-2.5, 0, 0],
							"lerp_mode": "catmullrom"
						},
						"1.25": {
							"post": [2.88, 0, 0],
							"lerp_mode": "catmullrom"
						},
						"1.625": {
							"post": [21.5, 0, 0],
							"lerp_mode": "catmullrom"
						},
						"2.0417": {
							"post": [4.49, 0, 0],
							"lerp_mode": "catmullrom"
						},
						"2.7083": {
							"post": [4.12, 0, 0],
							"lerp_mode": "catmullrom"
						},
						"4.2083": {
							"post": [0, 0, 0],
							"lerp_mode": "catmullrom"
						}
					}
				},
				"hair6": {
					"rotation": {
						"0.0": {
							"post": [0, 0, 0],
							"lerp_mode": "catmullrom"
						},
						"0.5417": {
							"post": [-5, 0, 0],
							"lerp_mode": "catmullrom"
						},
						"1.3333": {
							"post": [-5, 0, 0],
							"lerp_mode": "catmullrom"
						},
						"1.7917": {
							"post": [8.21, 0, 0],
							"lerp_mode": "catmullrom"
						},
						"2.0833": {
							"post": [-16.93, 0, 0],
							"lerp_mode": "catmullrom"
						},
						"3.125": {
							"post": [-3.19, 0, 0],
							"lerp_mode": "catmullrom"
						},
						"4.2083": {
							"post": [0, 0, 0],
							"lerp_mode": "catmullrom"
						}
					}
				},
				"wing_open_left": {
					"rotation": {
						"0.0": {
							"post": [0, 0, 0],
							"lerp_mode": "catmullrom"
						},
						"0.375": {
							"post": [0, -0.3, 0],
							"lerp_mode": "catmullrom"
						},
						"0.7917": {
							"post": [-5, 3.3, -34.5],
							"lerp_mode": "catmullrom"
						},
						"1.1667": {
							"post": [-5, 8.3, -34.5],
							"lerp_mode": "catmullrom"
						},
						"1.625": {
							"post": [10, 4.1, 48],
							"lerp_mode": "catmullrom"
						},
						"1.875": {
							"post": [20, 0, 41],
							"lerp_mode": "catmullrom"
						},
						"2.3333": {
							"post": [7.4, 0, -6],
							"lerp_mode": "catmullrom"
						},
						"2.9583": {
							"post": [0, 0, 0],
							"lerp_mode": "catmullrom"
						}
					},
					"position": {
						"0.0": {
							"post": [0, 0, 0],
							"lerp_mode": "catmullrom"
						},
						"0.375": {
							"post": [0, 0, 0],
							"lerp_mode": "catmullrom"
						},
						"0.7917": {
							"post": [0, 0.4, 0],
							"lerp_mode": "catmullrom"
						},
						"1.1667": {
							"post": [0, 0.4, 0],
							"lerp_mode": "catmullrom"
						},
						"1.625": {
							"post": [0, -0.7, 0],
							"lerp_mode": "catmullrom"
						},
						"1.875": {
							"post": [0, -0.45, 0],
							"lerp_mode": "catmullrom"
						},
						"2.125": {
							"post": [0, -0.45, 0],
							"lerp_mode": "catmullrom"
						},
						"2.5": {
							"post": [0, 0.15, 0],
							"lerp_mode": "catmullrom"
						},
						"3.2083": {
							"post": [0, 0, 0],
							"lerp_mode": "catmullrom"
						}
					}
				},
				"wing_open_left2": {
					"rotation": {
						"0.0": {
							"post": [0, 0, 0],
							"lerp_mode": "catmullrom"
						},
						"0.4583": {
							"post": [0, -6.2, 10],
							"lerp_mode": "catmullrom"
						},
						"0.75": {
							"post": [0, -17.4, 17.5],
							"lerp_mode": "catmullrom"
						},
						"1.375": {
							"post": [0, 5, -27.5],
							"lerp_mode": "catmullrom"
						},
						"1.7083": {
							"post": [0, 3, 25],
							"lerp_mode": "catmullrom"
						},
						"2.125": {
							"post": [0, 0, 42.5],
							"lerp_mode": "catmullrom"
						},
						"2.4583": {
							"post": [0, 0, -7],
							"lerp_mode": "catmullrom"
						},
						"3.0833": {
							"post": [0, 0, 0],
							"lerp_mode": "catmullrom"
						}
					}
				},
				"wing_open_left3": {
					"rotation": {
						"0.0": {
							"post": [0, 0, 0],
							"lerp_mode": "catmullrom"
						},
						"0.3333": {
							"post": [0, -3.9, 15],
							"lerp_mode": "catmullrom"
						},
						"0.6667": {
							"post": [0, -6.1, 30],
							"lerp_mode": "catmullrom"
						},
						"1.125": {
							"post": [0, 0, -10],
							"lerp_mode": "catmullrom"
						},
						"1.5": {
							"post": [0, 2.8, -15.56],
							"lerp_mode": "catmullrom"
						},
						"1.7917": {
							"post": [0, -6.7, 30],
							"lerp_mode": "catmullrom"
						},
						"2.2917": {
							"post": [0, -5, 40],
							"lerp_mode": "catmullrom"
						},
						"2.625": {
							"post": [0, 0, -20],
							"lerp_mode": "catmullrom"
						},
						"3.4583": {
							"post": [0, 0, 0],
							"lerp_mode": "catmullrom"
						}
					}
				},
				"wing_open_left4": {
					"rotation": {
						"0.0": {
							"post": [0, 0, 0],
							"lerp_mode": "catmullrom"
						},
						"0.4167": {
							"post": [0, 0, -5],
							"lerp_mode": "catmullrom"
						},
						"0.75": {
							"post": [0, 0, 20],
							"lerp_mode": "catmullrom"
						},
						"1.1667": {
							"post": [0, 0, -15],
							"lerp_mode": "catmullrom"
						},
						"1.625": {
							"post": [0, 0, -22.5],
							"lerp_mode": "catmullrom"
						},
						"1.875": {
							"post": [0, 0, 40],
							"lerp_mode": "catmullrom"
						},
						"2.375": {
							"post": [0, 0, 27.5],
							"lerp_mode": "catmullrom"
						},
						"2.7083": {
							"post": [0, 0, -15],
							"lerp_mode": "catmullrom"
						},
						"3.625": {
							"post": [0, 0, 0],
							"lerp_mode": "catmullrom"
						}
					}
				},
				"wing_open_right": {
					"rotation": {
						"0.0": {
							"post": [0, 0, 0],
							"lerp_mode": "catmullrom"
						},
						"0.375": {
							"post": [0, 0.3, 0],
							"lerp_mode": "catmullrom"
						},
						"0.7917": {
							"post": [-5, -3.3, 34.5],
							"lerp_mode": "catmullrom"
						},
						"1.1667": {
							"post": [-5, -8.3, 34.5],
							"lerp_mode": "catmullrom"
						},
						"1.625": {
							"post": [10, -4.1, -48],
							"lerp_mode": "catmullrom"
						},
						"1.875": {
							"post": [20, 0, -41],
							"lerp_mode": "catmullrom"
						},
						"2.3333": {
							"post": [7.4, 0, 6],
							"lerp_mode": "catmullrom"
						},
						"2.9583": {
							"post": [0, 0, 0],
							"lerp_mode": "catmullrom"
						}
					},
					"position": {
						"0.0": {
							"post": [0, 0, 0],
							"lerp_mode": "catmullrom"
						},
						"0.375": {
							"post": [0, 0, 0],
							"lerp_mode": "catmullrom"
						},
						"0.7917": {
							"post": [0, 0.4, 0],
							"lerp_mode": "catmullrom"
						},
						"1.1667": {
							"post": [0, 0.4, 0],
							"lerp_mode": "catmullrom"
						},
						"1.625": {
							"post": [0, -0.7, 0],
							"lerp_mode": "catmullrom"
						},
						"1.875": {
							"post": [0, -0.5, 0],
							"lerp_mode": "catmullrom"
						},
						"2.3333": {
							"post": [0, 0.4, 0],
							"lerp_mode": "catmullrom"
						},
						"2.9583": {
							"post": [0, 0, 0],
							"lerp_mode": "catmullrom"
						}
					}
				},
				"wing_open_right2": {
					"rotation": {
						"0.0": {
							"post": [0, 0, 0],
							"lerp_mode": "catmullrom"
						},
						"0.4583": {
							"post": [0, 6.2, -10],
							"lerp_mode": "catmullrom"
						},
						"0.75": {
							"post": [0, 17.4, -17.5],
							"lerp_mode": "catmullrom"
						},
						"1.375": {
							"post": [0, -5, 27.5],
							"lerp_mode": "catmullrom"
						},
						"1.7083": {
							"post": [0, -3, -25],
							"lerp_mode": "catmullrom"
						},
						"2.125": {
							"post": [0, 0, -42.5],
							"lerp_mode": "catmullrom"
						},
						"2.4583": {
							"post": [0, 0, 7],
							"lerp_mode": "catmullrom"
						},
						"3.0833": {
							"post": [0, 0, 0],
							"lerp_mode": "catmullrom"
						}
					}
				},
				"wing_open_right3": {
					"rotation": {
						"0.0": {
							"post": [0, 0, 0],
							"lerp_mode": "catmullrom"
						},
						"0.3333": {
							"post": [0, 3.9, -15],
							"lerp_mode": "catmullrom"
						},
						"0.6667": {
							"post": [0, 6.1, -30],
							"lerp_mode": "catmullrom"
						},
						"1.125": {
							"post": [0, 0, 10],
							"lerp_mode": "catmullrom"
						},
						"1.5": {
							"post": [0, -2.8, 15.56],
							"lerp_mode": "catmullrom"
						},
						"1.7917": {
							"post": [0, 6.7, -30],
							"lerp_mode": "catmullrom"
						},
						"2.2917": {
							"post": [0, 5, -40],
							"lerp_mode": "catmullrom"
						},
						"2.625": {
							"post": [0, 0, 20],
							"lerp_mode": "catmullrom"
						},
						"3.4583": {
							"post": [0, 0, 0],
							"lerp_mode": "catmullrom"
						}
					}
				},
				"wing_open_right4": {
					"rotation": {
						"0.0": {
							"post": [0, 0, 0],
							"lerp_mode": "catmullrom"
						},
						"0.4167": {
							"post": [0, 0, 5],
							"lerp_mode": "catmullrom"
						},
						"0.75": {
							"post": [0, 0, -20],
							"lerp_mode": "catmullrom"
						},
						"1.1667": {
							"post": [0, 0, 15],
							"lerp_mode": "catmullrom"
						},
						"1.625": {
							"post": [0, 0, 22.5],
							"lerp_mode": "catmullrom"
						},
						"1.875": {
							"post": [0, 0, -40],
							"lerp_mode": "catmullrom"
						},
						"2.375": {
							"post": [0, 0, -27.5],
							"lerp_mode": "catmullrom"
						},
						"2.7083": {
							"post": [0, 0, 15],
							"lerp_mode": "catmullrom"
						},
						"3.625": {
							"post": [0, 0, 0],
							"lerp_mode": "catmullrom"
						}
					}
				}
			}
		},
		"animation.pidgeot.air_fly_quirk2": {
			"animation_length": 6.33333,
			"bones": {
				"body": {
					"rotation": {
						"0.0": {
							"post": [0, 0, 0],
							"lerp_mode": "catmullrom"
						},
						"0.5417": {
							"post": [1, 0, 0],
							"lerp_mode": "catmullrom"
						},
						"0.9583": {
							"post": [0.4, 0, 0],
							"lerp_mode": "catmullrom"
						},
						"1.3333": {
							"post": [-3, 0, 0],
							"lerp_mode": "catmullrom"
						},
						"1.625": {
							"post": [-7.03, 0, 0],
							"lerp_mode": "catmullrom"
						},
						"2.0": {
							"post": [-1, 0, 0],
							"lerp_mode": "catmullrom"
						},
						"2.4583": {
							"post": [4.33, 0, 0],
							"lerp_mode": "catmullrom"
						},
						"3.375": {
							"post": [-4.63, 0, 0],
							"lerp_mode": "catmullrom"
						},
						"3.75": {
							"post": [-1, 0, 0],
							"lerp_mode": "catmullrom"
						},
						"4.2083": {
							"post": [4.33, 0, 0],
							"lerp_mode": "catmullrom"
						},
						"4.5833": {
							"post": [4.1, 0, 0],
							"lerp_mode": "catmullrom"
						},
						"5.0833": {
							"post": [0.81, 0, 0],
							"lerp_mode": "catmullrom"
						},
						"6.0": {
							"post": [0, 0, 0],
							"lerp_mode": "catmullrom"
						}
					},
					"position": {
						"0.0": {
							"post": [0, 0, 0],
							"lerp_mode": "catmullrom"
						},
						"0.5": {
							"post": [0, -1, 0],
							"lerp_mode": "catmullrom"
						},
						"0.875": {
							"post": [0, -2.75, 0],
							"lerp_mode": "catmullrom"
						},
						"1.25": {
							"post": [0, -3, 0],
							"lerp_mode": "catmullrom"
						},
						"1.7917": {
							"post": [0, 2, 0],
							"lerp_mode": "catmullrom"
						},
						"2.2083": {
							"post": [0, 2, 0],
							"lerp_mode": "catmullrom"
						},
						"3.0417": {
							"post": [0, -2, 0],
							"lerp_mode": "catmullrom"
						},
						"3.5417": {
							"post": [0, 2.75, 0],
							"lerp_mode": "catmullrom"
						},
						"3.9583": {
							"post": [0, 2.75, 0],
							"lerp_mode": "catmullrom"
						},
						"4.9583": {
							"post": [0, -0.4, 0],
							"lerp_mode": "catmullrom"
						},
						"6.2917": {
							"post": [0, 0, 0],
							"lerp_mode": "catmullrom"
						}
					}
				},
				"tail": {
					"rotation": {
						"0.0": {
							"post": [0, 0, 0],
							"lerp_mode": "catmullrom"
						},
						"0.875": {
							"post": [2.5, 0, 0],
							"lerp_mode": "catmullrom"
						},
						"1.5": {
							"post": [0, 0, 0],
							"lerp_mode": "catmullrom"
						},
						"2.1667": {
							"post": [-10, 0, 0],
							"lerp_mode": "catmullrom"
						},
						"3.25": {
							"post": [0, 0, 0],
							"lerp_mode": "catmullrom"
						},
						"3.9167": {
							"post": [-10, 0, 0],
							"lerp_mode": "catmullrom"
						},
						"4.7083": {
							"post": [2.5, 0, 0],
							"lerp_mode": "catmullrom"
						},
						"5.9583": {
							"post": [0, 0, 0],
							"lerp_mode": "catmullrom"
						}
					}
				},
				"tail_left": {
					"rotation": {
						"0.0": {
							"post": [0, 0, 0],
							"lerp_mode": "catmullrom"
						},
						"0.875": {
							"post": [0, 1, 0],
							"lerp_mode": "catmullrom"
						},
						"1.125": {
							"post": [0, 1, 0],
							"lerp_mode": "catmullrom"
						},
						"1.625": {
							"post": [1, -3, 0],
							"lerp_mode": "catmullrom"
						},
						"2.875": {
							"post": [0, 1, 0],
							"lerp_mode": "catmullrom"
						},
						"3.375": {
							"post": [1, -3, 0],
							"lerp_mode": "catmullrom"
						},
						"4.75": {
							"post": [0, 0, 0],
							"lerp_mode": "catmullrom"
						}
					}
				},
				"tail_right": {
					"rotation": {
						"0.0": {
							"post": [0, 0, 0],
							"lerp_mode": "catmullrom"
						},
						"0.875": {
							"post": [0, -1, 0],
							"lerp_mode": "catmullrom"
						},
						"1.125": {
							"post": [0, -1, 0],
							"lerp_mode": "catmullrom"
						},
						"1.625": {
							"post": [1, 3, 0],
							"lerp_mode": "catmullrom"
						},
						"2.875": {
							"post": [0, -1, 0],
							"lerp_mode": "catmullrom"
						},
						"3.375": {
							"post": [1, 3, 0],
							"lerp_mode": "catmullrom"
						},
						"4.75": {
							"post": [0, 0, 0],
							"lerp_mode": "catmullrom"
						}
					}
				},
				"tail_left2": {
					"rotation": {
						"0.0": {
							"post": [0, 0, 0],
							"lerp_mode": "catmullrom"
						},
						"0.875": {
							"post": [0, 2, 0],
							"lerp_mode": "catmullrom"
						},
						"1.125": {
							"post": [0, 2, 0],
							"lerp_mode": "catmullrom"
						},
						"1.625": {
							"post": [0, -7, 0],
							"lerp_mode": "catmullrom"
						},
						"2.875": {
							"post": [0, 2, 0],
							"lerp_mode": "catmullrom"
						},
						"3.375": {
							"post": [0, -7, 0],
							"lerp_mode": "catmullrom"
						},
						"4.75": {
							"post": [0, 0, 0],
							"lerp_mode": "catmullrom"
						}
					}
				},
				"tail_right2": {
					"rotation": {
						"0.0": {
							"post": [0, 0, 0],
							"lerp_mode": "catmullrom"
						},
						"0.875": {
							"post": [0, -2, 0],
							"lerp_mode": "catmullrom"
						},
						"1.125": {
							"post": [0, -2, 0],
							"lerp_mode": "catmullrom"
						},
						"1.625": {
							"post": [0, 7, 0],
							"lerp_mode": "catmullrom"
						},
						"2.875": {
							"post": [0, -2, 0],
							"lerp_mode": "catmullrom"
						},
						"3.375": {
							"post": [0, 7, 0],
							"lerp_mode": "catmullrom"
						},
						"4.75": {
							"post": [0, 0, 0],
							"lerp_mode": "catmullrom"
						}
					}
				},
				"neck": {
					"rotation": {
						"0.0": {
							"post": [0, 0, 0],
							"lerp_mode": "catmullrom"
						},
						"0.7917": {
							"post": [10, 0, 0],
							"lerp_mode": "catmullrom"
						},
						"1.3333": {
							"post": [0, 0, 0],
							"lerp_mode": "catmullrom"
						},
						"1.7917": {
							"post": [-5, 0, 0],
							"lerp_mode": "catmullrom"
						},
						"3.0833": {
							"post": [0, 0, 0],
							"lerp_mode": "catmullrom"
						},
						"3.5417": {
							"post": [-5, 0, 0],
							"lerp_mode": "catmullrom"
						},
						"4.4583": {
							"post": [1.9, 0, 0],
							"lerp_mode": "catmullrom"
						},
						"5.0833": {
							"post": [1.2, 0, 0],
							"lerp_mode": "catmullrom"
						},
						"5.6667": {
							"post": [0, 0, 0],
							"lerp_mode": "catmullrom"
						}
					}
				},
				"head": {
					"rotation": {
						"0.0": {
							"post": [0, 0, 0],
							"lerp_mode": "catmullrom"
						},
						"0.3333": {
							"post": [-2.5, 0, 0],
							"lerp_mode": "catmullrom"
						},
						"0.7917": {
							"post": [-5, 0, 0],
							"lerp_mode": "catmullrom"
						},
						"1.0833": {
							"post": [-3.31, 0, 0],
							"lerp_mode": "catmullrom"
						},
						"1.5": {
							"post": [0.25, 0, 0],
							"lerp_mode": "catmullrom"
						},
						"2.1667": {
							"post": [2.49, 0, 0],
							"lerp_mode": "catmullrom"
						},
						"2.8333": {
							"post": [-3.31, 0, 0],
							"lerp_mode": "catmullrom"
						},
						"3.25": {
							"post": [0.25, 0, 0],
							"lerp_mode": "catmullrom"
						},
						"3.9167": {
							"post": [2.49, 0, 0],
							"lerp_mode": "catmullrom"
						},
						"4.375": {
							"post": [2.49, 0, 0],
							"lerp_mode": "catmullrom"
						},
						"5.0833": {
							"post": [0.5, 0, 0],
							"lerp_mode": "catmullrom"
						},
						"5.625": {
							"post": [0, 0, 0],
							"lerp_mode": "catmullrom"
						}
					}
				},
				"hair4": {
					"rotation": {
						"0.0": {
							"post": [0, 0, 0],
							"lerp_mode": "catmullrom"
						},
						"0.7917": {
							"post": [-12.28, 0, 0],
							"lerp_mode": "catmullrom"
						},
						"1.2917": {
							"post": [11.57, 0, 0],
							"lerp_mode": "catmullrom"
						},
						"1.5": {
							"post": [11.57, 0, 0],
							"lerp_mode": "catmullrom"
						},
						"1.8333": {
							"post": [0.2, 0, 0],
							"lerp_mode": "catmullrom"
						},
						"3.0417": {
							"post": [11.57, 0, 0],
							"lerp_mode": "catmullrom"
						},
						"3.25": {
							"post": [11.57, 0, 0],
							"lerp_mode": "catmullrom"
						},
						"3.5833": {
							"post": [0.2, 0, 0],
							"lerp_mode": "catmullrom"
						},
						"4.5": {
							"post": [4.81, 0, 0],
							"lerp_mode": "catmullrom"
						},
						"5.7917": {
							"post": [0, 0, 0],
							"lerp_mode": "catmullrom"
						}
					}
				},
				"foot_right": {
					"rotation": {
						"0.0": {
							"post": [0, 0, 0],
							"lerp_mode": "catmullrom"
						},
						"0.2083": {
							"post": [0, 0, 0],
							"lerp_mode": "catmullrom"
						},
						"0.7083": {
							"post": [5, 0, 0],
							"lerp_mode": "catmullrom"
						},
						"1.2083": {
							"post": [-5, 0, 0],
							"lerp_mode": "catmullrom"
						},
						"1.875": {
							"post": [-20, 0, 0],
							"lerp_mode": "catmullrom"
						},
						"2.9583": {
							"post": [-5, 0, 0],
							"lerp_mode": "catmullrom"
						},
						"3.625": {
							"post": [-20, 0, 0],
							"lerp_mode": "catmullrom"
						},
						"4.5833": {
							"post": [2, 0, 0],
							"lerp_mode": "catmullrom"
						},
						"5.3333": {
							"post": [-1, 0, 0],
							"lerp_mode": "catmullrom"
						},
						"5.7917": {
							"post": [0, 0, 0],
							"lerp_mode": "catmullrom"
						}
					}
				},
				"foot_left": {
					"rotation": {
						"0.0": {
							"post": [0, 0, 0],
							"lerp_mode": "catmullrom"
						},
						"0.2083": {
							"post": [0, 0, 0],
							"lerp_mode": "catmullrom"
						},
						"0.7083": {
							"post": [5, 0, 0],
							"lerp_mode": "catmullrom"
						},
						"1.2083": {
							"post": [-5, 0, 0],
							"lerp_mode": "catmullrom"
						},
						"1.875": {
							"post": [-20, 0, 0],
							"lerp_mode": "catmullrom"
						},
						"2.9583": {
							"post": [-5, 0, 0],
							"lerp_mode": "catmullrom"
						},
						"3.625": {
							"post": [-20, 0, 0],
							"lerp_mode": "catmullrom"
						},
						"4.5833": {
							"post": [2, 0, 0],
							"lerp_mode": "catmullrom"
						},
						"5.3333": {
							"post": [-1, 0, 0],
							"lerp_mode": "catmullrom"
						},
						"5.7917": {
							"post": [0, 0, 0],
							"lerp_mode": "catmullrom"
						}
					}
				},
				"hair3": {
					"rotation": {
						"0.0": {
							"post": [0, 0, 0],
							"lerp_mode": "catmullrom"
						},
						"0.4583": {
							"post": [5.7, 0, 0],
							"lerp_mode": "catmullrom"
						},
						"0.8333": {
							"post": [15, 0, 0],
							"lerp_mode": "catmullrom"
						},
						"1.75": {
							"post": [-3, 0, 0],
							"lerp_mode": "catmullrom"
						},
						"2.2917": {
							"post": [3.8, 0, 0],
							"lerp_mode": "catmullrom"
						},
						"3.5": {
							"post": [-3, 0, 0],
							"lerp_mode": "catmullrom"
						},
						"4.0417": {
							"post": [3.8, 0, 0],
							"lerp_mode": "catmullrom"
						},
						"4.875": {
							"post": [0.69, 0, 0],
							"lerp_mode": "catmullrom"
						},
						"5.6667": {
							"post": [0, 0, 0],
							"lerp_mode": "catmullrom"
						}
					}
				},
				"hair5": {
					"rotation": {
						"0.0": {
							"post": [0, 0, 0],
							"lerp_mode": "catmullrom"
						},
						"0.6667": {
							"post": [-2.5, 0, 0],
							"lerp_mode": "catmullrom"
						},
						"1.25": {
							"post": [2.88, 0, 0],
							"lerp_mode": "catmullrom"
						},
						"1.625": {
							"post": [21.5, 0, 0],
							"lerp_mode": "catmullrom"
						},
						"2.0417": {
							"post": [4.49, 0, 0],
							"lerp_mode": "catmullrom"
						},
						"3.0": {
							"post": [2.88, 0, 0],
							"lerp_mode": "catmullrom"
						},
						"3.375": {
							"post": [21.5, 0, 0],
							"lerp_mode": "catmullrom"
						},
						"3.7917": {
							"post": [4.49, 0, 0],
							"lerp_mode": "catmullrom"
						},
						"4.4583": {
							"post": [4.12, 0, 0],
							"lerp_mode": "catmullrom"
						},
						"5.9583": {
							"post": [0, 0, 0],
							"lerp_mode": "catmullrom"
						}
					}
				},
				"hair6": {
					"rotation": {
						"0.0": {
							"post": [0, 0, 0],
							"lerp_mode": "catmullrom"
						},
						"0.5417": {
							"post": [-5, 0, 0],
							"lerp_mode": "catmullrom"
						},
						"1.3333": {
							"post": [-5, 0, 0],
							"lerp_mode": "catmullrom"
						},
						"1.7917": {
							"post": [8.21, 0, 0],
							"lerp_mode": "catmullrom"
						},
						"2.0833": {
							"post": [-16.93, 0, 0],
							"lerp_mode": "catmullrom"
						},
						"3.0833": {
							"post": [-5, 0, 0],
							"lerp_mode": "catmullrom"
						},
						"3.5417": {
							"post": [8.21, 0, 0],
							"lerp_mode": "catmullrom"
						},
						"3.8333": {
							"post": [-16.93, 0, 0],
							"lerp_mode": "catmullrom"
						},
						"4.875": {
							"post": [-3.19, 0, 0],
							"lerp_mode": "catmullrom"
						},
						"5.9583": {
							"post": [0, 0, 0],
							"lerp_mode": "catmullrom"
						}
					}
				},
				"wing_open_left": {
					"rotation": {
						"0.0": {
							"post": [0, 0, 0],
							"lerp_mode": "catmullrom"
						},
						"0.375": {
							"post": [0, -0.3, 0],
							"lerp_mode": "catmullrom"
						},
						"0.7917": {
							"post": [-5, 3.3, -34.5],
							"lerp_mode": "catmullrom"
						},
						"1.1667": {
							"post": [-5, 8.3, -34.5],
							"lerp_mode": "catmullrom"
						},
						"1.625": {
							"post": [10, 4.1, 48],
							"lerp_mode": "catmullrom"
						},
						"1.875": {
							"post": [20, 0, 41],
							"lerp_mode": "catmullrom"
						},
						"2.3333": {
							"post": [7.4, 0, -6],
							"lerp_mode": "catmullrom"
						},
						"2.9167": {
							"post": [-5, 8.3, -34.5],
							"lerp_mode": "catmullrom"
						},
						"3.375": {
							"post": [10, 4.1, 48],
							"lerp_mode": "catmullrom"
						},
						"3.625": {
							"post": [20, 0, 41],
							"lerp_mode": "catmullrom"
						},
						"4.0833": {
							"post": [7.4, 0, -6],
							"lerp_mode": "catmullrom"
						},
						"4.7083": {
							"post": [0, 0, 0],
							"lerp_mode": "catmullrom"
						}
					},
					"position": {
						"0.0": {
							"post": [0, 0, 0],
							"lerp_mode": "catmullrom"
						},
						"0.375": {
							"post": [0, 0, 0],
							"lerp_mode": "catmullrom"
						},
						"0.7917": {
							"post": [0, 0.4, 0],
							"lerp_mode": "catmullrom"
						},
						"1.1667": {
							"post": [0, 0.4, 0],
							"lerp_mode": "catmullrom"
						},
						"1.625": {
							"post": [0, -0.7, 0],
							"lerp_mode": "catmullrom"
						},
						"1.875": {
							"post": [0, -0.5, 0],
							"lerp_mode": "catmullrom"
						},
						"2.3333": {
							"post": [0, 0.05, 0],
							"lerp_mode": "catmullrom"
						},
						"2.9167": {
							"post": [0, 0.2, 0],
							"lerp_mode": "catmullrom"
						},
						"3.375": {
							"post": [0, -0.7, 0],
							"lerp_mode": "catmullrom"
						},
						"3.625": {
							"post": [0, -0.5, 0],
							"lerp_mode": "catmullrom"
						},
						"4.0833": {
							"post": [0, 0.4, 0],
							"lerp_mode": "catmullrom"
						},
						"5.0": {
							"post": [0, 0, 0],
							"lerp_mode": "catmullrom"
						}
					}
				},
				"wing_open_left2": {
					"rotation": {
						"0.0": {
							"post": [0, 0, 0],
							"lerp_mode": "catmullrom"
						},
						"0.4583": {
							"post": [0, -6.2, 10],
							"lerp_mode": "catmullrom"
						},
						"0.75": {
							"post": [0, -17.4, 17.5],
							"lerp_mode": "catmullrom"
						},
						"1.375": {
							"post": [0, 5, -27.5],
							"lerp_mode": "catmullrom"
						},
						"1.7083": {
							"post": [0, 3, 25],
							"lerp_mode": "catmullrom"
						},
						"2.125": {
							"post": [0, 0, 42.5],
							"lerp_mode": "catmullrom"
						},
						"2.4583": {
							"post": [0, 0, -7],
							"lerp_mode": "catmullrom"
						},
						"3.125": {
							"post": [0, 5, -27.5],
							"lerp_mode": "catmullrom"
						},
						"3.4583": {
							"post": [0, 3, 25],
							"lerp_mode": "catmullrom"
						},
						"3.875": {
							"post": [0, 0, 42.5],
							"lerp_mode": "catmullrom"
						},
						"4.2083": {
							"post": [0, 0, -7],
							"lerp_mode": "catmullrom"
						},
						"4.8333": {
							"post": [0, 0, 0],
							"lerp_mode": "catmullrom"
						}
					}
				},
				"wing_open_left3": {
					"rotation": {
						"0.0": {
							"post": [0, 0, 0],
							"lerp_mode": "catmullrom"
						},
						"0.3333": {
							"post": [0, -3.9, 15],
							"lerp_mode": "catmullrom"
						},
						"0.6667": {
							"post": [0, -6.1, 30],
							"lerp_mode": "catmullrom"
						},
						"1.125": {
							"post": [0, 0, -10],
							"lerp_mode": "catmullrom"
						},
						"1.5": {
							"post": [0, 2.8, -15.56],
							"lerp_mode": "catmullrom"
						},
						"1.7917": {
							"post": [0, -6.7, 30],
							"lerp_mode": "catmullrom"
						},
						"2.2917": {
							"post": [0, -5, 40],
							"lerp_mode": "catmullrom"
						},
						"2.875": {
							"post": [0, 0, -10],
							"lerp_mode": "catmullrom"
						},
						"3.25": {
							"post": [0, 2.8, -15.56],
							"lerp_mode": "catmullrom"
						},
						"3.5417": {
							"post": [0, -6.7, 30],
							"lerp_mode": "catmullrom"
						},
						"4.0417": {
							"post": [0, -5, 40],
							"lerp_mode": "catmullrom"
						},
						"4.375": {
							"post": [0, 0, -20],
							"lerp_mode": "catmullrom"
						},
						"5.2083": {
							"post": [0, 0, 0],
							"lerp_mode": "catmullrom"
						}
					}
				},
				"wing_open_left4": {
					"rotation": {
						"0.0": {
							"post": [0, 0, 0],
							"lerp_mode": "catmullrom"
						},
						"0.4167": {
							"post": [0, 0, -5],
							"lerp_mode": "catmullrom"
						},
						"0.75": {
							"post": [0, 0, 20],
							"lerp_mode": "catmullrom"
						},
						"1.1667": {
							"post": [0, 0, -15],
							"lerp_mode": "catmullrom"
						},
						"1.625": {
							"post": [0, 0, -22.5],
							"lerp_mode": "catmullrom"
						},
						"1.875": {
							"post": [0, 0, 40],
							"lerp_mode": "catmullrom"
						},
						"2.375": {
							"post": [0, 0, 27.5],
							"lerp_mode": "catmullrom"
						},
						"2.9167": {
							"post": [0, 0, -15],
							"lerp_mode": "catmullrom"
						},
						"3.375": {
							"post": [0, 0, -22.5],
							"lerp_mode": "catmullrom"
						},
						"3.625": {
							"post": [0, 0, 40],
							"lerp_mode": "catmullrom"
						},
						"4.125": {
							"post": [0, 0, 27.5],
							"lerp_mode": "catmullrom"
						},
						"4.4583": {
							"post": [0, 0, -15],
							"lerp_mode": "catmullrom"
						},
						"5.375": {
							"post": [0, 0, 0],
							"lerp_mode": "catmullrom"
						}
					}
				},
				"wing_open_right": {
					"rotation": {
						"0.0": {
							"post": [0, 0, 0],
							"lerp_mode": "catmullrom"
						},
						"0.375": {
							"post": [0, 0.3, 0],
							"lerp_mode": "catmullrom"
						},
						"0.7917": {
							"post": [-5, -3.3, 34.5],
							"lerp_mode": "catmullrom"
						},
						"1.1667": {
							"post": [-5, -8.3, 34.5],
							"lerp_mode": "catmullrom"
						},
						"1.625": {
							"post": [10, -4.1, -48],
							"lerp_mode": "catmullrom"
						},
						"1.875": {
							"post": [20, 0, -41],
							"lerp_mode": "catmullrom"
						},
						"2.3333": {
							"post": [7.4, 0, 6],
							"lerp_mode": "catmullrom"
						},
						"2.9167": {
							"post": [-5, -8.3, 34.5],
							"lerp_mode": "catmullrom"
						},
						"3.375": {
							"post": [10, -4.1, -48],
							"lerp_mode": "catmullrom"
						},
						"3.625": {
							"post": [20, 0, -41],
							"lerp_mode": "catmullrom"
						},
						"4.0833": {
							"post": [7.4, 0, 6],
							"lerp_mode": "catmullrom"
						},
						"4.7083": {
							"post": [0, 0, 0],
							"lerp_mode": "catmullrom"
						}
					},
					"position": {
						"0.0": {
							"post": [0, 0, 0],
							"lerp_mode": "catmullrom"
						},
						"0.375": {
							"post": [0, 0, 0],
							"lerp_mode": "catmullrom"
						},
						"0.7917": {
							"post": [0, 0.4, 0],
							"lerp_mode": "catmullrom"
						},
						"1.1667": {
							"post": [0, 0.4, 0],
							"lerp_mode": "catmullrom"
						},
						"1.625": {
							"post": [0, -0.7, 0],
							"lerp_mode": "catmullrom"
						},
						"1.875": {
							"post": [0, -0.5, 0],
							"lerp_mode": "catmullrom"
						},
						"2.3333": {
							"post": [0, 0.05, 0],
							"lerp_mode": "catmullrom"
						},
						"2.9167": {
							"post": [0, 0.2, 0],
							"lerp_mode": "catmullrom"
						},
						"3.375": {
							"post": [0, -0.7, 0],
							"lerp_mode": "catmullrom"
						},
						"3.625": {
							"post": [0, -0.5, 0],
							"lerp_mode": "catmullrom"
						},
						"4.0833": {
							"post": [0, 0.4, 0],
							"lerp_mode": "catmullrom"
						},
						"5.0": {
							"post": [0, 0, 0],
							"lerp_mode": "catmullrom"
						}
					}
				},
				"wing_open_right2": {
					"rotation": {
						"0.0": {
							"post": [0, 0, 0],
							"lerp_mode": "catmullrom"
						},
						"0.4583": {
							"post": [0, 6.2, -10],
							"lerp_mode": "catmullrom"
						},
						"0.75": {
							"post": [0, 17.4, -17.5],
							"lerp_mode": "catmullrom"
						},
						"1.375": {
							"post": [0, -5, 27.5],
							"lerp_mode": "catmullrom"
						},
						"1.7083": {
							"post": [0, -3, -25],
							"lerp_mode": "catmullrom"
						},
						"2.125": {
							"post": [0, 0, -42.5],
							"lerp_mode": "catmullrom"
						},
						"2.4583": {
							"post": [0, 0, 7],
							"lerp_mode": "catmullrom"
						},
						"3.125": {
							"post": [0, -5, 27.5],
							"lerp_mode": "catmullrom"
						},
						"3.4583": {
							"post": [0, -3, -25],
							"lerp_mode": "catmullrom"
						},
						"3.875": {
							"post": [0, 0, -42.5],
							"lerp_mode": "catmullrom"
						},
						"4.2083": {
							"post": [0, 0, 7],
							"lerp_mode": "catmullrom"
						},
						"4.8333": {
							"post": [0, 0, 0],
							"lerp_mode": "catmullrom"
						}
					}
				},
				"wing_open_right3": {
					"rotation": {
						"0.0": {
							"post": [0, 0, 0],
							"lerp_mode": "catmullrom"
						},
						"0.3333": {
							"post": [0, 3.9, -15],
							"lerp_mode": "catmullrom"
						},
						"0.6667": {
							"post": [0, 6.1, -30],
							"lerp_mode": "catmullrom"
						},
						"1.125": {
							"post": [0, 0, 10],
							"lerp_mode": "catmullrom"
						},
						"1.5": {
							"post": [0, -2.8, 15.56],
							"lerp_mode": "catmullrom"
						},
						"1.7917": {
							"post": [0, 6.7, -30],
							"lerp_mode": "catmullrom"
						},
						"2.2917": {
							"post": [0, 5, -40],
							"lerp_mode": "catmullrom"
						},
						"2.875": {
							"post": [0, 0, 10],
							"lerp_mode": "catmullrom"
						},
						"3.25": {
							"post": [0, -2.8, 15.56],
							"lerp_mode": "catmullrom"
						},
						"3.5417": {
							"post": [0, 6.7, -30],
							"lerp_mode": "catmullrom"
						},
						"4.0417": {
							"post": [0, 5, -40],
							"lerp_mode": "catmullrom"
						},
						"4.375": {
							"post": [0, 0, 20],
							"lerp_mode": "catmullrom"
						},
						"5.2083": {
							"post": [0, 0, 0],
							"lerp_mode": "catmullrom"
						}
					}
				},
				"wing_open_right4": {
					"rotation": {
						"0.0": {
							"post": [0, 0, 0],
							"lerp_mode": "catmullrom"
						},
						"0.4167": {
							"post": [0, 0, 5],
							"lerp_mode": "catmullrom"
						},
						"0.75": {
							"post": [0, 0, -20],
							"lerp_mode": "catmullrom"
						},
						"1.1667": {
							"post": [0, 0, 15],
							"lerp_mode": "catmullrom"
						},
						"1.625": {
							"post": [0, 0, 22.5],
							"lerp_mode": "catmullrom"
						},
						"1.875": {
							"post": [0, 0, -40],
							"lerp_mode": "catmullrom"
						},
						"2.375": {
							"post": [0, 0, -27.5],
							"lerp_mode": "catmullrom"
						},
						"2.9167": {
							"post": [0, 0, 15],
							"lerp_mode": "catmullrom"
						},
						"3.375": {
							"post": [0, 0, 22.5],
							"lerp_mode": "catmullrom"
						},
						"3.625": {
							"post": [0, 0, -40],
							"lerp_mode": "catmullrom"
						},
						"4.125": {
							"post": [0, 0, -27.5],
							"lerp_mode": "catmullrom"
						},
						"4.4583": {
							"post": [0, 0, 15],
							"lerp_mode": "catmullrom"
						},
						"5.375": {
							"post": [0, 0, 0],
							"lerp_mode": "catmullrom"
						}
					}
				}
			}
		},
		"animation.pidgeot.blink": {
			"animation_length": 0.20833,
			"bones": {
				"eyelid_left": {
					"position": {
						"0.0": [0.1, 0, -0.1],
						"0.1667": [0.1, 0, -0.1],
						"0.2083": [0, 0, 0]
					}
				},
				"eyelid_right": {
					"position": {
						"0.0": [-0.1, 0, -0.1],
						"0.1667": [-0.1, 0, -0.1],
						"0.2083": [0, 0, 0]
					}
				}
			}
		}
	}
}