{
  "implemented": true,
  "name": "Gimmighoul",
  "nationalPokedexNumber": 999,
  "primaryType": "ghost",
  "abilities": [
    "rattled"
  ],
  "baseStats": {
    "hp": 45,
    "attack": 30,
    "defence": 70,
    "special_attack": 75,
    "special_defence": 70,
    "speed": 10
  },
  "catchRate": 45,
  "maleRatio": -1,
  "baseExperienceYield": 60,
  "baseFriendship": 50,
  "evYield": {
    "hp": 0,
    "attack": 0,
    "defence": 0,
    "special_attack": 1,
    "special_defence": 0,
    "speed": 0
  },
  "experienceGroup": "slow",
  "eggCycles": 50,
  "eggGroups": [
    "undiscovered"
  ],
  "behaviour": {
    "moving": {
      "walk": {
        "canWalk": true,
        "walkSpeed": 0.15
      },
      "swim": {
        "swimSpeed": 0.1,
        "canSwimInWater": false,
        "canBreatheUnderwater": true
      },
      "wanderChance": 500,
      "canLook": false
    },
    "resting": {
      "canSleep": true,
      "depth": "normal",
      "light": "0-4"
    }
  },
  "features": [
    "minecraft"
  ],
  "moves": [
    "1:astonish",
    "1:tackle",
    "tm:confuseray",
    "tm:endure",
    "tm:hex",
    "tm:lightscreen",
    "tm:nastyplot",
    "tm:nightshade",
    "tm:powergem",
    "tm:protect",
    "tm:reflect",
    "tm:rest",
    "tm:shadowball",
    "tm:sleeptalk",
    "tm:substitute",
    "tm:takedown",
    "tm:terablast",
    "tm:thief",
    "tutor:astonish",
    "tutor:tackle"
  ],
  "labels": [
    "gen9"
  ],
  "aspects": [],
  "height": 3,
  "weight": 50,
  "evolutions": [
    {
      "id": "gimmighoul_gholdengo",
      "variant": "level_up",
      "result": "gholdengo",
      "consumeHeldItem": false,
      "learnableMoves": [],
      "requirements": [
        {
          "variant": "properties",
          "target": "gimmighoul gimmighoul_coins=999"
        }
      ]
    },
    {
      "id": "gimmighoul_gholdengo_netherite_1",
      "variant": "level_up",
      "result": "gholdengo netherite_coating=stage1",
      "consumeHeldItem": false,
      "learnableMoves": [],
      "requirements": [
        {
          "variant": "properties",
          "target": "gimmighoul gimmighoul_coins=999"
        },
        {
          "variant": "property_range",
          "range": "32-63",
          "feature": "gimmighoul_netherite"
        }
      ]
    },
    {
      "id": "gimmighoul_gholdengo_netherite_2",
      "variant": "level_up",
      "result": "gholdengo netherite_coating=stage2",
      "consumeHeldItem": false,
      "learnableMoves": [],
      "requirements": [
        {
          "variant": "properties",
          "target": "gimmighoul gimmighoul_coins=999"
        },
        {
          "variant": "property_range",
          "range": "64-95",
          "feature": "gimmighoul_netherite"
        }
      ]
    },
    {
      "id": "gimmighoul_gholdengo_netherite_3",
      "variant": "level_up",
      "result": "gholdengo netherite_coating=stage3",
      "consumeHeldItem": false,
      "learnableMoves": [],
      "requirements": [
        {
          "variant": "properties",
          "target": "gimmighoul gimmighoul_coins=999"
        },
        {
          "variant": "property_range",
          "range": "96-127",
          "feature": "gimmighoul_netherite"
        }
      ]
    },
    {
      "id": "gimmighoul_gholdengo_netherite_4",
      "variant": "level_up",
      "result": "gholdengo netherite_coating=stage4",
      "consumeHeldItem": false,
      "learnableMoves": [],
      "requirements": [
        {
          "variant": "properties",
          "target": "gimmighoul gimmighoul_coins=999"
        },
        {
          "variant": "property_range",
          "range": "128-159",
          "feature": "gimmighoul_netherite"
        }
      ]
    },
    {
      "id": "gimmighoul_gholdengo_netherite_5",
      "variant": "level_up",
      "result": "gholdengo netherite_coating=stage5",
      "consumeHeldItem": false,
      "learnableMoves": [],
      "requirements": [
        {
          "variant": "properties",
          "target": "gimmighoul gimmighoul_coins=999"
        },
        {
          "variant": "property_range",
          "range": "160-191",
          "feature": "gimmighoul_netherite"
        }
      ]
    },
    {
      "id": "gimmighoul_gholdengo_netherite_6",
      "variant": "level_up",
      "result": "gholdengo netherite_coating=stage6",
      "consumeHeldItem": false,
      "learnableMoves": [],
      "requirements": [
        {
          "variant": "properties",
          "target": "gimmighoul gimmighoul_coins=999"
        },
        {
          "variant": "property_range",
          "range": "192-223",
          "feature": "gimmighoul_netherite"
        }
      ]
    },
    {
      "id": "gimmighoul_gholdengo_netherite_7",
      "variant": "level_up",
      "result": "gholdengo netherite_coating=stage7",
      "consumeHeldItem": false,
      "learnableMoves": [],
      "requirements": [
        {
          "variant": "properties",
          "target": "gimmighoul gimmighoul_coins=999"
        },
        {
          "variant": "property_range",
          "range": "224-255",
          "feature": "gimmighoul_netherite"
        }
      ]
    },
    {
      "id": "gimmighoul_gholdengo_netherite_8",
      "variant": "level_up",
      "result": "gholdengo netherite_coating=full",
      "consumeHeldItem": false,
      "learnableMoves": [],
      "requirements": [
        {
          "variant": "properties",
          "target": "gimmighoul gimmighoul_coins=999"
        },
        {
          "variant": "properties",
          "target": "gimmighoul gimmighoul_netherite=256"
        }
      ]
    }
  ],
  "cannotDynamax": false,
  "forms": [
    {
      "name": "Roaming",
      "primaryType": "ghost",
      "abilities": [
        "runaway"
      ],
      "baseStats": {
        "hp": 45,
        "attack": 30,
        "defence": 25,
        "special_attack": 75,
        "special_defence": 45,
        "speed": 80
      },
      "catchRate": 45,
      "maleRatio": -1,
      "baseFriendship": 50,
      "behaviour": {
        "moving": {
          "walk": {
            "canWalk": true,
            "walkSpeed": 0.3
          },
          "swim": {
            "swimSpeed": 0.3,
            "canSwimInWater": false,
            "canBreatheUnderwater": true
          },
          "wanderChance": 120,
          "canLook": true
        },
        "resting": {
          "canSleep": true,
          "depth": "normal",
          "light": "0-4"
        }
      },
      "evYield": {
        "hp": 0,
        "attack": 0,
        "defence": 0,
        "special_attack": 1,
        "special_defence": 0,
        "speed": 0
      },
      "experienceGroup": "slow",
      "eggCycles": 50,
      "eggGroups": [
        "undiscovered"
      ],
      "moves": [],
      "labels": [
        "gen9"
      ],
      "aspects": [
        "roaming"
      ],
      "height": 1,
      "weight": 1,
      "baseScale": 0.75,
      "hitbox": {
        "width": 0.6,
        "height": 0.8,
        "fixed": false
      },
      "cannotDynamax": false,
      "battleOnly": false,
      "drops": {
        "amount": 1,
        "entries": [
          {
            "item": "cobblemon:relic_coin"
          }
        ]
      }
    }
  ],
  "pokedex": [
    "cobblemon.species.gimmighoul.desc"
  ],
  "baseScale": 1,
  "hitbox": {
    "width": 1,
    "height": 1.15,
    "fixed": false
  },
  "drops": {
    "amount": 24,
    "entries": [
      {
        "item": "cobblemon:relic_coin",
        "quantityRange": "24-48"
      }
    ]
  }
}