{
  "species": "cobblemon:exeggcute",
  "order": 1,
  "variations": [
    {
      "aspects": ["region-bias-alola"],
      "model": "cobblemon:exeggcute_alolan.geo",
      "texture": "cobblemon:textures/pokemon/0102_exeggcute/exeggcute_alolan.png",
      "layers": []
    },
    {
      "aspects": ["alolan"],
      "model": "cobblemon:exeggcute_alolan.geo",
      "texture": "cobblemon:textures/pokemon/0102_exeggcute/exeggcute_alolan.png",
      "layers": []
    },
    {
      "aspects": [
        "shiny",
        "region-bias-alola"
      ],
      "texture": "cobblemon:textures/pokemon/0102_exeggcute/exeggcute_alolan_shiny.png"
    },
    {
      "aspects": [
        "shiny",
        "alolan"
      ],
      "texture": "cobblemon:textures/pokemon/0102_exeggcute/exeggcute_alolan_shiny.png"
    }
  ]
}