{
  "implemented": true,
  "name": "Krookodile",
  "nationalPokedexNumber": 553,
  "primaryType": "ground",
  "secondaryType": "dark",
  "abilities": [
    "intimidate",
    "moxie",
    "h:angerpoint"
  ],
  "drops": {
    "amount": 2,
    "entries": [
      {
        "item": "cobblemon:black_glasses",
        "percentage": 10.0
      },
      {
        "item": "cobblemon:tanga_berry",
        "percentage": 10.0
      }
    ]
  },
  "baseStats": {
    "hp": 95,
    "attack": 117,
    "defence": 80,
    "special_attack": 65,
    "special_defence": 70,
    "speed": 92
  },
  "behaviour": {
    "resting": {
      "canSleep": true,
      "depth": "normal",
      "light": "0-4"
    },
    "moving": {
      "walk": {
        "walkSpeed": 0.23
      }
    }
  },
  "catchRate": 45,
  "maleRatio": 0.5,
  "shoulderMountable": false,
  "baseExperienceYield": 260,
  "experienceGroup": "medium_slow",
  "eggCycles": 20,
  "eggGroups": [
    "field"
  ],
  "moves": [
    "1:honeclaws",
    "1:leer",
    "1:powertrip",
    "1:rage",
    "1:sandattack",
    "9:sandtomb",
    "12:scaryface",
    "15:bite",
    "16:assurance",
    "18:torment",
    "19:mudslap",
    "21:dig",
    "22:embargo",
    "24:swagger",
    "27:crunch",
    "32:sandstorm",
    "35:foulplay",
    "44:earthquake",
    "51:thrash",
    "58:outrage",
    "tm:aerialace",
    "tm:assurance",
    "tm:attract",
    "tm:beatup",
    "tm:bodyslam",
    "tm:breakingswipe",
    "tm:brickbreak",
    "tm:brutalswing",
    "tm:bulkup",
    "tm:bulldoze",
    "tm:closecombat",
    "tm:confide",
    "tm:crunch",
    "tm:curse",
    "tm:cut",
    "tm:darkestlariat",
    "tm:darkpulse",
    "tm:dig",
    "tm:doubleedge",
    "tm:doubleteam",
    "tm:dragonclaw",
    "tm:dragonpulse",
    "tm:dragontail",
    "tm:earthpower",
    "tm:earthquake",
    "tm:embargo",
    "tm:endeavor",
    "tm:endure",
    "tm:facade",
    "tm:firefang",
    "tm:fling",
    "tm:focusblast",
    "tm:focusenergy",
    "tm:focuspunch",
    "tm:foulplay",
    "tm:frustration",
    "tm:gigaimpact",
    "tm:grassknot",
    "tm:gunkshot",
    "tm:helpinghand",
    "tm:hiddenpower",
    "tm:highhorsepower",
    "tm:honeclaws",
    "tm:hyperbeam",
    "tm:incinerate",
    "tm:irontail",
    "tm:knockoff",
    "tm:lashout",
    "tm:lowkick",
    "tm:lowsweep",
    "tm:megakick",
    "tm:megapunch",
    "tm:mudshot",
    "tm:mudslap",
    "tm:outrage",
    "tm:payback",
    "tm:poweruppunch",
    "tm:protect",
    "tm:rest",
    "tm:retaliate",
    "tm:return",
    "tm:revenge",
    "tm:roar",
    "tm:rockslide",
    "tm:rocksmash",
    "tm:rocktomb",
    "tm:round",
    "tm:sandstorm",
    "tm:sandtomb",
    "tm:scaleshot",
    "tm:scaryface",
    "tm:scorchingsands",
    "tm:secretpower",
    "tm:shadowclaw",
    "tm:skittersmack",
    "tm:sleeptalk",
    "tm:sludgebomb",
    "tm:smackdown",
    "tm:snarl",
    "tm:snore",
    "tm:spite",
    "tm:stealthrock",
    "tm:stompingtantrum",
    "tm:stoneedge",
    "tm:strength",
    "tm:substitute",
    "tm:superpower",
    "tm:swagger",
    "tm:takedown",
    "tm:taunt",
    "tm:terablast",
    "tm:thief",
    "tm:throatchop",
    "tm:thunderfang",
    "tm:torment",
    "tm:toxic",
    "tm:uproar",
    "tutor:aquatail",
    "tutor:block",
    "tutor:counter",
    "tutor:crunch",
    "tutor:darkpulse",
    "tutor:dragonpulse",
    "tutor:earthpower",
    "tutor:focuspunch",
    "tutor:foulplay",
    "tutor:irontail",
    "tutor:knockoff",
    "tutor:lashout",
    "tutor:lowkick",
    "tutor:meanlook",
    "tutor:outrage",
    "tutor:scaleshot",
    "tutor:scorchingsands",
    "tutor:skittersmack",
    "tutor:sleeptalk",
    "tutor:snatch",
    "tutor:snore",
    "tutor:spite",
    "tutor:stealthrock",
    "tutor:stompingtantrum",
    "tutor:superpower",
    "tutor:throatchop",
    "tutor:uproar"
  ],
  "labels": [
    "gen5"
  ],
  "pokedex": [
    "cobblemon.species.krookodile.desc"
  ],
  "preEvolution": "krokorok",
  "evolutions": [],
  "baseScale": 1,
  "hitbox": {
    "width": 1.75,
    "height": 2.5,
    "fixed": false
  },
  "baseFriendship": 50,
  "evYield": {
    "hp": 0,
    "attack": 3,
    "defence": 0,
    "special_attack": 0,
    "special_defence": 0,
    "speed": 0
  },
  "height": 15,
  "weight": 963,
  "aspects": [],
  "cannotDynamax": false
}