{
  "implemented": true,
  "name": "Cranidos",
  "nationalPokedexNumber": 408,
  "primaryType": "rock",
  "abilities": [
    "moldbreaker",
    "h:sheerforce"
  ],
  "drops": {
    "amount": 1,
    "entries": [
      {
        "item": "minecraft:bones",
        "quantityRange": "0-1"
      }
    ]
  },
  "baseStats": {
    "hp": 67,
    "attack": 125,
    "defence": 40,
    "special_attack": 30,
    "special_defence": 30,
    "speed": 58
  },
  "catchRate": 45,
  "maleRatio": 0.875,
  "shoulderMountable": false,
  "baseExperienceYield": 70,
  "experienceGroup": "erratic",
  "eggCycles": 30,
  "eggGroups": [
    "monster"
  ],
  "behaviour": {
    "resting": {
      "canSleep": true,
      "willSleepOnBed": false,
      "depth": "normal",
      "light": "0-4"
    },
    "moving" : {
      "walk": {
        "walkSpeed": 0.18
      }
    }
  },
  "moves": [
    "1:headbutt",
    "1:leer",
    "6:focusenergy",
    "10:pursuit",
    "10:rocksmash",
    "15:takedown",
    "19:scaryface",
    "24:assurance",
    "28:ancientpower",
    "28:chipaway",
    "28:slam",
    "33:ancientpower",
    "33:zenheadbutt",
    "37:screech",
    "37:zenheadbutt",
    "42:screech",
    "43:headsmash",
    "46:headsmash",
    "egg:crunch",
    "egg:curse",
    "egg:doubleedge",
    "egg:hammerarm",
    "egg:ironhead",
    "egg:irontail",
    "egg:leer",
    "egg:slam",
    "egg:stomp",
    "egg:thrash",
    "egg:whirlwind",
    "tm:attract",
    "tm:blizzard",
    "tm:bodyslam",
    "tm:bulldoze",
    "tm:captivate",
    "tm:confide",
    "tm:crunch",
    "tm:curse",
    "tm:dig",
    "tm:doubleedge",
    "tm:doubleteam",
    "tm:dragoncheer",
    "tm:dragonpulse",
    "tm:earthpower",
    "tm:earthquake",
    "tm:endeavor",
    "tm:endure",
    "tm:facade",
    "tm:fireblast",
    "tm:firepunch",
    "tm:flamethrower",
    "tm:fling",
    "tm:frustration",
    "tm:hiddenpower",
    "tm:icebeam",
    "tm:incinerate",
    "tm:ironhead",
    "tm:irontail",
    "tm:mudslap",
    "tm:naturalgift",
    "tm:payback",
    "tm:poweruppunch",
    "tm:protect",
    "tm:raindance",
    "tm:rest",
    "tm:return",
    "tm:roar",
    "tm:rockblast",
    "tm:rockclimb",
    "tm:rockpolish",
    "tm:rockslide",
    "tm:rocksmash",
    "tm:rocktomb",
    "tm:round",
    "tm:sandstorm",
    "tm:scaryface",
    "tm:secretpower",
    "tm:shockwave",
    "tm:sleeptalk",
    "tm:smackdown",
    "tm:stealthrock",
    "tm:stompingtantrum",
    "tm:stoneedge",
    "tm:strength",
    "tm:substitute",
    "tm:sunnyday",
    "tm:swagger",
    "tm:swordsdance",
    "tm:takedown",
    "tm:terablast",
    "tm:thief",
    "tm:thunder",
    "tm:thunderbolt",
    "tm:thunderpunch",
    "tm:toxic",
    "tm:trailblaze",
    "tm:uproar",
    "tm:zenheadbutt",
    "tutor:ancientpower",
    "tutor:crunch",
    "tutor:dragonpulse",
    "tutor:earthpower",
    "tutor:endeavor",
    "tutor:firepunch",
    "tutor:headbutt",
    "tutor:ironhead",
    "tutor:irontail",
    "tutor:mudslap",
    "tutor:pursuit",
    "tutor:shockwave",
    "tutor:sleeptalk",
    "tutor:snore",
    "tutor:spite",
    "tutor:stealthrock",
    "tutor:superpower",
    "tutor:takedown",
    "tutor:thunderpunch",
    "tutor:uproar",
    "tutor:zenheadbutt"
  ],
  "labels": [
    "gen4"
  ],
  "pokedex": [
    "cobblemon.species.cranidos.desc"
  ],
  "evolutions": [
    {
      "id": "cranidos_rampardos",
      "variant": "level_up",
      "result": "rampardos",
      "consumeHeldItem": false,
      "learnableMoves": [
        "endeavor"
      ],
      "requirements": [
        {
          "variant": "level",
          "minLevel": 30
        }
      ]
    }
  ],
  "baseScale": 0.8,
  "hitbox": {
    "width": 0.7,
    "height": 1.15,
    "fixed": false
  },
  "baseFriendship": 70,
  "evYield": {
    "hp": 0,
    "attack": 1,
    "defence": 0,
    "special_attack": 0,
    "special_defence": 0,
    "speed": 0
  },
  "height": 9,
  "weight": 315,
  "aspects": [],
  "cannotDynamax": false
}