{
	"format_version": "1.8.0",
	"animations": {
		"animation.decidueye.ground_idle": {
			"loop": true,
			"bones": {
				"toe_left_front1": {
					"rotation": [0, -7.5, 0]
				},
				"toe_left_front1_end": {
					"rotation": [0, 0, 0]
				},
				"toe_left_front2": {
					"rotation": [0, 7.5, 0]
				},
				"toe_left_front2_end": {
					"rotation": [0, 0, 0]
				},
				"toe_left_back1": {
					"rotation": [0, 7.5, 0]
				},
				"toe_left_back1_end": {
					"rotation": [0, 0, 0]
				},
				"toe_left_back2": {
					"rotation": [0, -7.5, 0]
				},
				"toe_left_back2_end": {
					"rotation": [0, 0, 0]
				},
				"foot_left": {
					"rotation": [9.99067, -0.43399, 2.46207]
				},
				"thigh_left": {
					"rotation": [9.99067, 0.43399, -2.46207]
				},
				"leg_left": {
					"rotation": [-20, 0, 0]
				},
				"thigh_right": {
					"rotation": [9.99067, -0.43399, 2.46207]
				},
				"leg_right": {
					"rotation": [-20, 0, 0]
				},
				"foot_right": {
					"rotation": [9.99067, 0.43399, -2.46207]
				},
				"toe_right_front1": {
					"rotation": [0, 7.5, 0]
				},
				"toe_right_front2": {
					"rotation": [0, -7.5, 0]
				},
				"toe_right_back1": {
					"rotation": [0, -7.5, 0]
				},
				"toe_right_back2": {
					"rotation": [0, 7.5, 0]
				},
				"cloak_front_left1": {
					"rotation": [0, 0, 0]
				},
				"cloak_front_left2": {
					"rotation": [0, 0, 22.5]
				},
				"cloak_front_right1": {
					"rotation": [0, 0, 0]
				},
				"cloak_front_right2": {
					"rotation": [0, 0, -22.5]
				},
				"cloak_back_right1": {
					"rotation": [0, 0, 35],
					"position": [0, 0, 0]
				},
				"bowtie": {
					"rotation": [-5, 0, 0]
				},
				"cloak_back_right2": {
					"rotation": [0, 0, -7.5]
				},
				"cloak_back_left1": {
					"rotation": [0, 0, -35]
				},
				"cloak_back_left2": {
					"rotation": [0, 0, 7.5]
				},
				"wing_closed_right3": {
					"rotation": [0, 0, -5]
				},
				"wing_closed_right4": {
					"rotation": [0, 0, 2.5]
				},
				"shoulder_cloak_group_right": {
					"rotation": [0, 0, 5]
				},
				"shoulder_cloak_front_right1": {
					"rotation": [0, 0, -5]
				},
				"shoulder_cloak_front_right2": {
					"rotation": [0, 0, -12.5]
				},
				"shoulder_cloak_front_right3": {
					"rotation": [0, 0, 15]
				},
				"shoulder_cloak_middle_right1": {
					"rotation": [0, 0, -7.5]
				},
				"shoulder_cloak_middle_right2": {
					"rotation": [0, 0, -20]
				},
				"shoulder_cloak_middle_right3": {
					"rotation": [0, 0, 17.5]
				},
				"shoulder_cloak_back_right1": {
					"rotation": [0, 0, -5]
				},
				"shoulder_cloak_back_right2": {
					"rotation": [0, 0, -12.5]
				},
				"shoulder_cloak_back_right3": {
					"rotation": [0, 0, 15]
				},
				"shoulder_cloak_group_left": {
					"rotation": [0, 0, -5]
				},
				"shoulder_cloak_front_left1": {
					"rotation": [0, 0, 5]
				},
				"shoulder_cloak_front_left2": {
					"rotation": [0, 0, 12.5]
				},
				"shoulder_cloak_front_left3": {
					"rotation": [0, 0, -15]
				},
				"shoulder_cloak_middle_left1": {
					"rotation": [0, 0, 7.5]
				},
				"shoulder_cloak_middle_left2": {
					"rotation": [0, 0, 20]
				},
				"shoulder_cloak_middle_left3": {
					"rotation": [0, 0, -17.5]
				},
				"shoulder_cloak_back_left1": {
					"rotation": [0, 0, 5]
				},
				"shoulder_cloak_back_left2": {
					"rotation": [0, 0, 12.5]
				},
				"shoulder_cloak_back_left3": {
					"rotation": [0, 0, -15]
				},
				"cloak_back": {
					"rotation": [0, 0, 0]
				},
				"cloak_back_middle1": {
					"rotation": [0, 0, 0]
				},
				"wing_closed_left3": {
					"rotation": [0, 0, 5]
				},
				"wing_closed_left4": {
					"rotation": [0, 0, -2.5]
				},
				"hood_front_top1": {
					"rotation": [5, 0, 0]
				},
				"hood_front_right2": {
					"rotation": [0, -7.5, 0]
				},
				"hood_front_left2": {
					"rotation": [0, 7.5, 0]
				},
				"hood_front_bottom2": {
					"rotation": [-5, 0, 0]
				},
				"hood_front_top2": {
					"rotation": [5, 0, 0]
				},
				"hood_front_left1": {
					"rotation": [0, 2.5, 0]
				},
				"hood_front_bottom1": {
					"rotation": [-5, 0, 0]
				},
				"hood_front_right1": {
					"rotation": [0, -5, 0]
				},
				"head_feather_back2": {
					"rotation": [-15, 0, 0]
				},
				"head_feather_back3": {
					"rotation": [20, 0, 0]
				},
				"head_feather_back4": {
					"rotation": [17.5, 0, 0]
				},
				"head_feather_back5": {
					"rotation": [15, 0, 0]
				}
			}
		},
		"animation.decidueye.blink": {
			"animation_length": 0.16667,
			"bones": {
				"eyelid_right": {
					"position": {
						"0.0": [0, 0, -0.1],
						"0.125": [0, 0, -0.1],
						"0.1667": [0, 0, 0]
					}
				},
				"eyelid_left": {
					"position": {
						"0.0": [0, 0, -0.1],
						"0.125": [0, 0, -0.1],
						"0.1667": [0, 0, 0]
					}
				}
			}
		},
		"animation.decidueye.bow": {
			"loop": true,
			"bones": {
				"wing_open_right1": {
					"rotation": [0, 0, 30]
				},
				"wing_open_right_feathers_group1": {
					"rotation": [0, 0, -2.5]
				},
				"wing_open_right_feather1": {
					"rotation": [0, 0, 0]
				},
				"wing_open_right_feather2": {
					"rotation": [0, 0, 12.5]
				},
				"wing_open_right2": {
					"rotation": [0, 0, 47.5]
				},
				"wing_open_right3": {
					"rotation": [0, 0, 35]
				},
				"wing_open_right_feathers_group3": {
					"rotation": [0, 0, -25]
				},
				"wing_open_right_feather3": {
					"rotation": [0, 0, -7.5]
				},
				"wing_open_right_feather4": {
					"rotation": [0, 0, 5]
				},
				"wing_open_right_feather6": {
					"rotation": [0, 0, 35]
				},
				"wing_open_right_feather5": {
					"rotation": [0, 0, 22.5]
				},
				"wing_open_right_feather5_end1": {
					"rotation": [0, 0, 5]
				},
				"wing_open_right_feather6_end1": {
					"rotation": [0, 0, 2.5]
				},
				"wing_open_right_feather7": {
					"rotation": [0, 0, 12.5]
				},
				"wing_open_right_feather7_end1": {
					"rotation": [0, 0, 2.5]
				},
				"wing_open_right_feather8": {
					"rotation": [0, 0, 25]
				},
				"wing_open_right_feather8_end1": {
					"rotation": [0, 0, 0]
				},
				"cloak_front_right1": {
					"rotation": [0, 0, 2.5]
				},
				"cloak_front_right2": {
					"rotation": [0, 0, -17.5]
				},
				"cloak_front_left1": {
					"rotation": [0, 0, -2.5]
				},
				"cloak_front_left2": {
					"rotation": [0, 0, 17.5]
				},
				"shoulder_cloak_front_left1": {
					"rotation": [0, 0, -22.5]
				},
				"shoulder_cloak_front_left2": {
					"rotation": [0, 0, 12.5]
				},
				"shoulder_cloak_front_left3": {
					"rotation": [0, 0, -15]
				},
				"shoulder_cloak_middle_left1": {
					"rotation": [0, 0, -32.5]
				},
				"shoulder_cloak_middle_left2": {
					"rotation": [0, 0, -15]
				},
				"shoulder_cloak_middle_left3": {
					"rotation": [0, 0, 10]
				},
				"shoulder_cloak_back_left1": {
					"rotation": [0, 0, -7.5]
				},
				"shoulder_cloak_back_left2": {
					"rotation": [0, 0, 5]
				},
				"shoulder_cloak_back_left3": {
					"rotation": [0, 0, -10]
				},
				"cloak_back_right1": {
					"rotation": [0, 0, 35]
				},
				"cloak_back_right2": {
					"rotation": [0, 0, -7.5]
				},
				"cloak_back_left1": {
					"rotation": [0, 0, -35]
				},
				"cloak_back_left2": {
					"rotation": [0, 0, 7.5]
				},
				"wing_open_right_middle": {
					"rotation": [0, -2.5, -2.5]
				},
				"wing_open_right_middle_end": {
					"rotation": [0, -10, 0]
				},
				"wing_open_right_pinkie": {
					"rotation": [0, 0, 5]
				},
				"wing_open_right_thumb": {
					"rotation": [0, 0, -35]
				},
				"wing_open_right_hand": {
					"rotation": [0, 0, 22.5]
				},
				"wing_open_right_thumb_end": {
					"rotation": [0, 2.5, 0]
				},
				"wing_open_right_pinkie_end": {
					"rotation": [0, -10, 0]
				},
				"head_feather_back3": {
					"rotation": [5, 0, 0]
				},
				"head_feather_back4": {
					"rotation": [10, 0, 0]
				},
				"head_feather_back5": {
					"rotation": [12.5, 0, 0]
				},
				"tail2": {
					"rotation": [5, 0, 0]
				},
				"thigh_right": {
					"rotation": [10, 0, 2.5]
				},
				"leg_right": {
					"rotation": [-17.5, 0, 0]
				},
				"foot_right": {
					"rotation": [7.49294, 0.32621, -2.47864]
				},
				"toe_right_front1": {
					"rotation": [0, 7.5, 0]
				},
				"toe_right_front2": {
					"rotation": [0, -7.5, 0]
				},
				"toe_right_back1": {
					"rotation": [0, -7.5, 0]
				},
				"toe_right_back2": {
					"rotation": [0, 7.5, 0]
				},
				"thigh_left": {
					"rotation": [10, 0, -2.5]
				},
				"leg_left": {
					"rotation": [-17.5, 0, 0]
				},
				"foot_left": {
					"rotation": [7.49294, -0.32621, 2.47864]
				},
				"toe_left_front1": {
					"rotation": [0, -7.5, 0]
				},
				"toe_left_front2": {
					"rotation": [0, 7.5, 0]
				},
				"toe_left_back1": {
					"rotation": [0, 7.5, 0]
				},
				"toe_left_back2": {
					"rotation": [0, -7.5, 0]
				},
				"hood_front_right1": {
					"rotation": [0, -5, 0]
				},
				"hood_front_right2": {
					"rotation": [0, -5, 0]
				},
				"hood_front_top1": {
					"rotation": [5, 0, 0]
				},
				"hood_front_top2": {
					"rotation": [5, 0, 0]
				},
				"hood_front_left1": {
					"rotation": [0, 5, 0]
				},
				"hood_front_left2": {
					"rotation": [0, 5, 0]
				},
				"hood_front_bottom1": {
					"rotation": [-5, 0, 0]
				},
				"hood_front_bottom2": {
					"rotation": [-7.5, 0, 0]
				},
				"cloak_back": {
					"rotation": [0, 0, 0]
				},
				"wing_open_left1": {
					"rotation": [0, 0, -5]
				},
				"wing_open_left_feathers_group1": {
					"rotation": [0, 0, 2.5]
				},
				"wing_open_left_feather1": {
					"rotation": [0, 0, -2.5]
				},
				"wing_open_left_feather2": {
					"rotation": [0, 0, -5]
				},
				"wing_open_left2": {
					"rotation": [0, 0, -5]
				},
				"wing_open_left_feather3": {
					"rotation": [0, 0, -5]
				},
				"wing_open_left_feather4": {
					"rotation": [0, 0, -7.5]
				},
				"wing_open_left_feather5": {
					"rotation": [0, 0, -7.5]
				},
				"wing_open_left_feather6": {
					"rotation": [0, 0, -5]
				},
				"wing_open_left_feather6_end1": {
					"rotation": [0, 0, -7.5]
				},
				"wing_open_left3": {
					"rotation": [0, 0, -5]
				},
				"wing_open_left_feather7": {
					"rotation": [0, 0, -5]
				},
				"wing_open_left_feather7_end1": {
					"rotation": [0, 0, -2.5]
				},
				"wing_open_left_feather8": {
					"rotation": [0, 0, -5]
				},
				"wing_open_left_feather8_end1": {
					"rotation": [0, 0, -10]
				},
				"shoulder_cloak_front_right2": {
					"rotation": [0, 0, -10]
				},
				"shoulder_cloak_front_right3": {
					"rotation": [0, 0, 20]
				},
				"shoulder_cloak_middle_right1": {
					"rotation": [0, 0, 65]
				},
				"shoulder_cloak_middle_right2": {
					"rotation": [0, 0, 15]
				},
				"shoulder_cloak_middle_right3": {
					"rotation": [0, 0, 30]
				},
				"shoulder_cloak_back_right1": {
					"rotation": [0, 0, 15]
				},
				"shoulder_cloak_back_right2": {
					"rotation": [0, 0, -25]
				},
				"shoulder_cloak_back_right3": {
					"rotation": [0, 0, 32.5]
				}
			}
		},
		"animation.decidueye.air_idle": {
			"loop": true,
			"bones": {
				"wing_left": {
					"rotation": [0, -5, -15]
				},
				"wing_left3": {
					"rotation": [0, -25, 0]
				},
				"tail": {
					"rotation": [40, 0, 0]
				},
				"wing_left2": {
					"rotation": [0, 10, 0]
				},
				"leg_right": {
					"rotation": [22.5, 0, 0]
				},
				"leg_right2": {
					"rotation": [-45, 0, 0]
				},
				"foot_right": {
					"rotation": [13, 0, 0]
				},
				"claw_back_right": {
					"rotation": [-45, 0, 0]
				},
				"toe_inner_right": {
					"rotation": [30, 0, 0]
				},
				"toe_outer_right": {
					"rotation": [30, 0, 0]
				},
				"claw_outer_right": {
					"rotation": [45, 0, 0]
				},
				"leg_left": {
					"rotation": [22.5, 0, 0]
				},
				"leg_left2": {
					"rotation": [-45, 0, 0]
				},
				"foot_left": {
					"rotation": [13, 0, 0]
				},
				"toe_back_left": {
					"rotation": [-45, 0, 0]
				},
				"toe_inner_left": {
					"rotation": [30, 0, 0]
				},
				"toe_outer_left": {
					"rotation": [30, 0, 0]
				},
				"body": {
					"rotation": [40, 0, 0],
					"position": [0, 2, 8]
				},
				"wing_right": {
					"rotation": [0, 5, 15]
				},
				"wing_right3": {
					"rotation": [0, 25, 0]
				},
				"toe_back_right": {
					"rotation": [-45, 0, 0]
				},
				"claw_inner_right": {
					"rotation": [45, 0, 0]
				},
				"claw_back_left": {
					"rotation": [-45, 0, 0]
				},
				"claw_inner_left": {
					"rotation": [45, 0, 0]
				},
				"claw_outer_left": {
					"rotation": [45, 0, 0]
				},
				"wing_right2": {
					"rotation": [0, -10, 0]
				},
				"neck": {
					"rotation": [30, 0, 0]
				},
				"head": {
					"rotation": [-20, 0, 0]
				}
			}
		},
		"animation.decidueye.air_fly": {
			"loop": true,
			"bones": {
				"wing_left": {
					"rotation": [0.5, 0, -5]
				},
				"wing_left3": {
					"rotation": [0, -15, 0]
				},
				"torso": {
					"rotation": [2.5, 0, 0]
				},
				"tail": {
					"rotation": [7.5, 0, 0]
				},
				"wing_left2": {
					"rotation": [0, 0, 0]
				},
				"leg_right": {
					"rotation": [30, 0, 0],
					"position": [0, 0, 0]
				},
				"leg_right2": {
					"rotation": [-70, 0, 0]
				},
				"foot_right": {
					"rotation": [25, 0, 0]
				},
				"claw_back_right": {
					"rotation": [-45, 0, 0]
				},
				"toe_inner_right": {
					"rotation": [45, 0, 0]
				},
				"toe_outer_right": {
					"rotation": [45, 0, 0]
				},
				"claw_outer_right": {
					"rotation": [45, 0, 0]
				},
				"leg_left": {
					"rotation": [30, 0, 0]
				},
				"leg_left2": {
					"rotation": [-70, 0, 0]
				},
				"foot_left": {
					"rotation": [25, 0, 0]
				},
				"toe_back_left": {
					"rotation": [-60, 0, 0]
				},
				"toe_inner_left": {
					"rotation": [45, 0, 0]
				},
				"toe_outer_left": {
					"rotation": [45, 0, 0]
				},
				"body": {
					"rotation": [65, 0, 0],
					"position": [0, 5, 10]
				},
				"head": {
					"rotation": [-50, 0, 0]
				},
				"toe_back_right": {
					"rotation": [-60, 0, 0]
				},
				"claw_inner_right": {
					"rotation": [45, 0, 0]
				},
				"claw_back_left": {
					"rotation": [-45, 0, 0]
				},
				"claw_inner_left": {
					"rotation": [45, 0, 0]
				},
				"claw_outer_left": {
					"rotation": [45, 0, 0]
				},
				"wing_right": {
					"rotation": [0.5, 0, 5]
				},
				"wing_right3": {
					"rotation": [0, 15, 0]
				},
				"neck": {
					"rotation": [63, 0, 0]
				}
			}
		}
	}
}