{
	"format_version": "1.8.0",
	"animations": {
		"animation.dracovish.ground_idle": {
			"loop": true,
			"bones": {
				"torso": {
					"rotation": ["-62.5045-math.sin(q.anim_time*90*1-160)*2", "0.26-math.cos(q.anim_time*90*0.5-80)*2", "-0.0285+math.sin(q.anim_time*90*0.5-80)*2"],
					"position": [0, "math.sin(q.anim_time*90*1)*0.2", 0]
				},
				"tail3": {
					"rotation": [27.5, "-(math.sin(q.anim_time*90*0.5-80)*5)", 0]
				},
				"tail4": {
					"rotation": [37.5, "math.sin(q.anim_time*90*0.5-120)*6", 0]
				},
				"tail6": {
					"rotation": [32.5, 0, 0]
				},
				"leg_left": {
					"rotation": ["-37.5+math.sin(q.anim_time*90*1)*0.6", -7.5, 0.00001],
					"position": [0, "math.sin(q.anim_time*90*1)*0.2", 0]
				},
				"foot_left": {
					"rotation": ["-20+math.sin(q.anim_time*90*1)*0.5", -5, 0],
					"position": [0, 2, 0]
				},
				"leg_right": {
					"rotation": ["-37.5+math.sin(q.anim_time*90*1)*0.6", 7.5, -0.00001],
					"position": [0, "math.sin(q.anim_time*90*1)*0.2", 0]
				},
				"foot_right": {
					"rotation": ["-20+math.sin(q.anim_time*90*1)*0.5", 5, 0],
					"position": [0, 2, 0]
				},
				"tail": {
					"rotation": [27.5, "math.sin(q.anim_time*90*0.5)*4", 0]
				},
				"tail2": {
					"rotation": [40, "math.sin(q.anim_time*90*0.5-40)*4", 0]
				},
				"tail5": {
					"rotation": [22.5, "math.sin(q.anim_time*90*0.5)*6", 0]
				},
				"tail_scale_left": {
					"rotation": [10, 0, 0]
				},
				"tail_scale_right": {
					"rotation": [10, 0, 0]
				},
				"tail_bottom2": {
					"rotation": [27.5, 0, 0]
				},
				"tail_scale_left3": {
					"rotation": [7.5, 0, 0]
				},
				"tail_scale_right3": {
					"rotation": [7.5, 0, 0]
				},
				"leg_left2": {
					"rotation": ["57.5-math.sin(q.anim_time*90*1)*1", 0, 0]
				},
				"leg_right2": {
					"rotation": ["57.5-math.sin(q.anim_time*90*1)*1", 0, 0]
				},
				"head_rotation": {
					"rotation": ["math.sin(q.anim_time*90*1.5-110)*1", 0, "math.sin(q.anim_time*90*0.5-120)*12"]
				},
				"jaw": {
					"rotation": ["math.sin(q.anim_time*90*1.5-90)*-3", 0, 0]
				},
				"fin_right": {
					"rotation": [-67.39227, "56.3201+math.sin(q.anim_time*90*1.5-150)*-3+math.cos(q.anim_time*90*1+60)*-10", -71.64533]
				},
				"fin_right2": {
					"rotation": [0, "10+math.sin(q.anim_time*90*1.5-210+90)*6", "math.cos(q.anim_time*90*1-30)*-20"],
					"position": [1, 0, 0]
				},
				"fin_right3": {
					"rotation": [0, "13+math.sin(q.anim_time*90*1.5-230+90)*9", "math.cos(q.anim_time*90*1-70)*-3"]
				},
				"fin_left": {
					"rotation": [-67.39227, "-56.3201+math.sin(q.anim_time*90*1.5-150)*3+math.cos(q.anim_time*90*1+60)*10", 71.64533]
				},
				"fin_left2": {
					"rotation": [0, "-10+math.sin(q.anim_time*90*1.5-210)*-6", "-(math.cos(q.anim_time*90*1-30)*-20)"],
					"position": [-1, 0, 0]
				},
				"fin_left3": {
					"rotation": [0, "-13+math.sin(q.anim_time*90*1.5-230+90)*9", "-(math.cos(q.anim_time*90*1-70)*-3)"]
				}
			}
		},
		"animation.dracovish.battle_idle": {
			"loop": true,
			"bones": {
				"torso": {
					"rotation": ["-60-math.sin(q.anim_time*90*2)*6", "0-math.cos(q.anim_time*90*1-80)*2", "0+math.sin(q.anim_time*90*1-80)*2"],
					"position": [0, "5.2+math.sin(q.anim_time*90*2-60)*0.6", 0]
				},
				"tail3": {
					"rotation": ["27.5-math.sin(q.anim_time*90*2-180)*3", "math.sin(q.anim_time*90*1-80)*5", 0]
				},
				"tail4": {
					"rotation": ["37.5-math.sin(q.anim_time*90*2-240)*3", "math.sin(q.anim_time*90*1-120)*6", 0]
				},
				"tail6": {
					"rotation": [32.5, 0, 0]
				},
				"leg_left": {
					"rotation": ["-22.5+math.sin(q.anim_time*90*2)*0.6", -17.5, 0.00001],
					"position": [0, "2.8+math.sin(q.anim_time*90*2)*0.15", 0]
				},
				"foot_left": {
					"rotation": ["-20+math.sin(q.anim_time*90*2)*0.5", -5, 0],
					"position": [0, 2, 0]
				},
				"leg_right": {
					"rotation": ["-22.5+math.sin(q.anim_time*90*2)*0.6", 20, -0.00001],
					"position": [0, "2.8+math.sin(q.anim_time*90*2)*0.15", 0]
				},
				"foot_right": {
					"rotation": ["-20+math.sin(q.anim_time*90*2)*0.5", 5, 0],
					"position": [0, 2, 0]
				},
				"tail": {
					"rotation": ["27.5-math.sin(q.anim_time*90*2-60)*3", "math.sin(q.anim_time*90*1)*4", 0]
				},
				"tail2": {
					"rotation": ["40-math.sin(q.anim_time*90*2-120)*3", "math.sin(q.anim_time*90*1-40)*4", 0]
				},
				"tail5": {
					"rotation": ["22.5-math.sin(q.anim_time*90*2-300)*8", "-math.sin(q.anim_time*90*1)*6", 0]
				},
				"tail_scale_left": {
					"rotation": [10, 0, 0]
				},
				"tail_scale_right": {
					"rotation": [10, 0, 0]
				},
				"tail_bottom2": {
					"rotation": [27.5, 0, 0]
				},
				"tail_scale_left3": {
					"rotation": [7.5, 0, 0]
				},
				"tail_scale_right3": {
					"rotation": [7.5, 0, 0]
				},
				"leg_left2": {
					"rotation": ["42.5-math.sin(q.anim_time*90*2)*1", 0, 0]
				},
				"leg_right2": {
					"rotation": ["42.5-math.sin(q.anim_time*90*2)*1", 0, 0]
				},
				"head_rotation": {
					"rotation": ["math.sin(q.anim_time*90*1.5-110)*1", 0, "math.sin(q.anim_time*90*1-150)*12"]
				},
				"jaw": {
					"rotation": ["math.sin(q.anim_time*90*2.5-90)*-8", 0, 0]
				},
				"fin_right": {
					"rotation": [-51.15371, "44.1738+math.sin(q.anim_time*90*1.5-150)*-10+math.cos(q.anim_time*90*2+60)*-15", -68.25989]
				},
				"fin_right2": {
					"rotation": [0, "10+math.sin(q.anim_time*90*1.5-210+90)*14", "math.cos(q.anim_time*90*2-30)*-20"],
					"position": [1, 0, 0]
				},
				"fin_right3": {
					"rotation": [0, "13+math.sin(q.anim_time*90*1.5-230+90)*18", "math.cos(q.anim_time*90*2-70)*-4"]
				},
				"fin_left": {
					"rotation": [-51.15371, "-44.1738+math.sin(q.anim_time*90*1.5-150)*10+math.cos(q.anim_time*90*2+60)*15", 68.25989]
				},
				"fin_left2": {
					"rotation": [0, "-10+math.sin(q.anim_time*90*1.5-210)*14", "math.cos(q.anim_time*90*2-30)*20"],
					"position": [-1, 0, 0]
				},
				"fin_left3": {
					"rotation": [0, "-13+math.sin(q.anim_time*90*1.5-230)*18", "math.cos(q.anim_time*90*2-70)*4"]
				}
			}
		},
		"animation.dracovish.ground_walk": {
			"loop": true,
			"animation_length": 8,
			"bones": {
				"torso": {
					"rotation": ["-45+math.sin(q.anim_time*90*3-80)*6", "math.sin(q.anim_time*90*1.5)*5", "math.sin(q.anim_time*90*1.5-80)*8"],
					"position": [0, "4.2+math.sin(q.anim_time*90*3)*1+math.clamp(math.sin(q.anim_time*90*3-40)*1.5,0,2)", 0]
				},
				"tail": {
					"rotation": ["21.5+math.sin(q.anim_time*90*3)*3", "math.sin(q.anim_time*90*1.5)*4", 0]
				},
				"tail2": {
					"rotation": ["38+math.sin(q.anim_time*90*3-40)*3", "0+math.sin(q.anim_time*90*1.5-40)*2", 0]
				},
				"tail3": {
					"rotation": ["28-math.cos(q.anim_time*90*3-80)*6", "math.sin(q.anim_time*90*1.5-80)*3", 0]
				},
				"tail4": {
					"rotation": ["27.5-math.cos(q.anim_time*90*3-120)*4", "math.sin(q.anim_time*90*1.5-120)*2", 0]
				},
				"tail6": {
					"rotation": ["-7.5-math.cos(q.anim_time*90*3-200)*8", "math.sin(q.anim_time*90*1.5-200)*9", 0]
				},
				"tail7": {
					"rotation": ["-10-math.cos(q.anim_time*90*3-280)*12", "math.sin(q.anim_time*90*1.5-240)*14", 0]
				},
				"leg_left": {
					"rotation": {
						"0.0": {
							"post": [0.08, -9.99, -2.49],
							"lerp_mode": "catmullrom"
						},
						"0.125": {
							"post": [-13.40175, -9.98863, -2.49931],
							"lerp_mode": "catmullrom"
						},
						"0.5417": {
							"post": [-44.89078, -3.53329, -3.54002],
							"lerp_mode": "catmullrom"
						},
						"0.6667": {
							"post": [-32.5, 0, 0.00001],
							"lerp_mode": "catmullrom"
						},
						"1.7083": {
							"post": [6.29, 0, 0],
							"lerp_mode": "catmullrom"
						},
						"2.2917": {
							"post": [20.00846, -6.9428, -2.52504],
							"lerp_mode": "catmullrom"
						},
						"2.7917": {
							"post": [-8.60175, -9.98863, -2.49931],
							"lerp_mode": "catmullrom"
						},
						"3.2083": {
							"post": [-44.89078, -3.53329, -3.54002],
							"lerp_mode": "catmullrom"
						},
						"3.3333": {
							"post": [-32.5, 0, 0.00001],
							"lerp_mode": "catmullrom"
						},
						"4.375": {
							"post": [6.29, 0, 0],
							"lerp_mode": "catmullrom"
						},
						"4.9583": {
							"post": [20.00846, -6.9428, -2.52504],
							"lerp_mode": "catmullrom"
						},
						"5.4583": {
							"post": [-8.60175, -9.98863, -2.49931],
							"lerp_mode": "catmullrom"
						},
						"5.875": {
							"post": [-44.89078, -3.53329, -3.54002],
							"lerp_mode": "catmullrom"
						},
						"6.0": {
							"post": [-32.5, 0, 0.00001],
							"lerp_mode": "catmullrom"
						},
						"7.0417": {
							"post": [6.29, 0, 0],
							"lerp_mode": "catmullrom"
						},
						"7.625": {
							"post": [20.00846, -6.9428, -2.52504],
							"lerp_mode": "catmullrom"
						},
						"8.0": {
							"post": [0.08, -9.99, -2.49],
							"lerp_mode": "catmullrom"
						}
					},
					"position": {
						"0.0": [0, 5.83, 1.75],
						"0.5833": [0, 4.37, -2.02],
						"0.6667": [0, 1.2, -3.25],
						"1.2917": {
							"pre": [0, 5.02, 0.49],
							"post": [0, 5.02, 0.49],
							"lerp_mode": "catmullrom"
						},
						"2.0": {
							"post": [0, 4.4, 4.6],
							"lerp_mode": "catmullrom"
						},
						"2.7083": {
							"post": [0, 5.83, 1.75],
							"lerp_mode": "catmullrom"
						},
						"3.25": [0, 4.37, -2.02],
						"3.3333": [0, 1.2, -3.25],
						"3.9583": {
							"pre": [0, 5.02, 0.49],
							"post": [0, 5.02, 0.49],
							"lerp_mode": "catmullrom"
						},
						"4.6667": {
							"post": [0, 4.4, 4.6],
							"lerp_mode": "catmullrom"
						},
						"5.375": {
							"post": [0, 5.83, 1.75],
							"lerp_mode": "catmullrom"
						},
						"5.9167": [0, 4.37, -2.02],
						"6.0": [0, 1.2, -3.25],
						"6.625": {
							"pre": [0, 5.02, 0.49],
							"post": [0, 5.02, 0.49],
							"lerp_mode": "catmullrom"
						},
						"7.3333": {
							"post": [0, 4.4, 4.6],
							"lerp_mode": "catmullrom"
						},
						"8.0": {
							"post": [0, 5.83, 1.75],
							"lerp_mode": "catmullrom"
						}
					}
				},
				"foot_left": {
					"rotation": {
						"0.0": {
							"post": [-23.45, -5, 0.32],
							"lerp_mode": "catmullrom"
						},
						"0.1667": {
							"post": [-28.46702, -5.00732, 0.75342],
							"lerp_mode": "catmullrom"
						},
						"0.625": {
							"post": [-31.26038, -4.93798, 0.84653],
							"lerp_mode": "catmullrom"
						},
						"0.6667": {
							"post": [-17.49046, -4.99523, -0.21865],
							"lerp_mode": "catmullrom"
						},
						"1.0833": {
							"post": [-12.66382, -4.77675, 0.8567],
							"lerp_mode": "catmullrom"
						},
						"1.4167": {
							"post": [-20.51058, -4.7046, 1.5883],
							"lerp_mode": "catmullrom"
						},
						"2.0": {
							"post": [-25.019, -4.98092, 0.43688],
							"lerp_mode": "catmullrom"
						},
						"2.2917": {
							"post": [-12.01533, -4.97357, -0.69258],
							"lerp_mode": "catmullrom"
						},
						"2.8333": {
							"post": [-28.46702, -5.00732, 0.75342],
							"lerp_mode": "catmullrom"
						},
						"3.2917": {
							"post": [-31.26038, -4.93798, 0.84653],
							"lerp_mode": "catmullrom"
						},
						"3.3333": {
							"post": [-17.49046, -4.99523, -0.21865],
							"lerp_mode": "catmullrom"
						},
						"3.75": {
							"post": [-12.66382, -4.77675, 0.8567],
							"lerp_mode": "catmullrom"
						},
						"4.0833": {
							"post": [-20.51058, -4.7046, 1.5883],
							"lerp_mode": "catmullrom"
						},
						"4.6667": {
							"post": [-25.019, -4.98092, 0.43688],
							"lerp_mode": "catmullrom"
						},
						"4.9583": {
							"post": [-12.01533, -4.97357, -0.69258],
							"lerp_mode": "catmullrom"
						},
						"5.5": {
							"post": [-28.46702, -5.00732, 0.75342],
							"lerp_mode": "catmullrom"
						},
						"5.9583": {
							"post": [-31.26038, -4.93798, 0.84653],
							"lerp_mode": "catmullrom"
						},
						"6.0": {
							"post": [-17.49046, -4.99523, -0.21865],
							"lerp_mode": "catmullrom"
						},
						"6.4167": {
							"post": [-12.66382, -4.77675, 0.8567],
							"lerp_mode": "catmullrom"
						},
						"6.75": {
							"post": [-20.51058, -4.7046, 1.5883],
							"lerp_mode": "catmullrom"
						},
						"7.3333": {
							"post": [-25.019, -4.98092, 0.43688],
							"lerp_mode": "catmullrom"
						},
						"7.625": {
							"post": [-12.01533, -4.97357, -0.69258],
							"lerp_mode": "catmullrom"
						},
						"8.0": {
							"post": [-23.45, -5, 0.32],
							"lerp_mode": "catmullrom"
						}
					},
					"position": {
						"0.0": {
							"post": [0, 2.58, -0.03],
							"lerp_mode": "catmullrom"
						},
						"0.6667": {
							"post": [0, 2, 0],
							"lerp_mode": "catmullrom"
						},
						"0.7917": {
							"post": [0.00002, 2.018, 0.48081],
							"lerp_mode": "catmullrom"
						},
						"0.875": {
							"post": [0.00006, 2.14742, 0.70287],
							"lerp_mode": "catmullrom"
						},
						"1.0833": {
							"post": [0.00028, 2.23061, 0.93971],
							"lerp_mode": "catmullrom"
						},
						"1.4167": {
							"post": [0.00062, 2.64381, 0.44076],
							"lerp_mode": "catmullrom"
						},
						"2.0": {
							"post": [0, 3.1, 0],
							"lerp_mode": "catmullrom"
						},
						"3.3333": {
							"post": [0, 2, 0],
							"lerp_mode": "catmullrom"
						},
						"3.4583": {
							"post": [0.00002, 2.018, 0.48081],
							"lerp_mode": "catmullrom"
						},
						"3.5417": {
							"post": [0.00006, 2.14742, 0.70287],
							"lerp_mode": "catmullrom"
						},
						"3.75": {
							"post": [0.00028, 2.23061, 0.93971],
							"lerp_mode": "catmullrom"
						},
						"4.0833": {
							"post": [0.00062, 2.64381, 0.44076],
							"lerp_mode": "catmullrom"
						},
						"4.6667": {
							"post": [0, 3.1, 0],
							"lerp_mode": "catmullrom"
						},
						"6.0": {
							"post": [0, 2, 0],
							"lerp_mode": "catmullrom"
						},
						"6.125": {
							"post": [0.00002, 2.018, 0.48081],
							"lerp_mode": "catmullrom"
						},
						"6.2083": {
							"post": [0.00006, 2.14742, 0.70287],
							"lerp_mode": "catmullrom"
						},
						"6.4167": {
							"post": [0.00028, 2.23061, 0.93971],
							"lerp_mode": "catmullrom"
						},
						"6.75": {
							"post": [0.00062, 2.64381, 0.44076],
							"lerp_mode": "catmullrom"
						},
						"7.3333": {
							"post": [0, 3.1, 0],
							"lerp_mode": "catmullrom"
						},
						"8.0": {
							"post": [0, 2.58, -0.03],
							"lerp_mode": "catmullrom"
						}
					}
				},
				"leg_right": {
					"rotation": {
						"0.0": {
							"post": [-6.92, -0.66, -0.33],
							"lerp_mode": "catmullrom"
						},
						"0.375": {
							"post": [6.29, 0, 0],
							"lerp_mode": "catmullrom"
						},
						"0.9583": {
							"post": [20.00846, 6.9428, 2.52504],
							"lerp_mode": "catmullrom"
						},
						"1.3333": {
							"post": [0.08, 9.99, 2.49],
							"lerp_mode": "catmullrom"
						},
						"1.4583": {
							"post": [-8.60175, 9.98863, 2.49931],
							"lerp_mode": "catmullrom"
						},
						"1.875": {
							"post": [-44.89078, 3.53329, 3.54002],
							"lerp_mode": "catmullrom"
						},
						"2.0": {
							"post": [-32.5, 0, -0.00001],
							"lerp_mode": "catmullrom"
						},
						"3.0417": {
							"post": [6.29, 0, 0],
							"lerp_mode": "catmullrom"
						},
						"3.625": {
							"post": [20.00846, 6.9428, 2.52504],
							"lerp_mode": "catmullrom"
						},
						"4.125": {
							"post": [-8.60175, 9.98863, 2.49931],
							"lerp_mode": "catmullrom"
						},
						"4.5417": {
							"post": [-44.89078, 3.53329, 3.54002],
							"lerp_mode": "catmullrom"
						},
						"4.6667": {
							"post": [-32.5, 0, -0.00001],
							"lerp_mode": "catmullrom"
						},
						"5.7083": {
							"post": [6.29, 0, 0],
							"lerp_mode": "catmullrom"
						},
						"6.0": {
							"post": [17.36, 3.28, 1.26],
							"lerp_mode": "catmullrom"
						},
						"6.2917": {
							"post": [20.00846, 6.9428, 2.52504],
							"lerp_mode": "catmullrom"
						},
						"6.7917": {
							"post": [-8.60175, 9.98863, 2.49931],
							"lerp_mode": "catmullrom"
						},
						"7.2083": {
							"post": [-44.89078, 3.53329, 3.54002],
							"lerp_mode": "catmullrom"
						},
						"7.3333": {
							"post": [-32.5, 0, -0.00001],
							"lerp_mode": "catmullrom"
						},
						"8.0": {
							"post": [-6.92, -0.66, -0.33],
							"lerp_mode": "catmullrom"
						}
					},
					"position": {
						"0.0": {
							"post": [0, 5.02, 0.49],
							"lerp_mode": "catmullrom"
						},
						"0.6667": {
							"post": [0, 4.4, 4.6],
							"lerp_mode": "catmullrom"
						},
						"1.3333": {
							"post": [0, 5.83, 1.75],
							"lerp_mode": "catmullrom"
						},
						"1.9167": [0, 4.37, -2.02],
						"2.0": [0, 1.2, -3.25],
						"2.625": {
							"pre": [0, 5.02, 0.49],
							"post": [0, 5.02, 0.49],
							"lerp_mode": "catmullrom"
						},
						"3.3333": {
							"post": [0, 4.4, 4.6],
							"lerp_mode": "catmullrom"
						},
						"4.0417": {
							"post": [0, 5.83, 1.75],
							"lerp_mode": "catmullrom"
						},
						"4.5833": [0, 4.37, -2.02],
						"4.6667": [0, 1.2, -3.25],
						"5.2917": {
							"pre": [0, 5.02, 0.49],
							"post": [0, 5.02, 0.49],
							"lerp_mode": "catmullrom"
						},
						"6.0": {
							"post": [0, 4.4, 4.6],
							"lerp_mode": "catmullrom"
						},
						"6.7083": {
							"post": [0, 5.83, 1.75],
							"lerp_mode": "catmullrom"
						},
						"7.25": [0, 4.37, -2.02],
						"7.3333": [0, 1.2, -3.25],
						"8.0": [0, 5.02, 0.49]
					}
				},
				"foot_right": {
					"rotation": {
						"0.0": {
							"post": [-18.49, 4.69, -1.55],
							"lerp_mode": "catmullrom"
						},
						"0.0833": {
							"post": [-20.51058, 4.7046, -1.5883],
							"lerp_mode": "catmullrom"
						},
						"0.6667": {
							"post": [-25.019, 4.98092, -0.43688],
							"lerp_mode": "catmullrom"
						},
						"0.9583": {
							"post": [-12.01533, 4.97357, 0.69258],
							"lerp_mode": "catmullrom"
						},
						"1.3333": {
							"post": [-23.45, 5, -0.32],
							"lerp_mode": "catmullrom"
						},
						"1.5": {
							"post": [-28.46702, 5.00732, -0.75342],
							"lerp_mode": "catmullrom"
						},
						"1.9583": {
							"post": [-31.26038, 4.93798, -0.84653],
							"lerp_mode": "catmullrom"
						},
						"2.0": {
							"post": [-17.49046, 4.99523, 0.21865],
							"lerp_mode": "catmullrom"
						},
						"2.4167": {
							"post": [-12.66382, 4.77675, -0.8567],
							"lerp_mode": "catmullrom"
						},
						"2.75": {
							"post": [-20.51058, 4.7046, -1.5883],
							"lerp_mode": "catmullrom"
						},
						"3.3333": {
							"post": [-25.019, 4.98092, -0.43688],
							"lerp_mode": "catmullrom"
						},
						"3.625": {
							"post": [-12.01533, 4.97357, 0.69258],
							"lerp_mode": "catmullrom"
						},
						"4.1667": {
							"post": [-28.46702, 5.00732, -0.75342],
							"lerp_mode": "catmullrom"
						},
						"4.625": {
							"post": [-31.26038, 4.93798, -0.84653],
							"lerp_mode": "catmullrom"
						},
						"4.6667": {
							"post": [-17.49046, 4.99523, 0.21865],
							"lerp_mode": "catmullrom"
						},
						"5.0833": {
							"post": [-12.66382, 4.77675, -0.8567],
							"lerp_mode": "catmullrom"
						},
						"5.4167": {
							"post": [-20.51058, 4.7046, -1.5883],
							"lerp_mode": "catmullrom"
						},
						"6.0": {
							"post": [-25.019, 4.98092, -0.43688],
							"lerp_mode": "catmullrom"
						},
						"6.2917": {
							"post": [-12.01533, 4.97357, 0.69258],
							"lerp_mode": "catmullrom"
						},
						"6.8333": {
							"post": [-28.46702, 5.00732, -0.75342],
							"lerp_mode": "catmullrom"
						},
						"7.2917": {
							"post": [-31.26038, 4.93798, -0.84653],
							"lerp_mode": "catmullrom"
						},
						"7.3333": {
							"post": [-17.49046, 4.99523, 0.21865],
							"lerp_mode": "catmullrom"
						},
						"7.75": {
							"post": [-12.66382, 4.77675, -0.8567],
							"lerp_mode": "catmullrom"
						},
						"8.0": {
							"post": [-18.49, 4.69, -1.55],
							"lerp_mode": "catmullrom"
						}
					},
					"position": {
						"0.0": {
							"post": [0, 2.53, 0.58],
							"lerp_mode": "catmullrom"
						},
						"0.0833": {
							"post": [-0.00062, 2.64381, 0.44076],
							"lerp_mode": "catmullrom"
						},
						"0.6667": {
							"post": [0, 3.1, 0],
							"lerp_mode": "catmullrom"
						},
						"1.3333": {
							"post": [0, 2.58, -0.03],
							"lerp_mode": "catmullrom"
						},
						"2.0": {
							"post": [0, 2, 0],
							"lerp_mode": "catmullrom"
						},
						"2.125": {
							"post": [-0.00002, 2.018, 0.48081],
							"lerp_mode": "catmullrom"
						},
						"2.2083": {
							"post": [-0.00006, 2.14742, 0.70287],
							"lerp_mode": "catmullrom"
						},
						"2.4167": {
							"post": [-0.00028, 2.23061, 0.93971],
							"lerp_mode": "catmullrom"
						},
						"2.75": {
							"post": [-0.00062, 2.64381, 0.44076],
							"lerp_mode": "catmullrom"
						},
						"3.3333": {
							"post": [0, 3.1, 0],
							"lerp_mode": "catmullrom"
						},
						"4.6667": {
							"post": [0, 2, 0],
							"lerp_mode": "catmullrom"
						},
						"4.7917": {
							"post": [-0.00002, 2.018, 0.48081],
							"lerp_mode": "catmullrom"
						},
						"4.875": {
							"post": [-0.00006, 2.14742, 0.70287],
							"lerp_mode": "catmullrom"
						},
						"5.0833": {
							"post": [-0.00028, 2.23061, 0.93971],
							"lerp_mode": "catmullrom"
						},
						"5.4167": {
							"post": [-0.00062, 2.64381, 0.44076],
							"lerp_mode": "catmullrom"
						},
						"6.0": {
							"post": [0, 3.1, 0],
							"lerp_mode": "catmullrom"
						},
						"7.3333": {
							"post": [0, 2, 0],
							"lerp_mode": "catmullrom"
						},
						"7.4583": {
							"post": [-0.00002, 2.018, 0.48081],
							"lerp_mode": "catmullrom"
						},
						"7.5417": {
							"post": [-0.00006, 2.14742, 0.70287],
							"lerp_mode": "catmullrom"
						},
						"7.75": {
							"post": [-0.00028, 2.23061, 0.93971],
							"lerp_mode": "catmullrom"
						},
						"8.0": {
							"post": [0, 2.53, 0.58],
							"lerp_mode": "catmullrom"
						}
					}
				},
				"chest": {
					"rotation": ["0.5-math.sin(q.anim_time*90*6-20)*2", 0, "0+math.sin(q.anim_time*90*2-80)*2"]
				},
				"arm_left": {
					"rotation": [5.26604, "22.3188-math.sin(q.anim_time*90*4-60)*6+math.sin(q.anim_time*90*3+180)*10", 63.10353]
				},
				"arm_left2": {
					"rotation": [0, "75.894-math.sin(q.anim_time*90*4-150)*5", 0]
				},
				"hand_left": {
					"rotation": [0, -10, "60+math.sin(q.anim_time*90*4-210)*5"]
				},
				"claws_left": {
					"rotation": [0, 0, 32.5]
				},
				"claw_middle_left2": {
					"rotation": [0, 0, 20]
				},
				"claw_middle_left3": {
					"rotation": [0, 0, 15]
				},
				"claw_inner_left2": {
					"rotation": [0, 0, 47.5]
				},
				"claw_inner_left3": {
					"rotation": [0, 0, 25]
				},
				"claw_outer_left2": {
					"rotation": [0, 0, 25]
				},
				"claw_outer_left3": {
					"rotation": [0, 0, 17.5]
				},
				"wrist_left": {
					"rotation": [52.5, 0, 0]
				},
				"arm_fin_left": {
					"rotation": [0, 5, "10+math.sin(q.anim_time*90*10-150)*0.2"]
				},
				"arm_fin_left2": {
					"rotation": [0, "72.5-math.sin(q.anim_time*90*4-150)*5", 0]
				},
				"arm_fin_detail_left": {
					"rotation": [4.62934, -24.59477, "-11.0097+math.sin(q.anim_time*90*20-150)*0.4"]
				},
				"arm_right": {
					"rotation": [5.26604, "-22.3188+math.sin(q.anim_time*90*4-60)*6-math.sin(q.anim_time*90*3+180)*10", -63.10353]
				},
				"arm_fin_right": {
					"rotation": [0, -5, "-10+math.sin(q.anim_time*90*10-150)*0.2"]
				},
				"arm_fin_detail_right": {
					"rotation": [4.62934, 24.59477, "11.0097+math.sin(q.anim_time*90*20-150)*0.4"]
				},
				"arm_right2": {
					"rotation": [0, "-75.894-math.sin(q.anim_time*90*4-150)*5", 0]
				},
				"arm_fin_right2": {
					"rotation": [0, "-72.5-math.sin(q.anim_time*90*4-150)*5", 0]
				},
				"wrist_right": {
					"rotation": [65.10555, -3.9649, -3.04868]
				},
				"hand_right": {
					"rotation": [0, 0, "-67.5+math.sin(q.anim_time*90*4-150)*5"]
				},
				"claws_right": {
					"rotation": [0, 0, -17.5]
				},
				"claw_inner_right2": {
					"rotation": [1.91757, -4.61854, -52.57734]
				},
				"claw_inner_right3": {
					"rotation": [0, 0, -20]
				},
				"claw_middle_right": {
					"rotation": [0, 0, "math.sin(q.anim_time*90*3-280)*2"]
				},
				"claw_middle_right2": {
					"rotation": [0, 0, -27.5]
				},
				"claw_middle_right3": {
					"rotation": [0, 0, -32.5]
				},
				"claw_outer_right2": {
					"rotation": [0, 0, -27.5]
				},
				"claw_outer_right3": {
					"rotation": [0, 0, -25]
				},
				"neck2": {
					"rotation": ["5+math.sin(q.anim_time*90*3-190)*1", 0, 0]
				},
				"muzzle": {
					"rotation": [-12.5, 0, 0]
				},
				"muzzle2": {
					"rotation": [-10, 0, 0]
				},
				"jaw2": {
					"rotation": [-7.51021, -0.27878, -0.29383]
				},
				"tongue": {
					"rotation": [-20, 0, 0]
				},
				"tongue_bend": {
					"rotation": [25, 0, 0]
				},
				"leg_left2": {
					"rotation": {
						"0.0": {
							"post": [76.1, 0, 0],
							"lerp_mode": "catmullrom"
						},
						"0.4167": {
							"post": [72.5, 0, 0],
							"lerp_mode": "catmullrom"
						},
						"0.6667": {
							"post": [50, 0, 0],
							"lerp_mode": "catmullrom"
						},
						"1.3333": {
							"post": [24.481, -0.00504, -0.0444],
							"lerp_mode": "catmullrom"
						},
						"2.0": {
							"post": [30.40582, -0.00907, -0.08001],
							"lerp_mode": "catmullrom"
						},
						"2.6667": {
							"post": [72.5, 0, 0],
							"lerp_mode": "catmullrom"
						},
						"3.0833": {
							"post": [72.5, 0, 0],
							"lerp_mode": "catmullrom"
						},
						"3.3333": {
							"post": [50, 0, 0],
							"lerp_mode": "catmullrom"
						},
						"4.0": {
							"post": [24.481, -0.00504, -0.0444],
							"lerp_mode": "catmullrom"
						},
						"4.6667": {
							"post": [30.40582, -0.00907, -0.08001],
							"lerp_mode": "catmullrom"
						},
						"5.3333": {
							"post": [72.5, 0, 0],
							"lerp_mode": "catmullrom"
						},
						"5.75": {
							"post": [72.5, 0, 0],
							"lerp_mode": "catmullrom"
						},
						"6.0": {
							"post": [50, 0, 0],
							"lerp_mode": "catmullrom"
						},
						"6.6667": {
							"post": [24.481, -0.00504, -0.0444],
							"lerp_mode": "catmullrom"
						},
						"7.3333": {
							"post": [30.40582, -0.00907, -0.08001],
							"lerp_mode": "catmullrom"
						},
						"8.0": {
							"post": [76.1, 0, 0],
							"lerp_mode": "catmullrom"
						}
					}
				},
				"leg_right2": {
					"rotation": {
						"0.0": {
							"post": [24.481, 0.00504, 0.0444],
							"lerp_mode": "catmullrom"
						},
						"0.6667": {
							"post": [30.40582, 0.00907, 0.08001],
							"lerp_mode": "catmullrom"
						},
						"1.3333": {
							"post": [72.5, 0, 0],
							"lerp_mode": "catmullrom"
						},
						"1.75": {
							"post": [72.5, 0, 0],
							"lerp_mode": "catmullrom"
						},
						"2.0": {
							"post": [50, 0, 0],
							"lerp_mode": "catmullrom"
						},
						"2.6667": {
							"post": [24.481, 0.00504, 0.0444],
							"lerp_mode": "catmullrom"
						},
						"3.3333": {
							"post": [30.40582, 0.00907, 0.08001],
							"lerp_mode": "catmullrom"
						},
						"4.0": {
							"post": [72.5, 0, 0],
							"lerp_mode": "catmullrom"
						},
						"4.4167": {
							"post": [72.5, 0, 0],
							"lerp_mode": "catmullrom"
						},
						"4.6667": {
							"post": [50, 0, 0],
							"lerp_mode": "catmullrom"
						},
						"5.3333": {
							"post": [24.481, 0.00504, 0.0444],
							"lerp_mode": "catmullrom"
						},
						"6.0": {
							"post": [30.40582, 0.00907, 0.08001],
							"lerp_mode": "catmullrom"
						},
						"6.6667": {
							"post": [72.5, 0, 0],
							"lerp_mode": "catmullrom"
						},
						"7.0833": {
							"post": [72.5, 0, 0],
							"lerp_mode": "catmullrom"
						},
						"7.3333": {
							"post": [50, 0, 0],
							"lerp_mode": "catmullrom"
						},
						"8.0": {
							"post": [24.481, 0.00504, 0.0444],
							"lerp_mode": "catmullrom"
						}
					}
				},
				"claw_middle_left": {
					"rotation": [0, 0, "math.sin(q.anim_time*90*3-280)*2"]
				},
				"claw_outer_left": {
					"rotation": [0, 0, "math.sin(q.anim_time*90*3-280)*5"]
				},
				"claw_outer_right": {
					"rotation": [0, 0, "math.sin(q.anim_time*90*3-280)*5"]
				},
				"neck": {
					"rotation": ["12.5+math.sin(q.anim_time*90*3-160)*8", 0, "0+math.sin(q.anim_time*90*1.5-240)*9"]
				},
				"neck3": {
					"rotation": [0, 0, 0]
				},
				"head_fur_top2": {
					"rotation": ["-5-math.sin(q.anim_time*90*6+290)*2", 0, 0]
				},
				"head_fur_left2": {
					"rotation": [0, 0, "math.sin(q.anim_time*90*6+290)*2"]
				},
				"head_fur_right2": {
					"rotation": [0, 0, "-(math.sin(q.anim_time*90*6+290)*2)"]
				},
				"head_fur_top_left2": {
					"rotation": [0, 0, "12.5+math.sin(q.anim_time*90*6+290)*2"]
				},
				"head_fur_top_right2": {
					"rotation": [0, 0, "-12.5+math.sin(q.anim_time*90*6+290)*2"]
				},
				"head_fur_bottom_left2": {
					"rotation": [0, 0, "math.sin(q.anim_time*90*6+290)*2"]
				},
				"head_fur_bottom_right2": {
					"rotation": [0, 0, "-(math.sin(q.anim_time*90*6+290)*2)"]
				},
				"body": {
					"position": {
						"0.0": [0, 0, -3],
						"0.6667": [0, 0, -3],
						"0.7083": [0, -0.5, -3],
						"0.75": [0, 0.6, -3],
						"0.8333": [0, 0.1, -3],
						"0.9583": [0, 0.4, -3],
						"1.2083": [0, 0.2, -3],
						"1.6667": [0, 0, -3],
						"2.0": [0, 0, -3],
						"2.0417": [0, -0.5, -3],
						"2.0833": [0, 0.6, -3],
						"2.1667": [0, 0.1, -3],
						"2.2917": [0, 0.4, -3],
						"2.5417": [0, 0.2, -3],
						"3.0": [0, 0, -3],
						"3.3333": [0, 0, -3],
						"3.375": [0, -0.5, -3],
						"3.4167": [0, 0.6, -3],
						"3.5": [0, 0.1, -3],
						"3.625": [0, 0.4, -3],
						"3.875": [0, 0.2, -3],
						"4.3333": [0, 0, -3],
						"4.6667": [0, 0, -3],
						"4.7083": [0, -0.5, -3],
						"4.75": [0, 0.6, -3],
						"4.8333": [0, 0.1, -3],
						"4.9583": [0, 0.4, -3],
						"5.2083": [0, 0.2, -3],
						"5.6667": [0, 0, -3],
						"6.0": [0, 0, -3],
						"6.0417": [0, -0.5, -3],
						"6.0833": [0, 0.6, -3],
						"6.1667": [0, 0.1, -3],
						"6.2917": [0, 0.4, -3],
						"6.5417": [0, 0.2, -3],
						"7.0": [0, 0, -3],
						"7.3333": [0, 0, -3],
						"7.375": [0, -0.5, -3],
						"7.4167": [0, 0.6, -3],
						"7.5": [0, 0.1, -3],
						"7.625": [0, 0.4, -3],
						"7.875": [0, 0.2, -3],
						"8.0": [0, 0, -3]
					}
				},
				"toes_left": {
					"rotation": {
						"0.0": [1.74, 0, -0.15],
						"0.6667": [0, 0, 0],
						"1.5": {
							"pre": [0, 0, 0],
							"post": [0, 0, 0],
							"lerp_mode": "catmullrom"
						},
						"2.0": {
							"post": [-22.5311, -0.00321, 3.3883],
							"lerp_mode": "catmullrom"
						},
						"2.5833": {
							"post": [0, 0, 0],
							"lerp_mode": "catmullrom"
						},
						"3.3333": [0, 0, 0],
						"4.1667": {
							"pre": [0, 0, 0],
							"post": [0, 0, 0],
							"lerp_mode": "catmullrom"
						},
						"4.6667": {
							"post": [-22.03108, 0.00321, -3.3883],
							"lerp_mode": "catmullrom"
						},
						"5.25": {
							"post": [0, 0, 0],
							"lerp_mode": "catmullrom"
						},
						"6.0": [0, 0, 0],
						"6.8333": {
							"pre": [0, 0, 0],
							"post": [0, 0, 0],
							"lerp_mode": "catmullrom"
						},
						"7.3333": {
							"post": [-22.03108, 0.00321, -3.3883],
							"lerp_mode": "catmullrom"
						},
						"7.9167": {
							"post": [0, 0, 0],
							"lerp_mode": "catmullrom"
						},
						"8.0": {
							"post": [1.74, 0, -0.15],
							"lerp_mode": "catmullrom"
						}
					}
				},
				"toe_inner_left": {
					"rotation": {
						"0.0": [0, 0, 0],
						"0.4583": [0, 0, 0],
						"0.6667": [0, 12.5, 0],
						"2.0": [0, 0, 0],
						"3.125": [0, 0, 0],
						"3.3333": [0, 12.5, 0],
						"4.6667": [0, 0, 0],
						"5.7917": [0, 0, 0],
						"6.0": [0, 12.5, 0],
						"7.3333": [0, 0, 0],
						"8.0": [0, 0, 0]
					}
				},
				"toe_outer_left": {
					"rotation": {
						"0.0": [0, 0, 0],
						"0.4583": [0, 0, 0],
						"0.6667": [0, -12.5, 0],
						"2.0": [0, 0, 0],
						"3.125": [0, 0, 0],
						"3.3333": [0, -12.5, 0],
						"4.6667": [0, 0, 0],
						"5.7917": [0, 0, 0],
						"6.0": [0, -12.5, 0],
						"7.3333": [0, 0, 0],
						"8.0": [0, 0, 0]
					}
				},
				"toes_right": {
					"rotation": {
						"0.0": {
							"post": [2.53, 0, 0.22],
							"lerp_mode": "catmullrom"
						},
						"0.1667": {
							"post": [0, 0, 0],
							"lerp_mode": "catmullrom"
						},
						"0.6667": {
							"post": [-22.03108, 0.00321, -3.3883],
							"lerp_mode": "catmullrom"
						},
						"1.25": {
							"post": [0, 0, 0],
							"lerp_mode": "catmullrom"
						},
						"1.3333": {
							"post": [1.74, 0, 0.15],
							"lerp_mode": "catmullrom"
						},
						"2.0": [0, 0, 0],
						"2.8333": {
							"pre": [0, 0, 0],
							"post": [0, 0, 0],
							"lerp_mode": "catmullrom"
						},
						"3.3333": {
							"post": [-22.03108, 0.00321, -3.3883],
							"lerp_mode": "catmullrom"
						},
						"3.9167": {
							"post": [0, 0, 0],
							"lerp_mode": "catmullrom"
						},
						"4.6667": [0, 0, 0],
						"5.5": {
							"pre": [0, 0, 0],
							"post": [0, 0, 0],
							"lerp_mode": "catmullrom"
						},
						"6.0": {
							"post": [-22.03108, 0.00321, -3.3883],
							"lerp_mode": "catmullrom"
						},
						"6.5833": {
							"post": [0, 0, 0],
							"lerp_mode": "catmullrom"
						},
						"7.3333": [0, 0, 0],
						"8.0": [2.53, 0, 0.22]
					}
				},
				"toe_inner_right": {
					"rotation": {
						"0.0": [0, -6.25, 0],
						"0.6667": [0, 0, 0],
						"1.3333": [0, 0, 0],
						"1.7917": [0, 0, 0],
						"2.0": [0, -12.5, 0],
						"3.3333": [0, 0, 0],
						"4.4583": [0, 0, 0],
						"4.6667": [0, -12.5, 0],
						"6.0": [0, 0, 0],
						"7.125": [0, 0, 0],
						"7.3333": [0, -12.5, 0],
						"8.0": [0, -6.25, 0]
					}
				},
				"toe_outer_right": {
					"rotation": {
						"0.0": [0, 6.25, 0],
						"0.6667": [0, 0, 0],
						"1.3333": [0, 0, 0],
						"1.7917": [0, 0, 0],
						"2.0": [0, 12.5, 0],
						"3.3333": [0, 0, 0],
						"4.4583": [0, 0, 0],
						"4.6667": [0, 12.5, 0],
						"6.0": [0, 0, 0],
						"7.125": [0, 0, 0],
						"7.3333": [0, 12.5, 0],
						"8.0": [0, 6.25, 0]
					}
				},
				"arms": {
					"position": [0, "math.sin(q.anim_time*90*3+220)*1", 0]
				},
				"tail_bottom2": {
					"rotation": [25, 0, 0]
				},
				"tail5": {
					"rotation": ["30-math.cos(q.anim_time*90*3-190)*2", "math.sin(q.anim_time*90*1.5-160)*4", 0]
				},
				"head_rotation": {
					"rotation": ["-2.5+math.sin(q.anim_time*90*1.5-110)*1+math.cos(q.anim_time*90*3-230)*5", 0, 0],
					"position": [0, 1.49993, -0.01398]
				},
				"jaw": {
					"rotation": ["math.sin(q.anim_time*90*1.5-90)*-3", 0, 0]
				},
				"fin_right": {
					"rotation": [-81.8511, "52.6992+math.sin(q.anim_time*90*1.5-150)*-10+math.cos(q.anim_time*90*3+60)*15", "-81.8128+math.sin(q.anim_time*90*1.5-40)*-5"]
				},
				"fin_right2": {
					"rotation": [0, "10+math.sin(q.anim_time*90*1.5-210)*-14", "math.cos(q.anim_time*90*3-20)*20"],
					"position": [1, 0, 0]
				},
				"fin_right3": {
					"rotation": [0, "13+math.sin(q.anim_time*90*1.5-230+90)*18", "math.cos(q.anim_time*90*3-50)*6"]
				},
				"fin_left": {
					"rotation": [-81.8511, "-52.6992+math.sin(q.anim_time*90*1.5-150)*10+math.cos(q.anim_time*90*3+60)*-15", "81.8128+math.sin(q.anim_time*90*1.5-40)*5"]
				},
				"fin_left2": {
					"rotation": [0, "-10+math.sin(q.anim_time*90*1.5-210)*14", "-(math.cos(q.anim_time*90*3-20)*20)"],
					"position": [-1, 0, 0]
				},
				"fin_left3": {
					"rotation": [0, "-13+math.sin(q.anim_time*90*1.5-230+90)*-18", "-(math.cos(q.anim_time*90*3-50)*6)"]
				}
			}
		},
		"animation.dracovish.sleep": {
			"loop": true,
			"bones": {
				"torso": {
					"rotation": [-25.0045, 0.26, -0.0285],
					"position": [0, "math.sin(q.anim_time*90*1)*0.2", 0]
				},
				"tail3": {
					"rotation": [25, "0+math.sin(q.anim_time*90*0.5-80)*5", 0]
				},
				"tail4": {
					"rotation": [44.47953, "-0+math.sin(q.anim_time*90*0.5-120)*6", 0]
				},
				"tail6": {
					"rotation": [32.5, 0, 0]
				},
				"leg_left": {
					"rotation": [-100.245, -9.69037, "16.4141+math.sin(q.anim_time*90*1)*0.6"],
					"position": [0, -1.3, 0]
				},
				"foot_left": {
					"rotation": ["-3.312+math.sin(q.anim_time*90*1)*0.5", -5.69972, -7.03694],
					"position": [0, 2, 0]
				},
				"leg_right": {
					"rotation": [-100.245, 9.69037, "-16.4141+math.sin(q.anim_time*90*1)*0.6"],
					"position": [0, -1.3, 0]
				},
				"foot_right": {
					"rotation": ["-3.312+math.sin(q.anim_time*90*1)*0.5", 5.69972, 7.03694],
					"position": [0, 2, 0]
				},
				"tail": {
					"rotation": [24.99993, "0+math.sin(q.anim_time*90*0.5)*4", "0+math.sin(q.anim_time*90*0.5)*4"]
				},
				"tail2": {
					"rotation": [32.5, "0+math.sin(q.anim_time*90*0.5-40)*4", 0]
				},
				"tail5": {
					"rotation": [31.31934, "0+math.sin(q.anim_time*90*0.5)*6", 0]
				},
				"tail_scale_left": {
					"rotation": [10, 0, 0]
				},
				"tail_scale_right": {
					"rotation": [10, 0, 0]
				},
				"tail_bottom2": {
					"rotation": [27.5, 0, 0]
				},
				"tail_scale_left3": {
					"rotation": [7.5, 0, 0]
				},
				"tail_scale_right3": {
					"rotation": [7.5, 0, 0]
				},
				"leg_left2": {
					"rotation": [40.8134, -2.97953, 4.83286]
				},
				"leg_right2": {
					"rotation": [40.8134, 2.97953, -4.83286]
				},
				"body": {
					"position": [0, -10.2, 5.5]
				},
				"head_rotation": {
					"rotation": ["-22.5+math.sin(q.anim_time*90*1.5-110)*1", "math.sin(q.anim_time*90*0.5-20)*-5", "0+math.sin(q.anim_time*90*0.5-120)*12"]
				},
				"pupil_left": {
					"position": [-0.1, 0, 0]
				},
				"inner_eyelid_left": {
					"position": [0.1, 0, 0]
				},
				"pupil_right": {
					"position": [0.1, 0, 0]
				},
				"inner_eyelid_right": {
					"position": [-0.1, 0, 0]
				},
				"jaw": {
					"rotation": ["15+math.sin(q.anim_time*90*1.5-90)*-3", 0, 0]
				},
				"fin_right": {
					"rotation": [-255.13947, "77.363+math.sin(q.anim_time*90*0.5-120)*-12", -263.98013]
				},
				"fin_right2": {
					"rotation": [1.71872, "14.8497+math.sin(q.anim_time*90*0.5-120)*6", 10.14514],
					"position": [0.5, 0, 0]
				},
				"fin_right3": {
					"rotation": [0, "55+math.sin(q.anim_time*90*0.5-50)*-10", 0]
				},
				"fin_left": {
					"rotation": [-254.34174, "-96.3538+math.sin(q.anim_time*90*0.5-120)*-12", 263.51371]
				},
				"fin_left2": {
					"rotation": [-0.21411, "-14.6809+math.sin(q.anim_time*90*0.5-120)*6", -9.65053],
					"position": [-0.5, 0, 0]
				},
				"fin_left3": {
					"rotation": [0, "-55+math.sin(q.anim_time*90*0.5-50)*-10", 0]
				}
			}
		},
		"animation.dracovish.cry": {
			"animation_length": 4.875,
			"bones": {
				"head_rotation": {
					"rotation": {
						"0.0": {
							"post": [0, 0, 0],
							"lerp_mode": "catmullrom"
						},
						"0.4583": {
							"post": [-10.57, 0, 0],
							"lerp_mode": "catmullrom"
						},
						"0.8333": {
							"post": [-8.81, 0, 0],
							"lerp_mode": "catmullrom"
						},
						"1.0833": {
							"post": [10.5, 0, 0],
							"lerp_mode": "catmullrom"
						},
						"1.9167": {
							"post": [11.5, 0, 0],
							"lerp_mode": "catmullrom"
						},
						"2.5417": {
							"post": [0, 0, 0],
							"lerp_mode": "catmullrom"
						},
						"3.2917": {
							"post": [0, 0, 0],
							"lerp_mode": "catmullrom"
						}
					}
				},
				"jaw": {
					"rotation": {
						"0.0": {
							"post": [0, 0, 0],
							"lerp_mode": "catmullrom"
						},
						"0.7083": {
							"post": [17, 0, 0],
							"lerp_mode": "catmullrom"
						},
						"1.1667": {
							"post": [-27.05, 0, 0],
							"lerp_mode": "catmullrom"
						},
						"1.25": {
							"post": [-26.37, 0, 0],
							"lerp_mode": "catmullrom"
						},
						"1.3333": {
							"post": [-29.46, 0, 0],
							"lerp_mode": "catmullrom"
						},
						"1.4167": {
							"post": [-26.49, 0, 0],
							"lerp_mode": "catmullrom"
						},
						"1.5417": {
							"post": [-29.47, 0, 0],
							"lerp_mode": "catmullrom"
						},
						"1.6667": {
							"post": [-27.45, 0, 0],
							"lerp_mode": "catmullrom"
						},
						"1.7917": {
							"post": [-28.39, 0, 0],
							"lerp_mode": "catmullrom"
						},
						"1.9583": {
							"post": [-27.24, 0, 0],
							"lerp_mode": "catmullrom"
						},
						"2.3333": {
							"post": [-28.55, 0, 0],
							"lerp_mode": "catmullrom"
						},
						"2.7083": {
							"post": [-15, 0, 0],
							"lerp_mode": "catmullrom"
						},
						"3.0417": {
							"post": [10, 0, 0],
							"lerp_mode": "catmullrom"
						},
						"3.5417": {
							"post": [10, 0, 0],
							"lerp_mode": "catmullrom"
						},
						"3.9167": {
							"post": [3, 0, 0],
							"lerp_mode": "catmullrom"
						},
						"4.375": {
							"post": [0, 0, 0],
							"lerp_mode": "catmullrom"
						}
					}
				},
				"fin_right": {
					"rotation": {
						"0.0": {
							"post": [0, 0, 0],
							"lerp_mode": "catmullrom"
						},
						"0.5417": {
							"post": [28.75, 0, 42.25],
							"lerp_mode": "catmullrom"
						},
						"1.5": {
							"post": [-37.5, -36.5, -0.25],
							"lerp_mode": "catmullrom"
						},
						"2.6667": {
							"post": [-37.5, -36.5, 8.75],
							"lerp_mode": "catmullrom"
						},
						"4.5417": {
							"post": [0, 0, 0],
							"lerp_mode": "catmullrom"
						}
					}
				},
				"fin_right2": {
					"rotation": {
						"0.0": {
							"post": [0, 0, 0],
							"lerp_mode": "catmullrom"
						},
						"0.25": {
							"post": [0, 0, -2.5],
							"lerp_mode": "catmullrom"
						},
						"0.5833": {
							"post": [0, 0, 9],
							"lerp_mode": "catmullrom"
						},
						"0.9583": {
							"post": [0, -21, 26],
							"lerp_mode": "catmullrom"
						},
						"1.5417": {
							"post": [0, 2, -7.5],
							"lerp_mode": "catmullrom"
						},
						"2.2917": {
							"post": [0, 1.53, -17.86],
							"lerp_mode": "catmullrom"
						},
						"2.9167": {
							"post": [0, -13, -63],
							"lerp_mode": "catmullrom"
						},
						"3.5": {
							"post": [0, 0, -1],
							"lerp_mode": "catmullrom"
						},
						"4.5833": {
							"post": [0, 0, 0],
							"lerp_mode": "catmullrom"
						}
					}
				},
				"fin_right3": {
					"rotation": {
						"0.0": {
							"post": [0, 0, 0],
							"lerp_mode": "catmullrom"
						},
						"0.375": {
							"post": [0, -5.6, -5],
							"lerp_mode": "catmullrom"
						},
						"0.75": {
							"post": [0, 6.9, 5],
							"lerp_mode": "catmullrom"
						},
						"1.25": {
							"post": [0, -33, 10],
							"lerp_mode": "catmullrom"
						},
						"1.9167": {
							"post": [0, 6.1, -10],
							"lerp_mode": "catmullrom"
						},
						"2.6667": {
							"post": [0, -12.8, -7.5],
							"lerp_mode": "catmullrom"
						},
						"3.4583": {
							"post": [0, 0.4, 0],
							"lerp_mode": "catmullrom"
						},
						"4.8333": {
							"post": [0, 0, 0],
							"lerp_mode": "catmullrom"
						}
					}
				},
				"fin_left": {
					"rotation": {
						"0.0": {
							"post": [0, 0, 0],
							"lerp_mode": "catmullrom"
						},
						"0.5417": {
							"post": [28.75, 0, -42.25],
							"lerp_mode": "catmullrom"
						},
						"1.5": {
							"post": [-37.5, 36.5, 0.25],
							"lerp_mode": "catmullrom"
						},
						"2.6667": {
							"post": [-37.5, 36.5, -8.75],
							"lerp_mode": "catmullrom"
						},
						"4.5417": {
							"post": [0, 0, 0],
							"lerp_mode": "catmullrom"
						}
					}
				},
				"fin_left2": {
					"rotation": {
						"0.0": {
							"post": [0, 0, 0],
							"lerp_mode": "catmullrom"
						},
						"0.25": {
							"post": [0, 0, 2.5],
							"lerp_mode": "catmullrom"
						},
						"0.5833": {
							"post": [0, 0, -9],
							"lerp_mode": "catmullrom"
						},
						"0.9583": {
							"post": [0, 21, -26],
							"lerp_mode": "catmullrom"
						},
						"1.5417": {
							"post": [0, -2, 7.5],
							"lerp_mode": "catmullrom"
						},
						"2.2917": {
							"post": [0, -1.53, 17.86],
							"lerp_mode": "catmullrom"
						},
						"2.9167": {
							"post": [0, 13, 63],
							"lerp_mode": "catmullrom"
						},
						"3.5": {
							"post": [0, 0, 1],
							"lerp_mode": "catmullrom"
						},
						"4.5833": {
							"post": [0, 0, 0],
							"lerp_mode": "catmullrom"
						}
					}
				},
				"fin_left3": {
					"rotation": {
						"0.0": {
							"post": [0, 0, 0],
							"lerp_mode": "catmullrom"
						},
						"0.375": {
							"post": [0, 5.6, 5],
							"lerp_mode": "catmullrom"
						},
						"0.75": {
							"post": [0, -6.9, -5],
							"lerp_mode": "catmullrom"
						},
						"1.25": {
							"post": [0, 33, -10],
							"lerp_mode": "catmullrom"
						},
						"1.9167": {
							"post": [0, -6.1, 10],
							"lerp_mode": "catmullrom"
						},
						"2.6667": {
							"post": [0, 12.8, 7.5],
							"lerp_mode": "catmullrom"
						},
						"3.4583": {
							"post": [0, -0.4, 0],
							"lerp_mode": "catmullrom"
						},
						"4.8333": {
							"post": [0, 0, 0],
							"lerp_mode": "catmullrom"
						}
					}
				},
				"tail2": {
					"rotation": {
						"0.0": {
							"post": [0, 0, 0],
							"lerp_mode": "catmullrom"
						},
						"0.625": {
							"post": [2, 0, 0],
							"lerp_mode": "catmullrom"
						},
						"1.2917": {
							"post": [-3, 0, 0],
							"lerp_mode": "catmullrom"
						},
						"2.5": {
							"post": [-3, 0, 0],
							"lerp_mode": "catmullrom"
						},
						"3.5833": {
							"post": [0, 0, 0],
							"lerp_mode": "catmullrom"
						}
					}
				},
				"tail3": {
					"rotation": {
						"0.0": {
							"post": [0, 0, 0],
							"lerp_mode": "catmullrom"
						},
						"0.6667": {
							"post": [3, 0, 0],
							"lerp_mode": "catmullrom"
						},
						"1.375": {
							"post": [-8.75, 0, 0],
							"lerp_mode": "catmullrom"
						},
						"2.4167": {
							"post": [-8.75, 0, 0],
							"lerp_mode": "catmullrom"
						},
						"3.4583": {
							"post": [0, 0, 0],
							"lerp_mode": "catmullrom"
						}
					},
					"position": {
						"0.0": [0, 0, 0],
						"0.6667": [0, 0, 0],
						"1.125": [0, "math.sin(q.anim_time*90*30)*0.1", 0],
						"3.2917": [0, 0, 0]
					}
				},
				"tail4": {
					"rotation": {
						"0.0": {
							"post": [0, 0, 0],
							"lerp_mode": "catmullrom"
						},
						"0.5833": {
							"post": [3, 0, 0],
							"lerp_mode": "catmullrom"
						},
						"1.7083": {
							"post": [-6, 0, 0],
							"lerp_mode": "catmullrom"
						},
						"2.5417": {
							"post": [-10, 0, 0],
							"lerp_mode": "catmullrom"
						},
						"3.2917": {
							"post": [0, 0, 0],
							"lerp_mode": "catmullrom"
						},
						"4.4583": {
							"post": [0, 0, 0],
							"lerp_mode": "catmullrom"
						}
					},
					"position": {
						"0.0": [0, 0, 0],
						"0.6667": [0, 0, 0],
						"1.125": [0, "math.sin(q.anim_time*90*30+30)*0.05", 0],
						"3.2917": [0, 0, 0]
					}
				},
				"tail5": {
					"rotation": {
						"0.0": {
							"post": [0, 0, 0],
							"lerp_mode": "catmullrom"
						},
						"0.6667": {
							"post": [11, 0, 0],
							"lerp_mode": "catmullrom"
						},
						"1.5833": {
							"post": [-4, 0, 0],
							"lerp_mode": "catmullrom"
						},
						"2.6667": {
							"post": [-8, 0, 0],
							"lerp_mode": "catmullrom"
						},
						"3.1667": {
							"post": [0, 0, 0],
							"lerp_mode": "catmullrom"
						},
						"4.375": {
							"post": [0, 0, 0],
							"lerp_mode": "catmullrom"
						}
					},
					"position": {
						"0.0": [0, 0, 0],
						"0.6667": [0, 0, 0],
						"1.125": [0, "math.sin(q.anim_time*90*30-60)*0.1", 0],
						"3.2917": [0, 0, 0]
					}
				}
			},
			"sound_effects": {
				"1.0833": {
					"effect": "pokemon.dracovish.cry"
				}
			}
		},
		"animation.dracovish.water_idle": {
			"loop": true,
			"bones": {
				"torso": {
					"rotation": ["-62.5045-math.sin(q.anim_time*90*1-160)*2", "0.26-math.cos(q.anim_time*90*0.5-80)*2", "-0.0285+math.sin(q.anim_time*90*0.5-80)*2"],
					"position": [0, "math.sin(q.anim_time*90*1)*0.2", 0]
				},
				"tail3": {
					"rotation": [22.5, "-(math.sin(q.anim_time*90*0.5-80)*5)", 0]
				},
				"tail4": {
					"rotation": [27.5, "math.sin(q.anim_time*90*0.5-120)*6", 0]
				},
				"tail6": {
					"rotation": [32.5, 0, 0]
				},
				"leg_left": {
					"rotation": ["-37.5+math.sin(q.anim_time*90*1)*0.6", -7.5, 0.00001],
					"position": [0, "math.sin(q.anim_time*90*1)*0.2", 0]
				},
				"foot_left": {
					"rotation": ["-20+math.sin(q.anim_time*90*1)*0.5", -5, 0],
					"position": [0, 2, 0]
				},
				"leg_right": {
					"rotation": ["-37.5+math.sin(q.anim_time*90*1)*0.6", 7.5, -0.00001],
					"position": [0, "math.sin(q.anim_time*90*1)*0.2", 0]
				},
				"foot_right": {
					"rotation": ["-20+math.sin(q.anim_time*90*1)*0.5", 5, 0],
					"position": [0, 2, 0]
				},
				"tail": {
					"rotation": [27.5, "math.sin(q.anim_time*90*0.5)*4", 0]
				},
				"tail2": {
					"rotation": [37.5, "0+math.sin(q.anim_time*90*0.5-40)*4", 0]
				},
				"tail5": {
					"rotation": [27.5, "math.sin(q.anim_time*90*0.5)*6", 0]
				},
				"tail_scale_left": {
					"rotation": [10, 0, 0]
				},
				"tail_scale_right": {
					"rotation": [10, 0, 0]
				},
				"tail_bottom2": {
					"rotation": [27.5, 0, 0]
				},
				"tail_scale_left3": {
					"rotation": [7.5, 0, 0]
				},
				"tail_scale_right3": {
					"rotation": [7.5, 0, 0]
				},
				"leg_left2": {
					"rotation": ["57.5-math.sin(q.anim_time*90*1)*1", 0, 0]
				},
				"leg_right2": {
					"rotation": ["57.5-math.sin(q.anim_time*90*1)*1", 0, 0]
				},
				"head_rotation": {
					"rotation": ["math.sin(q.anim_time*90*1.5-110)*1", 0, "math.sin(q.anim_time*90*0.5-120)*12"]
				},
				"jaw": {
					"rotation": ["math.sin(q.anim_time*90*1.5-90)*-3", 0, 0]
				},
				"fin_right": {
					"rotation": ["-25+math.sin(q.anim_time*90*0.75-50)*5", "15+math.sin(q.anim_time*90*0.75-90)*10", -30]
				},
				"fin_right2": {
					"rotation": [2, "math.sin(q.anim_time*90*0.75-130)*17", 10],
					"position": [1, 0, 0]
				},
				"fin_right3": {
					"rotation": [0, "math.sin(q.anim_time*90*0.75-190)*13", 0]
				},
				"fin_left": {
					"rotation": ["-25+math.sin(q.anim_time*90*0.75-50)*5", "-15+math.sin(q.anim_time*90*0.75-90)*-10", 30]
				},
				"fin_left2": {
					"rotation": [2, "-(math.sin(q.anim_time*90*0.75-130)*17)", -10],
					"position": [-1, 0, 0]
				},
				"fin_left3": {
					"rotation": [0, "-(math.sin(q.anim_time*90*0.75-190)*13)", 0]
				}
			}
		},
		"animation.dracovish.water_battle_idle": {
			"loop": true,
			"bones": {
				"torso": {
					"rotation": ["-60-math.sin(q.anim_time*90*2)*6", "0-math.cos(q.anim_time*90*1-80)*2", "0+math.sin(q.anim_time*90*1-80)*2"],
					"position": [0, "5.2+math.sin(q.anim_time*90*2-60)*0.6", 0]
				},
				"tail3": {
					"rotation": ["20-math.sin(q.anim_time*90*2-230)*3", "0+math.sin(q.anim_time*90*1-110)*5", 0]
				},
				"tail4": {
					"rotation": ["32.5-math.sin(q.anim_time*90*2-270)*3", "math.sin(q.anim_time*90*1-160)*6", 0]
				},
				"tail6": {
					"rotation": [32.5, 0, 0]
				},
				"leg_left": {
					"rotation": ["-22.5+math.sin(q.anim_time*90*2)*0.6", -17.5, 0.00001],
					"position": [0, "2.8+math.sin(q.anim_time*90*2)*0.15", 0]
				},
				"foot_left": {
					"rotation": ["-20+math.sin(q.anim_time*90*2)*0.5", -5, 0],
					"position": [0, 2, 0]
				},
				"leg_right": {
					"rotation": ["-22.5+math.sin(q.anim_time*90*2)*0.6", 20, -0.00001],
					"position": [0, "2.8+math.sin(q.anim_time*90*2)*0.15", 0]
				},
				"foot_right": {
					"rotation": ["-20+math.sin(q.anim_time*90*2)*0.5", 5, 0],
					"position": [0, 2, 0]
				},
				"tail": {
					"rotation": ["27.5-math.sin(q.anim_time*90*2-60)*3", "math.sin(q.anim_time*90*1)*4", 0]
				},
				"tail2": {
					"rotation": ["35-math.sin(q.anim_time*90*2-140)*3", "math.sin(q.anim_time*90*1-50)*4", 0]
				},
				"tail5": {
					"rotation": ["32.5-math.sin(q.anim_time*90*2)*3", "-math.sin(q.anim_time*90*1-30)*6", 0]
				},
				"tail_scale_left": {
					"rotation": [10, 0, 0]
				},
				"tail_scale_right": {
					"rotation": [10, 0, 0]
				},
				"tail_bottom2": {
					"rotation": [27.5, 0, 0]
				},
				"tail_scale_left3": {
					"rotation": [7.5, 0, 0]
				},
				"tail_scale_right3": {
					"rotation": [7.5, 0, 0]
				},
				"leg_left2": {
					"rotation": ["42.5-math.sin(q.anim_time*90*2)*1", 0, 0]
				},
				"leg_right2": {
					"rotation": ["42.5-math.sin(q.anim_time*90*2)*1", 0, 0]
				},
				"head_rotation": {
					"rotation": ["math.sin(q.anim_time*90*1.5-60)*6", 0, "math.sin(q.anim_time*90*1-150)*12"]
				},
				"jaw": {
					"rotation": ["math.sin(q.anim_time*90*2.5-90)*-8", 0, 0]
				},
				"fin_right": {
					"rotation": ["-25+math.sin(q.anim_time*90*1.5-50)*5", "15+math.sin(q.anim_time*90*1.5-90)*10", -30]
				},
				"fin_right2": {
					"rotation": [2, "math.sin(q.anim_time*90*1.5-130)*17", 10],
					"position": [1, 0, 0]
				},
				"fin_right3": {
					"rotation": [0, "math.sin(q.anim_time*90*1.5-190)*13", 0]
				},
				"fin_left": {
					"rotation": ["-25+math.sin(q.anim_time*90*1.5-50)*5", "-15+math.sin(q.anim_time*90*1.5-90)*-10", 30]
				},
				"fin_left2": {
					"rotation": [2, "-(math.sin(q.anim_time*90*1.5-130)*17)", -10],
					"position": [-1, 0, 0]
				},
				"fin_left3": {
					"rotation": [0, "-(math.sin(q.anim_time*90*1.5-190)*13)", 0]
				}
			}
		},
		"animation.dracovish.water_swim": {
			"loop": true,
			"animation_length": 8,
			"bones": {
				"torso": {
					"rotation": ["-45+math.sin(q.anim_time*90*3-80)*6", "math.sin(q.anim_time*90*1.5)*5", "math.sin(q.anim_time*90*1.5-80)*8"],
					"position": [0, "4.2+math.sin(q.anim_time*90*3)*1+math.clamp(math.sin(q.anim_time*90*3-40)*1.5,0,2)", 0]
				},
				"tail": {
					"rotation": ["21.5+math.sin(q.anim_time*90*3)*3", "math.sin(q.anim_time*90*1.5)*4", 0]
				},
				"tail2": {
					"rotation": ["35.5+math.sin(q.anim_time*90*3-60)*3", "math.sin(q.anim_time*90*1.5-60)*2", 0]
				},
				"tail3": {
					"rotation": ["20.5-math.cos(q.anim_time*90*3-90)*6", "0+math.sin(q.anim_time*90*1.5-90)*3", 0]
				},
				"tail4": {
					"rotation": ["22.5-math.cos(q.anim_time*90*3-150)*4", "math.sin(q.anim_time*90*1.5-150)*2", 0]
				},
				"tail6": {
					"rotation": ["-7.5-math.cos(q.anim_time*90*3-200)*8", "math.sin(q.anim_time*90*1.5-200)*9", 0]
				},
				"tail7": {
					"rotation": ["-10-math.cos(q.anim_time*90*3-280)*12", "math.sin(q.anim_time*90*1.5-240)*14", 0]
				},
				"leg_left": {
					"rotation": {
						"0.0": {
							"post": [0.08, -9.99, -2.49],
							"lerp_mode": "catmullrom"
						},
						"0.125": {
							"post": [-13.40175, -9.98863, -2.49931],
							"lerp_mode": "catmullrom"
						},
						"0.5417": {
							"post": [-44.89078, -3.53329, -3.54002],
							"lerp_mode": "catmullrom"
						},
						"0.6667": {
							"post": [-32.5, 0, 0.00001],
							"lerp_mode": "catmullrom"
						},
						"1.7083": {
							"post": [6.29, 0, 0],
							"lerp_mode": "catmullrom"
						},
						"2.2917": {
							"post": [20.00846, -6.9428, -2.52504],
							"lerp_mode": "catmullrom"
						},
						"2.7917": {
							"post": [-8.60175, -9.98863, -2.49931],
							"lerp_mode": "catmullrom"
						},
						"3.2083": {
							"post": [-44.89078, -3.53329, -3.54002],
							"lerp_mode": "catmullrom"
						},
						"3.3333": {
							"post": [-32.5, 0, 0.00001],
							"lerp_mode": "catmullrom"
						},
						"4.375": {
							"post": [6.29, 0, 0],
							"lerp_mode": "catmullrom"
						},
						"4.9583": {
							"post": [20.00846, -6.9428, -2.52504],
							"lerp_mode": "catmullrom"
						},
						"5.4583": {
							"post": [-8.60175, -9.98863, -2.49931],
							"lerp_mode": "catmullrom"
						},
						"5.875": {
							"post": [-44.89078, -3.53329, -3.54002],
							"lerp_mode": "catmullrom"
						},
						"6.0": {
							"post": [-32.5, 0, 0.00001],
							"lerp_mode": "catmullrom"
						},
						"7.0417": {
							"post": [6.29, 0, 0],
							"lerp_mode": "catmullrom"
						},
						"7.625": {
							"post": [20.00846, -6.9428, -2.52504],
							"lerp_mode": "catmullrom"
						},
						"8.0": {
							"post": [0.08, -9.99, -2.49],
							"lerp_mode": "catmullrom"
						}
					},
					"position": {
						"0.0": [0, 5.83, 1.75],
						"0.5833": [0, 4.37, -2.02],
						"0.6667": [0, 1.2, -3.25],
						"1.2917": {
							"pre": [0, 5.02, 0.49],
							"post": [0, 5.02, 0.49],
							"lerp_mode": "catmullrom"
						},
						"2.0": {
							"post": [0, 4.4, 4.6],
							"lerp_mode": "catmullrom"
						},
						"2.7083": {
							"post": [0, 5.83, 1.75],
							"lerp_mode": "catmullrom"
						},
						"3.25": [0, 4.37, -2.02],
						"3.3333": [0, 1.2, -3.25],
						"3.9583": {
							"pre": [0, 5.02, 0.49],
							"post": [0, 5.02, 0.49],
							"lerp_mode": "catmullrom"
						},
						"4.6667": {
							"post": [0, 4.4, 4.6],
							"lerp_mode": "catmullrom"
						},
						"5.375": {
							"post": [0, 5.83, 1.75],
							"lerp_mode": "catmullrom"
						},
						"5.9167": [0, 4.37, -2.02],
						"6.0": [0, 1.2, -3.25],
						"6.625": {
							"pre": [0, 5.02, 0.49],
							"post": [0, 5.02, 0.49],
							"lerp_mode": "catmullrom"
						},
						"7.3333": {
							"post": [0, 4.4, 4.6],
							"lerp_mode": "catmullrom"
						},
						"8.0": {
							"post": [0, 5.83, 1.75],
							"lerp_mode": "catmullrom"
						}
					}
				},
				"foot_left": {
					"rotation": {
						"0.0": {
							"post": [-23.45, -5, 0.32],
							"lerp_mode": "catmullrom"
						},
						"0.1667": {
							"post": [-28.46702, -5.00732, 0.75342],
							"lerp_mode": "catmullrom"
						},
						"0.625": {
							"post": [-31.26038, -4.93798, 0.84653],
							"lerp_mode": "catmullrom"
						},
						"0.6667": {
							"post": [-17.49046, -4.99523, -0.21865],
							"lerp_mode": "catmullrom"
						},
						"1.0833": {
							"post": [-12.66382, -4.77675, 0.8567],
							"lerp_mode": "catmullrom"
						},
						"1.4167": {
							"post": [-20.51058, -4.7046, 1.5883],
							"lerp_mode": "catmullrom"
						},
						"2.0": {
							"post": [-25.019, -4.98092, 0.43688],
							"lerp_mode": "catmullrom"
						},
						"2.2917": {
							"post": [-12.01533, -4.97357, -0.69258],
							"lerp_mode": "catmullrom"
						},
						"2.8333": {
							"post": [-28.46702, -5.00732, 0.75342],
							"lerp_mode": "catmullrom"
						},
						"3.2917": {
							"post": [-31.26038, -4.93798, 0.84653],
							"lerp_mode": "catmullrom"
						},
						"3.3333": {
							"post": [-17.49046, -4.99523, -0.21865],
							"lerp_mode": "catmullrom"
						},
						"3.75": {
							"post": [-12.66382, -4.77675, 0.8567],
							"lerp_mode": "catmullrom"
						},
						"4.0833": {
							"post": [-20.51058, -4.7046, 1.5883],
							"lerp_mode": "catmullrom"
						},
						"4.6667": {
							"post": [-25.019, -4.98092, 0.43688],
							"lerp_mode": "catmullrom"
						},
						"4.9583": {
							"post": [-12.01533, -4.97357, -0.69258],
							"lerp_mode": "catmullrom"
						},
						"5.5": {
							"post": [-28.46702, -5.00732, 0.75342],
							"lerp_mode": "catmullrom"
						},
						"5.9583": {
							"post": [-31.26038, -4.93798, 0.84653],
							"lerp_mode": "catmullrom"
						},
						"6.0": {
							"post": [-17.49046, -4.99523, -0.21865],
							"lerp_mode": "catmullrom"
						},
						"6.4167": {
							"post": [-12.66382, -4.77675, 0.8567],
							"lerp_mode": "catmullrom"
						},
						"6.75": {
							"post": [-20.51058, -4.7046, 1.5883],
							"lerp_mode": "catmullrom"
						},
						"7.3333": {
							"post": [-25.019, -4.98092, 0.43688],
							"lerp_mode": "catmullrom"
						},
						"7.625": {
							"post": [-12.01533, -4.97357, -0.69258],
							"lerp_mode": "catmullrom"
						},
						"8.0": {
							"post": [-23.45, -5, 0.32],
							"lerp_mode": "catmullrom"
						}
					},
					"position": {
						"0.0": {
							"post": [0, 2.58, -0.03],
							"lerp_mode": "catmullrom"
						},
						"0.6667": {
							"post": [0, 2, 0],
							"lerp_mode": "catmullrom"
						},
						"0.7917": {
							"post": [0.00002, 2.018, 0.48081],
							"lerp_mode": "catmullrom"
						},
						"0.875": {
							"post": [0.00006, 2.14742, 0.70287],
							"lerp_mode": "catmullrom"
						},
						"1.0833": {
							"post": [0.00028, 2.23061, 0.93971],
							"lerp_mode": "catmullrom"
						},
						"1.4167": {
							"post": [0.00062, 2.64381, 0.44076],
							"lerp_mode": "catmullrom"
						},
						"2.0": {
							"post": [0, 3.1, 0],
							"lerp_mode": "catmullrom"
						},
						"3.3333": {
							"post": [0, 2, 0],
							"lerp_mode": "catmullrom"
						},
						"3.4583": {
							"post": [0.00002, 2.018, 0.48081],
							"lerp_mode": "catmullrom"
						},
						"3.5417": {
							"post": [0.00006, 2.14742, 0.70287],
							"lerp_mode": "catmullrom"
						},
						"3.75": {
							"post": [0.00028, 2.23061, 0.93971],
							"lerp_mode": "catmullrom"
						},
						"4.0833": {
							"post": [0.00062, 2.64381, 0.44076],
							"lerp_mode": "catmullrom"
						},
						"4.6667": {
							"post": [0, 3.1, 0],
							"lerp_mode": "catmullrom"
						},
						"6.0": {
							"post": [0, 2, 0],
							"lerp_mode": "catmullrom"
						},
						"6.125": {
							"post": [0.00002, 2.018, 0.48081],
							"lerp_mode": "catmullrom"
						},
						"6.2083": {
							"post": [0.00006, 2.14742, 0.70287],
							"lerp_mode": "catmullrom"
						},
						"6.4167": {
							"post": [0.00028, 2.23061, 0.93971],
							"lerp_mode": "catmullrom"
						},
						"6.75": {
							"post": [0.00062, 2.64381, 0.44076],
							"lerp_mode": "catmullrom"
						},
						"7.3333": {
							"post": [0, 3.1, 0],
							"lerp_mode": "catmullrom"
						},
						"8.0": {
							"post": [0, 2.58, -0.03],
							"lerp_mode": "catmullrom"
						}
					}
				},
				"leg_right": {
					"rotation": {
						"0.0": {
							"post": [-6.92, -0.66, -0.33],
							"lerp_mode": "catmullrom"
						},
						"0.375": {
							"post": [6.29, 0, 0],
							"lerp_mode": "catmullrom"
						},
						"0.9583": {
							"post": [20.00846, 6.9428, 2.52504],
							"lerp_mode": "catmullrom"
						},
						"1.3333": {
							"post": [0.08, 9.99, 2.49],
							"lerp_mode": "catmullrom"
						},
						"1.4583": {
							"post": [-8.60175, 9.98863, 2.49931],
							"lerp_mode": "catmullrom"
						},
						"1.875": {
							"post": [-44.89078, 3.53329, 3.54002],
							"lerp_mode": "catmullrom"
						},
						"2.0": {
							"post": [-32.5, 0, -0.00001],
							"lerp_mode": "catmullrom"
						},
						"3.0417": {
							"post": [6.29, 0, 0],
							"lerp_mode": "catmullrom"
						},
						"3.625": {
							"post": [20.00846, 6.9428, 2.52504],
							"lerp_mode": "catmullrom"
						},
						"4.125": {
							"post": [-8.60175, 9.98863, 2.49931],
							"lerp_mode": "catmullrom"
						},
						"4.5417": {
							"post": [-44.89078, 3.53329, 3.54002],
							"lerp_mode": "catmullrom"
						},
						"4.6667": {
							"post": [-32.5, 0, -0.00001],
							"lerp_mode": "catmullrom"
						},
						"5.7083": {
							"post": [6.29, 0, 0],
							"lerp_mode": "catmullrom"
						},
						"6.0": {
							"post": [17.36, 3.28, 1.26],
							"lerp_mode": "catmullrom"
						},
						"6.2917": {
							"post": [20.00846, 6.9428, 2.52504],
							"lerp_mode": "catmullrom"
						},
						"6.7917": {
							"post": [-8.60175, 9.98863, 2.49931],
							"lerp_mode": "catmullrom"
						},
						"7.2083": {
							"post": [-44.89078, 3.53329, 3.54002],
							"lerp_mode": "catmullrom"
						},
						"7.3333": {
							"post": [-32.5, 0, -0.00001],
							"lerp_mode": "catmullrom"
						},
						"8.0": {
							"post": [-6.92, -0.66, -0.33],
							"lerp_mode": "catmullrom"
						}
					},
					"position": {
						"0.0": {
							"post": [0, 5.02, 0.49],
							"lerp_mode": "catmullrom"
						},
						"0.6667": {
							"post": [0, 4.4, 4.6],
							"lerp_mode": "catmullrom"
						},
						"1.3333": {
							"post": [0, 5.83, 1.75],
							"lerp_mode": "catmullrom"
						},
						"1.9167": [0, 4.37, -2.02],
						"2.0": [0, 1.2, -3.25],
						"2.625": {
							"pre": [0, 5.02, 0.49],
							"post": [0, 5.02, 0.49],
							"lerp_mode": "catmullrom"
						},
						"3.3333": {
							"post": [0, 4.4, 4.6],
							"lerp_mode": "catmullrom"
						},
						"4.0417": {
							"post": [0, 5.83, 1.75],
							"lerp_mode": "catmullrom"
						},
						"4.5833": [0, 4.37, -2.02],
						"4.6667": [0, 1.2, -3.25],
						"5.2917": {
							"pre": [0, 5.02, 0.49],
							"post": [0, 5.02, 0.49],
							"lerp_mode": "catmullrom"
						},
						"6.0": {
							"post": [0, 4.4, 4.6],
							"lerp_mode": "catmullrom"
						},
						"6.7083": {
							"post": [0, 5.83, 1.75],
							"lerp_mode": "catmullrom"
						},
						"7.25": [0, 4.37, -2.02],
						"7.3333": [0, 1.2, -3.25],
						"8.0": [0, 5.02, 0.49]
					}
				},
				"foot_right": {
					"rotation": {
						"0.0": {
							"post": [-18.49, 4.69, -1.55],
							"lerp_mode": "catmullrom"
						},
						"0.0833": {
							"post": [-20.51058, 4.7046, -1.5883],
							"lerp_mode": "catmullrom"
						},
						"0.6667": {
							"post": [-25.019, 4.98092, -0.43688],
							"lerp_mode": "catmullrom"
						},
						"0.9583": {
							"post": [-12.01533, 4.97357, 0.69258],
							"lerp_mode": "catmullrom"
						},
						"1.3333": {
							"post": [-23.45, 5, -0.32],
							"lerp_mode": "catmullrom"
						},
						"1.5": {
							"post": [-28.46702, 5.00732, -0.75342],
							"lerp_mode": "catmullrom"
						},
						"1.9583": {
							"post": [-31.26038, 4.93798, -0.84653],
							"lerp_mode": "catmullrom"
						},
						"2.0": {
							"post": [-17.49046, 4.99523, 0.21865],
							"lerp_mode": "catmullrom"
						},
						"2.4167": {
							"post": [-12.66382, 4.77675, -0.8567],
							"lerp_mode": "catmullrom"
						},
						"2.75": {
							"post": [-20.51058, 4.7046, -1.5883],
							"lerp_mode": "catmullrom"
						},
						"3.3333": {
							"post": [-25.019, 4.98092, -0.43688],
							"lerp_mode": "catmullrom"
						},
						"3.625": {
							"post": [-12.01533, 4.97357, 0.69258],
							"lerp_mode": "catmullrom"
						},
						"4.1667": {
							"post": [-28.46702, 5.00732, -0.75342],
							"lerp_mode": "catmullrom"
						},
						"4.625": {
							"post": [-31.26038, 4.93798, -0.84653],
							"lerp_mode": "catmullrom"
						},
						"4.6667": {
							"post": [-17.49046, 4.99523, 0.21865],
							"lerp_mode": "catmullrom"
						},
						"5.0833": {
							"post": [-12.66382, 4.77675, -0.8567],
							"lerp_mode": "catmullrom"
						},
						"5.4167": {
							"post": [-20.51058, 4.7046, -1.5883],
							"lerp_mode": "catmullrom"
						},
						"6.0": {
							"post": [-25.019, 4.98092, -0.43688],
							"lerp_mode": "catmullrom"
						},
						"6.2917": {
							"post": [-12.01533, 4.97357, 0.69258],
							"lerp_mode": "catmullrom"
						},
						"6.8333": {
							"post": [-28.46702, 5.00732, -0.75342],
							"lerp_mode": "catmullrom"
						},
						"7.2917": {
							"post": [-31.26038, 4.93798, -0.84653],
							"lerp_mode": "catmullrom"
						},
						"7.3333": {
							"post": [-17.49046, 4.99523, 0.21865],
							"lerp_mode": "catmullrom"
						},
						"7.75": {
							"post": [-12.66382, 4.77675, -0.8567],
							"lerp_mode": "catmullrom"
						},
						"8.0": {
							"post": [-18.49, 4.69, -1.55],
							"lerp_mode": "catmullrom"
						}
					},
					"position": {
						"0.0": {
							"post": [0, 2.53, 0.58],
							"lerp_mode": "catmullrom"
						},
						"0.0833": {
							"post": [-0.00062, 2.64381, 0.44076],
							"lerp_mode": "catmullrom"
						},
						"0.6667": {
							"post": [0, 3.1, 0],
							"lerp_mode": "catmullrom"
						},
						"1.3333": {
							"post": [0, 2.58, -0.03],
							"lerp_mode": "catmullrom"
						},
						"2.0": {
							"post": [0, 2, 0],
							"lerp_mode": "catmullrom"
						},
						"2.125": {
							"post": [-0.00002, 2.018, 0.48081],
							"lerp_mode": "catmullrom"
						},
						"2.2083": {
							"post": [-0.00006, 2.14742, 0.70287],
							"lerp_mode": "catmullrom"
						},
						"2.4167": {
							"post": [-0.00028, 2.23061, 0.93971],
							"lerp_mode": "catmullrom"
						},
						"2.75": {
							"post": [-0.00062, 2.64381, 0.44076],
							"lerp_mode": "catmullrom"
						},
						"3.3333": {
							"post": [0, 3.1, 0],
							"lerp_mode": "catmullrom"
						},
						"4.6667": {
							"post": [0, 2, 0],
							"lerp_mode": "catmullrom"
						},
						"4.7917": {
							"post": [-0.00002, 2.018, 0.48081],
							"lerp_mode": "catmullrom"
						},
						"4.875": {
							"post": [-0.00006, 2.14742, 0.70287],
							"lerp_mode": "catmullrom"
						},
						"5.0833": {
							"post": [-0.00028, 2.23061, 0.93971],
							"lerp_mode": "catmullrom"
						},
						"5.4167": {
							"post": [-0.00062, 2.64381, 0.44076],
							"lerp_mode": "catmullrom"
						},
						"6.0": {
							"post": [0, 3.1, 0],
							"lerp_mode": "catmullrom"
						},
						"7.3333": {
							"post": [0, 2, 0],
							"lerp_mode": "catmullrom"
						},
						"7.4583": {
							"post": [-0.00002, 2.018, 0.48081],
							"lerp_mode": "catmullrom"
						},
						"7.5417": {
							"post": [-0.00006, 2.14742, 0.70287],
							"lerp_mode": "catmullrom"
						},
						"7.75": {
							"post": [-0.00028, 2.23061, 0.93971],
							"lerp_mode": "catmullrom"
						},
						"8.0": {
							"post": [0, 2.53, 0.58],
							"lerp_mode": "catmullrom"
						}
					}
				},
				"chest": {
					"rotation": ["0.5-math.sin(q.anim_time*90*6-20)*2", 0, "0+math.sin(q.anim_time*90*2-80)*2"]
				},
				"arm_left": {
					"rotation": [5.26604, "22.3188-math.sin(q.anim_time*90*4-60)*6+math.sin(q.anim_time*90*3+180)*10", 63.10353]
				},
				"arm_left2": {
					"rotation": [0, "75.894-math.sin(q.anim_time*90*4-150)*5", 0]
				},
				"hand_left": {
					"rotation": [0, -10, "60+math.sin(q.anim_time*90*4-210)*5"]
				},
				"claws_left": {
					"rotation": [0, 0, 32.5]
				},
				"claw_middle_left2": {
					"rotation": [0, 0, 20]
				},
				"claw_middle_left3": {
					"rotation": [0, 0, 15]
				},
				"claw_inner_left2": {
					"rotation": [0, 0, 47.5]
				},
				"claw_inner_left3": {
					"rotation": [0, 0, 25]
				},
				"claw_outer_left2": {
					"rotation": [0, 0, 25]
				},
				"claw_outer_left3": {
					"rotation": [0, 0, 17.5]
				},
				"wrist_left": {
					"rotation": [52.5, 0, 0]
				},
				"arm_fin_left": {
					"rotation": [0, 5, "10+math.sin(q.anim_time*90*10-150)*0.2"]
				},
				"arm_fin_left2": {
					"rotation": [0, "72.5-math.sin(q.anim_time*90*4-150)*5", 0]
				},
				"arm_fin_detail_left": {
					"rotation": [4.62934, -24.59477, "-11.0097+math.sin(q.anim_time*90*20-150)*0.4"]
				},
				"arm_right": {
					"rotation": [5.26604, "-22.3188+math.sin(q.anim_time*90*4-60)*6-math.sin(q.anim_time*90*3+180)*10", -63.10353]
				},
				"arm_fin_right": {
					"rotation": [0, -5, "-10+math.sin(q.anim_time*90*10-150)*0.2"]
				},
				"arm_fin_detail_right": {
					"rotation": [4.62934, 24.59477, "11.0097+math.sin(q.anim_time*90*20-150)*0.4"]
				},
				"arm_right2": {
					"rotation": [0, "-75.894-math.sin(q.anim_time*90*4-150)*5", 0]
				},
				"arm_fin_right2": {
					"rotation": [0, "-72.5-math.sin(q.anim_time*90*4-150)*5", 0]
				},
				"wrist_right": {
					"rotation": [65.10555, -3.9649, -3.04868]
				},
				"hand_right": {
					"rotation": [0, 0, "-67.5+math.sin(q.anim_time*90*4-150)*5"]
				},
				"claws_right": {
					"rotation": [0, 0, -17.5]
				},
				"claw_inner_right2": {
					"rotation": [1.91757, -4.61854, -52.57734]
				},
				"claw_inner_right3": {
					"rotation": [0, 0, -20]
				},
				"claw_middle_right": {
					"rotation": [0, 0, "math.sin(q.anim_time*90*3-280)*2"]
				},
				"claw_middle_right2": {
					"rotation": [0, 0, -27.5]
				},
				"claw_middle_right3": {
					"rotation": [0, 0, -32.5]
				},
				"claw_outer_right2": {
					"rotation": [0, 0, -27.5]
				},
				"claw_outer_right3": {
					"rotation": [0, 0, -25]
				},
				"neck2": {
					"rotation": ["5+math.sin(q.anim_time*90*3-190)*1", 0, 0]
				},
				"muzzle": {
					"rotation": [-12.5, 0, 0]
				},
				"muzzle2": {
					"rotation": [-10, 0, 0]
				},
				"jaw2": {
					"rotation": [-7.51021, -0.27878, -0.29383]
				},
				"tongue": {
					"rotation": [-20, 0, 0]
				},
				"tongue_bend": {
					"rotation": [25, 0, 0]
				},
				"leg_left2": {
					"rotation": {
						"0.0": {
							"post": [76.1, 0, 0],
							"lerp_mode": "catmullrom"
						},
						"0.4167": {
							"post": [72.5, 0, 0],
							"lerp_mode": "catmullrom"
						},
						"0.6667": {
							"post": [50, 0, 0],
							"lerp_mode": "catmullrom"
						},
						"1.3333": {
							"post": [24.481, -0.00504, -0.0444],
							"lerp_mode": "catmullrom"
						},
						"2.0": {
							"post": [30.40582, -0.00907, -0.08001],
							"lerp_mode": "catmullrom"
						},
						"2.6667": {
							"post": [72.5, 0, 0],
							"lerp_mode": "catmullrom"
						},
						"3.0833": {
							"post": [72.5, 0, 0],
							"lerp_mode": "catmullrom"
						},
						"3.3333": {
							"post": [50, 0, 0],
							"lerp_mode": "catmullrom"
						},
						"4.0": {
							"post": [24.481, -0.00504, -0.0444],
							"lerp_mode": "catmullrom"
						},
						"4.6667": {
							"post": [30.40582, -0.00907, -0.08001],
							"lerp_mode": "catmullrom"
						},
						"5.3333": {
							"post": [72.5, 0, 0],
							"lerp_mode": "catmullrom"
						},
						"5.75": {
							"post": [72.5, 0, 0],
							"lerp_mode": "catmullrom"
						},
						"6.0": {
							"post": [50, 0, 0],
							"lerp_mode": "catmullrom"
						},
						"6.6667": {
							"post": [24.481, -0.00504, -0.0444],
							"lerp_mode": "catmullrom"
						},
						"7.3333": {
							"post": [30.40582, -0.00907, -0.08001],
							"lerp_mode": "catmullrom"
						},
						"8.0": {
							"post": [76.1, 0, 0],
							"lerp_mode": "catmullrom"
						}
					}
				},
				"leg_right2": {
					"rotation": {
						"0.0": {
							"post": [24.481, 0.00504, 0.0444],
							"lerp_mode": "catmullrom"
						},
						"0.6667": {
							"post": [30.40582, 0.00907, 0.08001],
							"lerp_mode": "catmullrom"
						},
						"1.3333": {
							"post": [72.5, 0, 0],
							"lerp_mode": "catmullrom"
						},
						"1.75": {
							"post": [72.5, 0, 0],
							"lerp_mode": "catmullrom"
						},
						"2.0": {
							"post": [50, 0, 0],
							"lerp_mode": "catmullrom"
						},
						"2.6667": {
							"post": [24.481, 0.00504, 0.0444],
							"lerp_mode": "catmullrom"
						},
						"3.3333": {
							"post": [30.40582, 0.00907, 0.08001],
							"lerp_mode": "catmullrom"
						},
						"4.0": {
							"post": [72.5, 0, 0],
							"lerp_mode": "catmullrom"
						},
						"4.4167": {
							"post": [72.5, 0, 0],
							"lerp_mode": "catmullrom"
						},
						"4.6667": {
							"post": [50, 0, 0],
							"lerp_mode": "catmullrom"
						},
						"5.3333": {
							"post": [24.481, 0.00504, 0.0444],
							"lerp_mode": "catmullrom"
						},
						"6.0": {
							"post": [30.40582, 0.00907, 0.08001],
							"lerp_mode": "catmullrom"
						},
						"6.6667": {
							"post": [72.5, 0, 0],
							"lerp_mode": "catmullrom"
						},
						"7.0833": {
							"post": [72.5, 0, 0],
							"lerp_mode": "catmullrom"
						},
						"7.3333": {
							"post": [50, 0, 0],
							"lerp_mode": "catmullrom"
						},
						"8.0": {
							"post": [24.481, 0.00504, 0.0444],
							"lerp_mode": "catmullrom"
						}
					}
				},
				"claw_middle_left": {
					"rotation": [0, 0, "math.sin(q.anim_time*90*3-280)*2"]
				},
				"claw_outer_left": {
					"rotation": [0, 0, "math.sin(q.anim_time*90*3-280)*5"]
				},
				"claw_outer_right": {
					"rotation": [0, 0, "math.sin(q.anim_time*90*3-280)*5"]
				},
				"neck": {
					"rotation": ["12.5+math.sin(q.anim_time*90*3-160)*8", 0, "0+math.sin(q.anim_time*90*1.5-240)*9"]
				},
				"neck3": {
					"rotation": [0, 0, 0]
				},
				"head_fur_top2": {
					"rotation": ["-5-math.sin(q.anim_time*90*6+290)*2", 0, 0]
				},
				"head_fur_left2": {
					"rotation": [0, 0, "math.sin(q.anim_time*90*6+290)*2"]
				},
				"head_fur_right2": {
					"rotation": [0, 0, "-(math.sin(q.anim_time*90*6+290)*2)"]
				},
				"head_fur_top_left2": {
					"rotation": [0, 0, "12.5+math.sin(q.anim_time*90*6+290)*2"]
				},
				"head_fur_top_right2": {
					"rotation": [0, 0, "-12.5+math.sin(q.anim_time*90*6+290)*2"]
				},
				"head_fur_bottom_left2": {
					"rotation": [0, 0, "math.sin(q.anim_time*90*6+290)*2"]
				},
				"head_fur_bottom_right2": {
					"rotation": [0, 0, "-(math.sin(q.anim_time*90*6+290)*2)"]
				},
				"body": {
					"position": {
						"0.0": [0, 0, -3],
						"0.6667": [0, 0, -3],
						"0.7083": [0, -0.5, -3],
						"0.75": [0, 0.6, -3],
						"0.8333": [0, 0.1, -3],
						"0.9583": [0, 0.4, -3],
						"1.2083": [0, 0.2, -3],
						"1.6667": [0, 0, -3],
						"2.0": [0, 0, -3],
						"2.0417": [0, -0.5, -3],
						"2.0833": [0, 0.6, -3],
						"2.1667": [0, 0.1, -3],
						"2.2917": [0, 0.4, -3],
						"2.5417": [0, 0.2, -3],
						"3.0": [0, 0, -3],
						"3.3333": [0, 0, -3],
						"3.375": [0, -0.5, -3],
						"3.4167": [0, 0.6, -3],
						"3.5": [0, 0.1, -3],
						"3.625": [0, 0.4, -3],
						"3.875": [0, 0.2, -3],
						"4.3333": [0, 0, -3],
						"4.6667": [0, 0, -3],
						"4.7083": [0, -0.5, -3],
						"4.75": [0, 0.6, -3],
						"4.8333": [0, 0.1, -3],
						"4.9583": [0, 0.4, -3],
						"5.2083": [0, 0.2, -3],
						"5.6667": [0, 0, -3],
						"6.0": [0, 0, -3],
						"6.0417": [0, -0.5, -3],
						"6.0833": [0, 0.6, -3],
						"6.1667": [0, 0.1, -3],
						"6.2917": [0, 0.4, -3],
						"6.5417": [0, 0.2, -3],
						"7.0": [0, 0, -3],
						"7.3333": [0, 0, -3],
						"7.375": [0, -0.5, -3],
						"7.4167": [0, 0.6, -3],
						"7.5": [0, 0.1, -3],
						"7.625": [0, 0.4, -3],
						"7.875": [0, 0.2, -3],
						"8.0": [0, 0, -3]
					}
				},
				"toes_left": {
					"rotation": {
						"0.0": [1.74, 0, -0.15],
						"0.6667": [0, 0, 0],
						"1.5": {
							"pre": [0, 0, 0],
							"post": [0, 0, 0],
							"lerp_mode": "catmullrom"
						},
						"2.0": {
							"post": [-22.5311, -0.00321, 3.3883],
							"lerp_mode": "catmullrom"
						},
						"2.5833": {
							"post": [0, 0, 0],
							"lerp_mode": "catmullrom"
						},
						"3.3333": [0, 0, 0],
						"4.1667": {
							"pre": [0, 0, 0],
							"post": [0, 0, 0],
							"lerp_mode": "catmullrom"
						},
						"4.6667": {
							"post": [-22.03108, 0.00321, -3.3883],
							"lerp_mode": "catmullrom"
						},
						"5.25": {
							"post": [0, 0, 0],
							"lerp_mode": "catmullrom"
						},
						"6.0": [0, 0, 0],
						"6.8333": {
							"pre": [0, 0, 0],
							"post": [0, 0, 0],
							"lerp_mode": "catmullrom"
						},
						"7.3333": {
							"post": [-22.03108, 0.00321, -3.3883],
							"lerp_mode": "catmullrom"
						},
						"7.9167": {
							"post": [0, 0, 0],
							"lerp_mode": "catmullrom"
						},
						"8.0": {
							"post": [1.74, 0, -0.15],
							"lerp_mode": "catmullrom"
						}
					}
				},
				"toe_inner_left": {
					"rotation": {
						"0.0": [0, 0, 0],
						"0.4583": [0, 0, 0],
						"0.6667": [0, 12.5, 0],
						"2.0": [0, 0, 0],
						"3.125": [0, 0, 0],
						"3.3333": [0, 12.5, 0],
						"4.6667": [0, 0, 0],
						"5.7917": [0, 0, 0],
						"6.0": [0, 12.5, 0],
						"7.3333": [0, 0, 0],
						"8.0": [0, 0, 0]
					}
				},
				"toe_outer_left": {
					"rotation": {
						"0.0": [0, 0, 0],
						"0.4583": [0, 0, 0],
						"0.6667": [0, -12.5, 0],
						"2.0": [0, 0, 0],
						"3.125": [0, 0, 0],
						"3.3333": [0, -12.5, 0],
						"4.6667": [0, 0, 0],
						"5.7917": [0, 0, 0],
						"6.0": [0, -12.5, 0],
						"7.3333": [0, 0, 0],
						"8.0": [0, 0, 0]
					}
				},
				"toes_right": {
					"rotation": {
						"0.0": {
							"post": [2.53, 0, 0.22],
							"lerp_mode": "catmullrom"
						},
						"0.1667": {
							"post": [0, 0, 0],
							"lerp_mode": "catmullrom"
						},
						"0.6667": {
							"post": [-22.03108, 0.00321, -3.3883],
							"lerp_mode": "catmullrom"
						},
						"1.25": {
							"post": [0, 0, 0],
							"lerp_mode": "catmullrom"
						},
						"1.3333": {
							"post": [1.74, 0, 0.15],
							"lerp_mode": "catmullrom"
						},
						"2.0": [0, 0, 0],
						"2.8333": {
							"pre": [0, 0, 0],
							"post": [0, 0, 0],
							"lerp_mode": "catmullrom"
						},
						"3.3333": {
							"post": [-22.03108, 0.00321, -3.3883],
							"lerp_mode": "catmullrom"
						},
						"3.9167": {
							"post": [0, 0, 0],
							"lerp_mode": "catmullrom"
						},
						"4.6667": [0, 0, 0],
						"5.5": {
							"pre": [0, 0, 0],
							"post": [0, 0, 0],
							"lerp_mode": "catmullrom"
						},
						"6.0": {
							"post": [-22.03108, 0.00321, -3.3883],
							"lerp_mode": "catmullrom"
						},
						"6.5833": {
							"post": [0, 0, 0],
							"lerp_mode": "catmullrom"
						},
						"7.3333": [0, 0, 0],
						"8.0": [2.53, 0, 0.22]
					}
				},
				"toe_inner_right": {
					"rotation": {
						"0.0": [0, -6.25, 0],
						"0.6667": [0, 0, 0],
						"1.3333": [0, 0, 0],
						"1.7917": [0, 0, 0],
						"2.0": [0, -12.5, 0],
						"3.3333": [0, 0, 0],
						"4.4583": [0, 0, 0],
						"4.6667": [0, -12.5, 0],
						"6.0": [0, 0, 0],
						"7.125": [0, 0, 0],
						"7.3333": [0, -12.5, 0],
						"8.0": [0, -6.25, 0]
					}
				},
				"toe_outer_right": {
					"rotation": {
						"0.0": [0, 6.25, 0],
						"0.6667": [0, 0, 0],
						"1.3333": [0, 0, 0],
						"1.7917": [0, 0, 0],
						"2.0": [0, 12.5, 0],
						"3.3333": [0, 0, 0],
						"4.4583": [0, 0, 0],
						"4.6667": [0, 12.5, 0],
						"6.0": [0, 0, 0],
						"7.125": [0, 0, 0],
						"7.3333": [0, 12.5, 0],
						"8.0": [0, 6.25, 0]
					}
				},
				"arms": {
					"position": [0, "math.sin(q.anim_time*90*3+220)*1", 0]
				},
				"tail_bottom2": {
					"rotation": [25, 0, 0]
				},
				"tail5": {
					"rotation": ["30-math.cos(q.anim_time*90*3-190)*1", "math.sin(q.anim_time*90*1.5-190)*-8", "math.sin(q.anim_time*90*1.5)*-6"]
				},
				"head_rotation": {
					"rotation": [
						"7.5+math.sin(q.anim_time*90*1.5-110)*2+math.cos(q.anim_time*90*3-230)*6",
						"math.cos(q.anim_time*90*1.5-60)*-8",
						"math.cos(q.anim_time*90*1.5-120)*13"
					],
					"position": [0, 1.49993, -0.01398]
				},
				"jaw": {
					"rotation": ["math.sin(q.anim_time*90*1.5-90)*-3", 0, 0]
				},
				"fin_right": {
					"rotation": ["-66.2835+math.sin(q.anim_time*90*2.5-50)*5", "18.8101+math.sin(q.anim_time*90*2.5-90)*10", -52.87568]
				},
				"fin_right2": {
					"rotation": [5.34893, "0.9673+math.sin(q.anim_time*90*2.5-130)*17", -5.33692],
					"position": [1, 0, 0]
				},
				"fin_right3": {
					"rotation": [0, "math.sin(q.anim_time*90*2.5-190)*13", 0]
				},
				"fin_left": {
					"rotation": ["-66.2835+math.sin(q.anim_time*90*2.5-50)*5", "-18.8101+math.sin(q.anim_time*90*2.5-90)*-10", 52.87568]
				},
				"fin_left2": {
					"rotation": [5.34893, "-0.9673+math.sin(q.anim_time*90*2.5-130)*-17", 5.33692],
					"position": [-1, 0, 0]
				},
				"fin_left3": {
					"rotation": [0, "-(math.sin(q.anim_time*90*2.5-190)*13)", 0]
				}
			}
		},
		"animation.dracovish.watersleep": {
			"loop": true,
			"bones": {
				"torso": {
					"rotation": [-25.0045, 0.26, -0.0285],
					"position": [0, "math.sin(q.anim_time*90*1)*0.2", 0]
				},
				"tail3": {
					"rotation": [27.5, "math.sin(q.anim_time*90*0.5-80)*5", 0]
				},
				"tail4": {
					"rotation": [39.47953, "-0.4162+math.sin(q.anim_time*90*0.5-120)*6", -1.39742]
				},
				"tail6": {
					"rotation": [32.5, 0, 0]
				},
				"leg_left": {
					"rotation": [-100.245, -9.69037, "16.4141+math.sin(q.anim_time*90*1)*0.6"],
					"position": [0, -1.3, 0]
				},
				"foot_left": {
					"rotation": ["-3.312+math.sin(q.anim_time*90*1)*0.5", -5.69972, -7.03694],
					"position": [0, 2, 0]
				},
				"leg_right": {
					"rotation": [-100.245, 9.69037, "-16.4141+math.sin(q.anim_time*90*1)*0.6"],
					"position": [0, -1.3, 0]
				},
				"foot_right": {
					"rotation": ["-3.312+math.sin(q.anim_time*90*1)*0.5", 5.69972, 7.03694],
					"position": [0, 2, 0]
				},
				"tail": {
					"rotation": [24.99993, "0.0315+math.sin(q.anim_time*90*0.5)*4", "0.0131+math.sin(q.anim_time*90*0.5)*4"]
				},
				"tail2": {
					"rotation": [25, "math.sin(q.anim_time*90*0.5-40)*4", 0]
				},
				"tail5": {
					"rotation": [21.31934, "-1.495+math.sin(q.anim_time*90*0.5)*6", -1.11716]
				},
				"tail_scale_left": {
					"rotation": [10, 0, 0]
				},
				"tail_scale_right": {
					"rotation": [10, 0, 0]
				},
				"tail_bottom2": {
					"rotation": [27.5, 0, 0]
				},
				"tail_scale_left3": {
					"rotation": [7.5, 0, 0]
				},
				"tail_scale_right3": {
					"rotation": [7.5, 0, 0]
				},
				"leg_left2": {
					"rotation": [40.8134, -2.97953, 4.83286]
				},
				"leg_right2": {
					"rotation": [40.8134, 2.97953, -4.83286]
				},
				"body": {
					"position": [0, -10.2, 5.5]
				},
				"head_rotation": {
					"rotation": ["-22.5+math.sin(q.anim_time*90*1.5-110)*1", "math.sin(q.anim_time*90*0.5-20)*-5", "0+math.sin(q.anim_time*90*0.5-120)*12"]
				},
				"pupil_left": {
					"position": [-0.1, 0, 0]
				},
				"inner_eyelid_left": {
					"position": [0.1, 0, 0]
				},
				"pupil_right": {
					"position": [0.1, 0, 0]
				},
				"inner_eyelid_right": {
					"position": [-0.1, 0, 0]
				},
				"jaw": {
					"rotation": ["15+math.sin(q.anim_time*90*1.5-90)*-3", 0, 0]
				},
				"fin_right": {
					"rotation": ["-25.3108+math.sin(q.anim_time*90*0.75-50)*5", "7.6991+math.sin(q.anim_time*90*0.75-90)*10", -43.11593]
				},
				"fin_right2": {
					"rotation": [2, "math.sin(q.anim_time*90*0.75-130)*17", 10],
					"position": [0.5, 0, 0]
				},
				"fin_right3": {
					"rotation": [0, "math.sin(q.anim_time*90*0.75-190)*13", 0]
				},
				"fin_left": {
					"rotation": ["-25.3108+math.sin(q.anim_time*90*0.75-50)*5", "-7.6991+math.sin(q.anim_time*90*0.75-90)*10", 43.11593]
				},
				"fin_left2": {
					"rotation": [2, "math.sin(q.anim_time*90*0.75-130)*17", -10],
					"position": [-0.5, 0, 0]
				},
				"fin_left3": {
					"rotation": [0, "math.sin(q.anim_time*90*0.75-190)*13", 0]
				}
			}
		},
		"animation.dracovish.water_cry": {
			"animation_length": 4.625,
			"bones": {
				"head_rotation": {
					"rotation": {
						"0.0": {
							"post": [0, 0, 0],
							"lerp_mode": "catmullrom"
						},
						"0.4583": {
							"post": [-10.57, 0, 0],
							"lerp_mode": "catmullrom"
						},
						"0.8333": {
							"post": [-8.81, 0, 0],
							"lerp_mode": "catmullrom"
						},
						"1.0833": {
							"post": [10.5, 0, 0],
							"lerp_mode": "catmullrom"
						},
						"1.9167": {
							"post": [11.5, 0, 0],
							"lerp_mode": "catmullrom"
						},
						"2.5417": {
							"post": [0, 0, 0],
							"lerp_mode": "catmullrom"
						},
						"3.2917": {
							"post": [0, 0, 0],
							"lerp_mode": "catmullrom"
						}
					}
				},
				"jaw": {
					"rotation": {
						"0.0": {
							"post": [0, 0, 0],
							"lerp_mode": "catmullrom"
						},
						"0.7083": {
							"post": [17, 0, 0],
							"lerp_mode": "catmullrom"
						},
						"1.1667": {
							"post": [-27.05, 0, 0],
							"lerp_mode": "catmullrom"
						},
						"1.25": {
							"post": [-26.37, 0, 0],
							"lerp_mode": "catmullrom"
						},
						"1.3333": {
							"post": [-29.46, 0, 0],
							"lerp_mode": "catmullrom"
						},
						"1.4167": {
							"post": [-26.49, 0, 0],
							"lerp_mode": "catmullrom"
						},
						"1.5417": {
							"post": [-29.47, 0, 0],
							"lerp_mode": "catmullrom"
						},
						"1.6667": {
							"post": [-27.45, 0, 0],
							"lerp_mode": "catmullrom"
						},
						"1.7917": {
							"post": [-28.39, 0, 0],
							"lerp_mode": "catmullrom"
						},
						"1.9583": {
							"post": [-27.24, 0, 0],
							"lerp_mode": "catmullrom"
						},
						"2.3333": {
							"post": [-28.55, 0, 0],
							"lerp_mode": "catmullrom"
						},
						"2.7083": {
							"post": [-15, 0, 0],
							"lerp_mode": "catmullrom"
						},
						"3.0417": {
							"post": [10, 0, 0],
							"lerp_mode": "catmullrom"
						},
						"3.5417": {
							"post": [10, 0, 0],
							"lerp_mode": "catmullrom"
						},
						"3.9167": {
							"post": [3, 0, 0],
							"lerp_mode": "catmullrom"
						},
						"4.375": {
							"post": [0, 0, 0],
							"lerp_mode": "catmullrom"
						}
					}
				},
				"fin_right": {
					"rotation": {
						"0.0": {
							"post": [0, 0, 0],
							"lerp_mode": "catmullrom"
						},
						"0.75": {
							"post": [0, 24.85, -7.5],
							"lerp_mode": "catmullrom"
						},
						"1.1667": {
							"post": [0, -17.65, -16.5],
							"lerp_mode": "catmullrom"
						},
						"1.75": {
							"post": [0, -21.67, -20.49],
							"lerp_mode": "catmullrom"
						},
						"2.375": {
							"post": [0, -15.65, -16.5],
							"lerp_mode": "catmullrom"
						},
						"2.9167": {
							"post": [0, 3, 0],
							"lerp_mode": "catmullrom"
						},
						"3.9583": {
							"post": [0, 0, 0],
							"lerp_mode": "catmullrom"
						}
					}
				},
				"fin_right2": {
					"rotation": {
						"0.0": {
							"post": [0, 0, 0],
							"lerp_mode": "catmullrom"
						},
						"0.7083": {
							"post": [0, 31.5, 0],
							"lerp_mode": "catmullrom"
						},
						"1.5417": {
							"post": [0, -20, 0],
							"lerp_mode": "catmullrom"
						},
						"2.3333": {
							"post": [0, -20, 0],
							"lerp_mode": "catmullrom"
						},
						"3.0": {
							"post": [0, 0, 0],
							"lerp_mode": "catmullrom"
						},
						"3.9167": {
							"post": [0, 0, 0],
							"lerp_mode": "catmullrom"
						}
					}
				},
				"fin_right3": {
					"rotation": {
						"0.0": {
							"post": [0, 0, 0],
							"lerp_mode": "catmullrom"
						},
						"0.2917": {
							"post": [0, -3.5, 0],
							"lerp_mode": "catmullrom"
						},
						"1.0833": {
							"post": [0, 28.5, 0],
							"lerp_mode": "catmullrom"
						},
						"2.1667": {
							"post": [0, -11, 0],
							"lerp_mode": "catmullrom"
						},
						"2.6667": {
							"post": [0, -18, 0],
							"lerp_mode": "catmullrom"
						},
						"3.1667": {
							"post": [0, 6, 0],
							"lerp_mode": "catmullrom"
						},
						"3.7083": {
							"post": [0, 1, 0],
							"lerp_mode": "catmullrom"
						},
						"4.4167": {
							"post": [0, 0, 0],
							"lerp_mode": "catmullrom"
						}
					}
				},
				"fin_left": {
					"rotation": {
						"0.0": {
							"post": [0, 0, 0],
							"lerp_mode": "catmullrom"
						},
						"0.75": {
							"post": [0, -24.85, 7.5],
							"lerp_mode": "catmullrom"
						},
						"1.1667": {
							"post": [0, 17.65, 16.5],
							"lerp_mode": "catmullrom"
						},
						"1.75": {
							"post": [0, 21.67, 20.49],
							"lerp_mode": "catmullrom"
						},
						"2.375": {
							"post": [0, 15.65, 16.5],
							"lerp_mode": "catmullrom"
						},
						"2.9167": {
							"post": [0, -3, 0],
							"lerp_mode": "catmullrom"
						},
						"3.9583": {
							"post": [0, 0, 0],
							"lerp_mode": "catmullrom"
						}
					}
				},
				"fin_left2": {
					"rotation": {
						"0.0": {
							"post": [0, 0, 0],
							"lerp_mode": "catmullrom"
						},
						"0.7083": {
							"post": [0, -31.5, 0],
							"lerp_mode": "catmullrom"
						},
						"1.5417": {
							"post": [0, 20, 0],
							"lerp_mode": "catmullrom"
						},
						"2.3333": {
							"post": [0, 20, 0],
							"lerp_mode": "catmullrom"
						},
						"3.0": {
							"post": [0, 0, 0],
							"lerp_mode": "catmullrom"
						},
						"3.9167": {
							"post": [0, 0, 0],
							"lerp_mode": "catmullrom"
						}
					}
				},
				"fin_left3": {
					"rotation": {
						"0.0": {
							"post": [0, 0, 0],
							"lerp_mode": "catmullrom"
						},
						"0.2917": {
							"post": [0, 3.5, 0],
							"lerp_mode": "catmullrom"
						},
						"1.0833": {
							"post": [0, -28.5, 0],
							"lerp_mode": "catmullrom"
						},
						"2.1667": {
							"post": [0, 11, 0],
							"lerp_mode": "catmullrom"
						},
						"2.6667": {
							"post": [0, 18, 0],
							"lerp_mode": "catmullrom"
						},
						"3.1667": {
							"post": [0, -6, 0],
							"lerp_mode": "catmullrom"
						},
						"3.7083": {
							"post": [0, -1, 0],
							"lerp_mode": "catmullrom"
						},
						"4.4167": {
							"post": [0, 0, 0],
							"lerp_mode": "catmullrom"
						}
					}
				},
				"tail2": {
					"rotation": {
						"0.0": {
							"post": [0, 0, 0],
							"lerp_mode": "catmullrom"
						},
						"0.625": {
							"post": [2, 0, 0],
							"lerp_mode": "catmullrom"
						},
						"1.2917": {
							"post": [-3, 0, 0],
							"lerp_mode": "catmullrom"
						},
						"2.5": {
							"post": [-3, 0, 0],
							"lerp_mode": "catmullrom"
						},
						"3.5833": {
							"post": [0, 0, 0],
							"lerp_mode": "catmullrom"
						}
					}
				},
				"tail3": {
					"rotation": {
						"0.0": {
							"post": [0, 0, 0],
							"lerp_mode": "catmullrom"
						},
						"0.6667": {
							"post": [3, 0, 0],
							"lerp_mode": "catmullrom"
						},
						"1.375": {
							"post": [-8.75, 0, 0],
							"lerp_mode": "catmullrom"
						},
						"2.4167": {
							"post": [-8.75, 0, 0],
							"lerp_mode": "catmullrom"
						},
						"3.4583": {
							"post": [0, 0, 0],
							"lerp_mode": "catmullrom"
						}
					},
					"position": {
						"0.0": [0, 0, 0],
						"0.6667": [0, 0, 0],
						"1.125": [0, "math.sin(q.anim_time*90*30)*0.1", 0],
						"3.2917": [0, 0, 0]
					}
				},
				"tail4": {
					"rotation": {
						"0.0": {
							"post": [0, 0, 0],
							"lerp_mode": "catmullrom"
						},
						"0.5833": {
							"post": [3, 0, 0],
							"lerp_mode": "catmullrom"
						},
						"1.7083": {
							"post": [-6, 0, 0],
							"lerp_mode": "catmullrom"
						},
						"2.5417": {
							"post": [-10, 0, 0],
							"lerp_mode": "catmullrom"
						},
						"3.2917": {
							"post": [0, 0, 0],
							"lerp_mode": "catmullrom"
						},
						"4.4583": {
							"post": [0, 0, 0],
							"lerp_mode": "catmullrom"
						}
					},
					"position": {
						"0.0": [0, 0, 0],
						"0.6667": [0, 0, 0],
						"1.125": [0, "math.sin(q.anim_time*90*30+30)*0.05", 0],
						"3.2917": [0, 0, 0]
					}
				},
				"tail5": {
					"rotation": {
						"0.0": {
							"post": [0, 0, 0],
							"lerp_mode": "catmullrom"
						},
						"0.6667": {
							"post": [11, 0, 0],
							"lerp_mode": "catmullrom"
						},
						"1.5833": {
							"post": [-4, 0, 0],
							"lerp_mode": "catmullrom"
						},
						"2.6667": {
							"post": [-8, 0, 0],
							"lerp_mode": "catmullrom"
						},
						"3.1667": {
							"post": [0, 0, 0],
							"lerp_mode": "catmullrom"
						},
						"4.375": {
							"post": [0, 0, 0],
							"lerp_mode": "catmullrom"
						}
					},
					"position": {
						"0.0": [0, 0, 0],
						"0.6667": [0, 0, 0],
						"1.125": [0, "math.sin(q.anim_time*90*30-60)*0.1", 0],
						"3.2917": [0, 0, 0]
					}
				}
			},
			"sound_effects": {
				"1.0833": {
					"effect": "dracovish_cry"
				}
			}
		},
		"animation.dracovish.blink": {
			"animation_length": 0.16667,
			"bones": {
				"pupil_left": {
					"position": {
						"0.0": [-0.1, 0, 0],
						"0.125": [-0.1, 0, 0],
						"0.1667": {"pre": [-0.1, 0, 0], "post": [0, 0, 0]}
					}
				},
				"inner_eyelid_left": {
					"position": {
						"0.0": [0.1, 0, 0],
						"0.125": [0.1, 0, 0],
						"0.1667": {"pre": [0.1, 0, 0], "post": [0, 0, 0]}
					}
				},
				"pupil_right": {
					"position": {
						"0.0": [0.1, 0, 0],
						"0.125": [0.1, 0, 0],
						"0.1667": {"pre": [0.1, 0, 0], "post": [0, 0, 0]}
					}
				},
				"inner_eyelid_right": {
					"position": {
						"0.0": [-0.1, 0, 0],
						"0.125": [-0.1, 0, 0],
						"0.1667": {"pre": [-0.1, 0, 0], "post": [0, 0, 0]}
					}
				}
			}
		}
	}
}