{
  "implemented": true,
  "name": "Wishiwashi",
  "nationalPokedexNumber": 746,
  "primaryType": "water",
  "abilities": [
    "schooling"
  ],
  "drops": {
    "amount": 2,
    "entries": [
      {
        "item": "minecraft:cod"
      },
      {
        "item": "minecraft:bone_meal",
        "percentage": 5.0
      }
    ]
  },
  "baseStats": {
    "hp": 45,
    "attack": 20,
    "defence": 20,
    "special_attack": 25,
    "special_defence": 25,
    "speed": 40
  },
  "features": [
    "schooling"
  ],
  "catchRate": 60,
  "maleRatio": 0.5,
  "shoulderMountable": false,
  "forms": [
    {
      "name": "School",
      "primaryType": "water",
      "abilities": [
        "schooling"
      ],
      "baseStats": {
        "hp": 45,
        "attack": 140,
        "defence": 130,
        "special_attack": 140,
        "special_defence": 135,
        "speed": 30
      },
      "catchRate": 60,
      "maleRatio": 0.5,
      "baseExperienceYield": 61,
      "baseFriendship": 50,
      "evYield": {
        "hp": 1,
        "attack": 0,
        "defence": 0,
        "special_attack": 0,
        "special_defence": 0,
        "speed": 0
      },
      "experienceGroup": "fast",
      "eggCycles": 15,
      "eggGroups": [
        "water_2"
      ],
      "behaviour": {
        "moving": {
          "walk": {
            "avoidsLand": true
          },
          "swim": {
            "canSwimInWater": true,
            "canBreatheUnderwater": true
          }
        }
      },
      "labels": [
        "gen7"
      ],
      "aspects": [
        "schooling"
      ],
      "height": 82,
      "weight": 786,
      "baseScale": 2,
      "hitbox": {
        "width": 3.0,
        "height": 3.0,
        "fixed": false
      },
      "cannotDynamax": false,
      "battleOnly": true
    }
  ],
  "baseExperienceYield": 61,
  "baseFriendship": 50,
  "evYield": {
    "hp": 1,
    "attack": 0,
    "defence": 0,
    "special_attack": 0,
    "special_defence": 0,
    "speed": 0
  },
  "experienceGroup": "fast",
  "eggCycles": 15,
  "eggGroups": [
    "water_2"
  ],
  "behaviour": {
    "moving": {
      "canLook": false,
      "walk": {
        "avoidsLand": true
      },
      "swim": {
        "swimSpeed": 0.1,
        "canSwimInWater": true,
        "canBreatheUnderwater": true
      }
    }
  },
  "moves": [
    "1:growl",
    "1:watergun",
    "4:helpinghand",
    "8:beatup",
    "9:feintattack",
    "12:brine",
    "16:tearfullook",
    "20:dive",
    "24:soak",
    "25:takedown",
    "28:uproar",
    "32:aquatail",
    "36:aquaring",
    "40:endeavor",
    "44:hydropump",
    "48:doubleedge",
    "egg:mist",
    "egg:muddywater",
    "egg:takedown",
    "egg:waterpulse",
    "egg:watersport",
    "egg:whirlpool",
    "tm:attract",
    "tm:beatup",
    "tm:brine",
    "tm:bulldoze",
    "tm:confide",
    "tm:dive",
    "tm:doubleteam",
    "tm:earthquake",
    "tm:endure",
    "tm:facade",
    "tm:frustration",
    "tm:hail",
    "tm:helpinghand",
    "tm:hiddenpower",
    "tm:hydropump",
    "tm:icebeam",
    "tm:irontail",
    "tm:liquidation",
    "tm:muddywater",
    "tm:mudshot",
    "tm:protect",
    "tm:raindance",
    "tm:rest",
    "tm:return",
    "tm:round",
    "tm:scald",
    "tm:sleeptalk",
    "tm:snore",
    "tm:substitute",
    "tm:surf",
    "tm:swagger",
    "tm:toxic",
    "tm:uproar",
    "tm:uturn",
    "tm:waterfall",
    "tm:whirlpool",
    "tutor:aquatail",
    "tutor:covet",
    "tutor:endeavor",
    "tutor:flipturn",
    "tutor:helpinghand",
    "tutor:irontail",
    "tutor:scaleshot",
    "tutor:snore",
    "tutor:waterpulse"
  ],
  "labels": [
    "gen7"
  ],
  "pokedex": [
    "cobblemon.species.wishiwashi.desc"
  ],
  "height": 2,
  "weight": 3,
  "evolutions": [],
  "baseScale": 0.4,
  "hitbox": {
    "width": 0.6,
    "height": 0.6,
    "fixed": false
  },
  "aspects": [],
  "cannotDynamax": false
}