{
	"format_version": "1.8.0",
	"animations": {
		"animation.arctovish.ground_idle": {
			"loop": true,
			"animation_length": 16,
			"bones": {
				"body": {
					"position": [0, "-13.8+math.sin(q.anim_time*90*1+90)*0.2", 0]
				},
				"torso": {
					"rotation": ["-7.5+math.sin(q.anim_time*90*1)*1", 0, 0]
				},
				"fin_right": {
					"rotation": [-14, "18+math.sin(q.anim_time*90*1.5-150+90)*10", -25]
				},
				"fin_right2": {
					"rotation": [0, "10+math.sin(q.anim_time*90*1.5-210+90)*14", 0],
					"position": [1, 0, 0]
				},
				"fin_right3": {
					"rotation": [0, "13+math.sin(q.anim_time*90*1.5-230+90)*18", 0]
				},
				"fin_left": {
					"rotation": [-14, "-18+math.sin(q.anim_time*90*1.5-150)*10", 25]
				},
				"fin_left2": {
					"rotation": [0, "-10+math.sin(q.anim_time*90*1.5-210)*14", 0],
					"position": [-1, 0, 0]
				},
				"fin_left3": {
					"rotation": [0, "-13+math.sin(q.anim_time*90*1.5-230)*18", 0]
				},
				"tail": {
					"rotation": ["5+math.sin(q.anim_time*90*1-100)*2", 0, "math.sin(q.anim_time*90*0.5-110)*-4"],
					"position": [0, 1.5, 0]
				},
				"tail2": {
					"rotation": ["7.5+math.sin(q.anim_time*90*1-130)*5", "math.sin(q.anim_time*90*0.5-150)*7", 0]
				},
				"tail3": {
					"rotation": ["7.5+math.sin(q.anim_time*90*1-160)*6", "math.sin(q.anim_time*90*0.5-190)*10", 0]
				},
				"tail4": {
					"rotation": ["5+math.sin(q.anim_time*90*1-190)*10", "math.sin(q.anim_time*90*0.5-210)*13", 0]
				},
				"tail5": {
					"rotation": ["10+math.sin(q.anim_time*90*1-210)*14", "math.sin(q.anim_time*90*0.5-240)*17", 0]
				},
				"leg_left": {
					"rotation": ["28+math.sin(q.anim_time*90*1+90)*-2", -55, "-70+math.sin(q.anim_time*90*1+90)*2"]
				},
				"leg_left2_rot": {
					"rotation": [0, 0, "-14+math.sin(q.anim_time*90*1+90)*-1"],
					"position": [0, -1, 0]
				},
				"leg_right": {
					"rotation": ["28+math.sin(q.anim_time*90*1+90)*-2", 55, "70+math.sin(q.anim_time*90*1+90)*-2"]
				},
				"leg_right2_rot": {
					"rotation": [0, 0, "14+math.sin(q.anim_time*90*1+90)*1"],
					"position": [0, -1, 0]
				},
				"chest": {
					"rotation": ["-1+math.sin(q.anim_time*90*1-50)*-1", 0, 0]
				},
				"head_rotation": {
					"rotation": ["math.sin(q.anim_time*90*1.5-110)*1", 0, 0]
				},
				"jaw": {
					"rotation": ["math.sin(q.anim_time*90*1.5-90)*-3", 0, 0]
				},
				"tail_fin": {
					"rotation": ["2.5+math.sin(q.anim_time*90*1-170)*4", "math.sin(q.anim_time*90*0.5-200)*2", "math.sin(q.anim_time*90*0.5-200)*4"]
				}
			}
		},
		"animation.arctovish.ground_walk": {
			"loop": true,
			"animation_length": 8,
			"bones": {
				"body": {
					"position": [0, "-13.8+math.sin(q.anim_time*90*1+90)*0.2", "math.sin(q.anim_time*90*1-150)*-6"]
				},
				"torso": {
					"rotation": ["-7.5+math.sin(q.anim_time*90*1)*1+math.cos(q.anim_time*90*1-150)*2", 0, 0]
				},
				"fin_right": {
					"rotation": [-46.5, "18+math.sin(q.anim_time*90*1.5-150)*-10", "-25+math.sin(q.anim_time*90*1.5-40)*-5"]
				},
				"fin_right2": {
					"rotation": [0, "10+math.sin(q.anim_time*90*1.5-210)*-14", 0],
					"position": [1, 0, 0]
				},
				"fin_right3": {
					"rotation": [0, "13+math.sin(q.anim_time*90*1.5-230+90)*18", 0]
				},
				"fin_left": {
					"rotation": [-46.5, "-18+math.sin(q.anim_time*90*1.5-150)*10", "25+math.sin(q.anim_time*90*1.5-40)*5"]
				},
				"fin_left2": {
					"rotation": [0, "-10+math.sin(q.anim_time*90*1.5-210)*14", 0],
					"position": [-1, 0, 0]
				},
				"fin_left3": {
					"rotation": [0, "-13+math.sin(q.anim_time*90*1.5-230)*18", 0]
				},
				"tail": {
					"rotation": ["5+math.sin(q.anim_time*90*1-100)*-2", 0, "math.sin(q.anim_time*90*0.5-110)*-4"],
					"position": [0, 1.5, 0]
				},
				"tail2": {
					"rotation": ["7.5+math.sin(q.anim_time*90*1-130)*-5", "math.sin(q.anim_time*90*0.5-150)*7", 0]
				},
				"tail3": {
					"rotation": ["7.5+math.sin(q.anim_time*90*1-160)*-6", "math.sin(q.anim_time*90*0.5-190)*10", 0]
				},
				"tail4": {
					"rotation": ["5+math.sin(q.anim_time*90*1-190)*-10", "math.sin(q.anim_time*90*0.5-210)*13", 0]
				},
				"tail5": {
					"rotation": ["10+math.sin(q.anim_time*90*1-210)*-14", "math.sin(q.anim_time*90*0.5-240)*17", 0]
				},
				"leg_left": {
					"rotation": ["20+math.cos(q.anim_time*90*1)*-35", "-45+math.cos(q.anim_time*90*1-30)*5", "-80+math.cos(q.anim_time*90*1-250)*-18"],
					"position": [0, "math.sin(q.anim_time*90*1-90)*-1", "math.sin(q.anim_time*90*1-90)*1"]
				},
				"leg_left2_rot": {
					"rotation": [0, 0, -14],
					"position": [0, -1, 0]
				},
				"leg_right": {
					"rotation": ["20+math.cos(q.anim_time*90*1)*-35", "45+math.cos(q.anim_time*90*1-30)*-5", "80+math.cos(q.anim_time*90*1-250)*18"],
					"position": [0, "math.sin(q.anim_time*90*1-90)*-1", "math.sin(q.anim_time*90*1-90)*1"]
				},
				"leg_right2_rot": {
					"rotation": [0, 0, 14],
					"position": [0, -1, 0]
				},
				"chest": {
					"rotation": ["-1+math.sin(q.anim_time*90*1-50)*-1", 0, 0]
				},
				"head_rotation": {
					"rotation": ["-2.5+math.sin(q.anim_time*90*1.5-110)*1", 0, 0],
					"position": [0, 1.49993, -0.01398]
				},
				"jaw": {
					"rotation": ["math.sin(q.anim_time*90*1.5-90)*-3", 0, 0]
				},
				"tail_fin": {
					"rotation": ["2.5+math.sin(q.anim_time*90*1-170)*-4", "math.sin(q.anim_time*90*0.5-200)*2", "math.sin(q.anim_time*90*0.5-200)*4"]
				},
				"leg_right2": {
					"rotation": {
						"0.0": {
							"post": [-3, 2.5, -3.5],
							"lerp_mode": "catmullrom"
						},
						"0.5": {
							"post": [-2.68, 4.79, 4.92],
							"lerp_mode": "catmullrom"
						},
						"0.9167": {
							"post": [0, 6, 2.5],
							"lerp_mode": "catmullrom"
						},
						"1.5833": {
							"post": [20, 1, -13.5],
							"lerp_mode": "catmullrom"
						},
						"2.2917": {
							"post": [18.61, 0.92, -16.93],
							"lerp_mode": "catmullrom"
						},
						"3.2917": {
							"post": [10.3, 1.58, -21.16],
							"lerp_mode": "catmullrom"
						},
						"4.0": {
							"post": [-3, 2.5, -3.5],
							"lerp_mode": "catmullrom"
						},
						"4.5": {
							"post": [-2.68, 4.79, 4.92],
							"lerp_mode": "catmullrom"
						},
						"4.9167": {
							"post": [0, 6, 2.5],
							"lerp_mode": "catmullrom"
						},
						"5.5833": {
							"post": [20, 1, -13.5],
							"lerp_mode": "catmullrom"
						},
						"6.2917": {
							"post": [18.61, 0.92, -16.93],
							"lerp_mode": "catmullrom"
						},
						"7.2917": {
							"post": [10.3, 1.58, -21.16],
							"lerp_mode": "catmullrom"
						},
						"8.0": {
							"post": [-3, 2.5, -3.5],
							"lerp_mode": "catmullrom"
						},
						"8.5": {
							"post": [-2.68, 4.79, 4.92],
							"lerp_mode": "catmullrom"
						}
					}
				},
				"leg_right3": {
					"rotation": {
						"0.0": {
							"post": [-2.5, 0, 0],
							"lerp_mode": "catmullrom"
						},
						"1.0417": {
							"post": [-8.72, 0, 0.49],
							"lerp_mode": "catmullrom"
						},
						"2.0": {
							"post": [5, 0, 0],
							"lerp_mode": "catmullrom"
						},
						"2.875": {
							"post": [7.5, 0, -7.5],
							"lerp_mode": "catmullrom"
						},
						"4.0": {
							"post": [-2.5, 0, 0],
							"lerp_mode": "catmullrom"
						},
						"5.0417": {
							"post": [-8.72, 0, 0.49],
							"lerp_mode": "catmullrom"
						},
						"6.0": {
							"post": [5, 0, 0],
							"lerp_mode": "catmullrom"
						},
						"6.875": {
							"post": [7.5, 0, -7.5],
							"lerp_mode": "catmullrom"
						},
						"8.0": {
							"post": [-2.5, 0, 0],
							"lerp_mode": "catmullrom"
						},
						"9.0417": {
							"post": [-8.72, 0, 0.49],
							"lerp_mode": "catmullrom"
						}
					}
				},
				"leg_left2": {
					"rotation": {
						"0.0": {
							"post": [-3, -2.5, 3.5],
							"lerp_mode": "catmullrom"
						},
						"0.5": {
							"post": [-2.68, -4.79, -4.92],
							"lerp_mode": "catmullrom"
						},
						"0.9167": {
							"post": [0, -6, -2.5],
							"lerp_mode": "catmullrom"
						},
						"1.5833": {
							"post": [20, -1, 13.5],
							"lerp_mode": "catmullrom"
						},
						"2.2917": {
							"post": [18.61, -0.92, 16.93],
							"lerp_mode": "catmullrom"
						},
						"3.2917": {
							"post": [10.3, -1.58, 21.16],
							"lerp_mode": "catmullrom"
						},
						"4.0": {
							"post": [-3, -2.5, 3.5],
							"lerp_mode": "catmullrom"
						},
						"4.5": {
							"post": [-2.68, -4.79, -4.92],
							"lerp_mode": "catmullrom"
						},
						"4.9167": {
							"post": [0, -6, -2.5],
							"lerp_mode": "catmullrom"
						},
						"5.5833": {
							"post": [20, -1, 13.5],
							"lerp_mode": "catmullrom"
						},
						"6.2917": {
							"post": [18.61, -0.92, 16.93],
							"lerp_mode": "catmullrom"
						},
						"7.2917": {
							"post": [10.3, -1.58, 21.16],
							"lerp_mode": "catmullrom"
						},
						"8.0": {
							"post": [-3, -2.5, 3.5],
							"lerp_mode": "catmullrom"
						},
						"8.5": {
							"post": [-2.68, -4.79, -4.92],
							"lerp_mode": "catmullrom"
						}
					}
				},
				"leg_left3": {
					"rotation": {
						"0.0": {
							"post": [-2.5, 0, 0],
							"lerp_mode": "catmullrom"
						},
						"1.0417": {
							"post": [-8.72, 0, -0.49],
							"lerp_mode": "catmullrom"
						},
						"2.0": {
							"post": [5, 0, 0],
							"lerp_mode": "catmullrom"
						},
						"2.875": {
							"post": [7.5, 0, 7.5],
							"lerp_mode": "catmullrom"
						},
						"4.0": {
							"post": [-2.5, 0, 0],
							"lerp_mode": "catmullrom"
						},
						"5.0417": {
							"post": [-8.72, 0, -0.49],
							"lerp_mode": "catmullrom"
						},
						"6.0": {
							"post": [5, 0, 0],
							"lerp_mode": "catmullrom"
						},
						"6.875": {
							"post": [7.5, 0, 7.5],
							"lerp_mode": "catmullrom"
						},
						"8.0": {
							"post": [-2.5, 0, 0],
							"lerp_mode": "catmullrom"
						},
						"9.0417": {
							"post": [-8.72, 0, -0.49],
							"lerp_mode": "catmullrom"
						}
					}
				}
			}
		},
		"animation.arctovish.sleep": {
			"loop": true,
			"bones": {
				"body": {
					"position": [0, "-14+math.sin(q.anim_time*90*1+90)*0.2", 0]
				},
				"torso": {
					"rotation": ["-7.5+math.sin(q.anim_time*90*1)*1", 0, 0]
				},
				"fin_right": {
					"rotation": [-14, "20.5+math.sin(q.anim_time*90*1.5-90)*5", -25]
				},
				"fin_right2": {
					"rotation": [0, "20+math.sin(q.anim_time*90*1.5-70-90)*8", 0],
					"position": [1, 0, 0]
				},
				"fin_right3": {
					"rotation": [0, "15+math.sin(q.anim_time*90*1.5-160-90)*6", 0]
				},
				"fin_left": {
					"rotation": [-14, "-20.5+math.sin(q.anim_time*90*1.5)*5", 25]
				},
				"fin_left2": {
					"rotation": [0, "-20+math.sin(q.anim_time*90*1.5-70)*8", 0],
					"position": [-1, 0, 0]
				},
				"fin_left3": {
					"rotation": [0, "-15+math.sin(q.anim_time*90*1.5-160)*6", 0]
				},
				"tail": {
					"rotation": ["-2.5+math.sin(q.anim_time*90*1-60)*-1", 0, 5]
				},
				"tail2": {
					"rotation": ["-2+math.sin(q.anim_time*90*1-130)*-3", -10, -1],
					"position": [0, -0.5, 0]
				},
				"tail3": {
					"rotation": ["-5+math.sin(q.anim_time*90*1-180)*-5", -8, -3],
					"position": [0, -1.25, 0]
				},
				"tail4": {
					"rotation": ["5+math.sin(q.anim_time*90*1-280)*-8", -27, -4],
					"position": [0, -0.75, 0]
				},
				"tail5": {
					"rotation": ["-8+math.sin(q.anim_time*90*1-310)*-10", -22, 2]
				},
				"leg_left": {
					"rotation": ["28+math.sin(q.anim_time*90*1+90)*-2", -55, "-70+math.sin(q.anim_time*90*1+90)*2"]
				},
				"leg_left2_rot": {
					"rotation": [0, 0, "-14+math.sin(q.anim_time*90*1+90)*-1"],
					"position": [0, -1, 0]
				},
				"leg_right": {
					"rotation": ["28+math.sin(q.anim_time*90*1+90)*-2", 55, "70+math.sin(q.anim_time*90*1+90)*-2"]
				},
				"leg_right2_rot": {
					"rotation": [0, 0, "14+math.sin(q.anim_time*90*1+90)*1"],
					"position": [0, -1, 0]
				},
				"head_rotation": {
					"rotation": ["15+math.sin(q.anim_time*90*1.5-120)*1", 0, 0],
					"position": [0, -2.5, 1.5]
				},
				"pupil_left": {
					"position": [-0.1, 0, 0]
				},
				"inner_eyelid_left": {
					"position": [0.1, 0, 0]
				},
				"pupil_right": {
					"position": [0.1, 0, 0]
				},
				"inner_eyelid_right": {
					"position": [-0.1, 0, 0]
				},
				"jaw": {
					"rotation": ["-12.5+math.sin(q.anim_time*90*1.5-90)*-3", 0, 0]
				},
				"chest": {
					"rotation": ["math.sin(q.anim_time*90*1-50)*-1", 0, 0]
				},
				"tail_fin": {
					"rotation": ["-7.5+math.sin(q.anim_time*90*1-90)*4", -7.5, 0],
					"position": [-1, 0, 0]
				}
			}
		},
		"animation.arctovish.cry": {
			"animation_length": 4,
			"bones": {
				"head_rotation": {
					"rotation": {
						"0.0": {
							"post": [0, 0, 0],
							"lerp_mode": "catmullrom"
						},
						"0.75": {
							"post": [10, 0, 0],
							"lerp_mode": "catmullrom"
						},
						"1.0833": {
							"post": [-4, 0, 0],
							"lerp_mode": "catmullrom"
						},
						"2.125": {
							"post": [-3, 0, 0],
							"lerp_mode": "catmullrom"
						},
						"2.5417": {
							"post": [0, 0, 0],
							"lerp_mode": "catmullrom"
						},
						"3.2917": {
							"post": [0, 0, 0],
							"lerp_mode": "catmullrom"
						}
					}
				},
				"jaw": {
					"rotation": {
						"0.0": {
							"post": [0, 0, 0],
							"lerp_mode": "catmullrom"
						},
						"0.875": {
							"post": [-10, 0, 0],
							"lerp_mode": "catmullrom"
						},
						"1.1667": {
							"post": [7.5, 0, 0],
							"lerp_mode": "catmullrom"
						},
						"1.25": {
							"post": [8.18, 0, 0],
							"lerp_mode": "catmullrom"
						},
						"1.3333": {
							"post": [5.09, 0, 0],
							"lerp_mode": "catmullrom"
						},
						"1.4167": {
							"post": [8.06, 0, 0],
							"lerp_mode": "catmullrom"
						},
						"1.5417": {
							"post": [5.08, 0, 0],
							"lerp_mode": "catmullrom"
						},
						"1.6667": {
							"post": [7.1, 0, 0],
							"lerp_mode": "catmullrom"
						},
						"1.7917": {
							"post": [6.16, 0, 0],
							"lerp_mode": "catmullrom"
						},
						"1.9583": {
							"post": [7.31, 0, 0],
							"lerp_mode": "catmullrom"
						},
						"2.3333": {
							"post": [6, 0, 0],
							"lerp_mode": "catmullrom"
						},
						"2.7083": {
							"post": [-2, 0, 0],
							"lerp_mode": "catmullrom"
						},
						"3.25": {
							"post": [0, 0, 0],
							"lerp_mode": "catmullrom"
						},
						"3.7083": {
							"post": [0, 0, 0],
							"lerp_mode": "catmullrom"
						}
					}
				},
				"fin_right": {
					"rotation": {
						"0.0": {
							"post": [0, 0, 0],
							"lerp_mode": "catmullrom"
						},
						"0.75": {
							"post": [0, -2.4, -7.5],
							"lerp_mode": "catmullrom"
						},
						"1.1667": {
							"post": [0, -17.65, -16.5],
							"lerp_mode": "catmullrom"
						},
						"1.75": {
							"post": [0, -21.67, -20.49],
							"lerp_mode": "catmullrom"
						},
						"2.375": {
							"post": [0, -15.65, -16.5],
							"lerp_mode": "catmullrom"
						},
						"2.9167": {
							"post": [0, 0, 0],
							"lerp_mode": "catmullrom"
						},
						"3.9583": {
							"post": [0, 0, 0],
							"lerp_mode": "catmullrom"
						}
					}
				},
				"fin_right2": {
					"rotation": {
						"0.0": {
							"post": [0, 0, 0],
							"lerp_mode": "catmullrom"
						},
						"0.7083": {
							"post": [0, 5, 0],
							"lerp_mode": "catmullrom"
						},
						"1.5417": {
							"post": [0, -20, 0],
							"lerp_mode": "catmullrom"
						},
						"2.3333": {
							"post": [0, -20, 0],
							"lerp_mode": "catmullrom"
						},
						"3.0": {
							"post": [0, 0, 0],
							"lerp_mode": "catmullrom"
						},
						"3.9167": {
							"post": [0, 0, 0],
							"lerp_mode": "catmullrom"
						}
					}
				},
				"fin_right3": {
					"rotation": {
						"0.0": {
							"post": [0, 0, 0],
							"lerp_mode": "catmullrom"
						},
						"0.375": {
							"post": [0, -2.5, 0],
							"lerp_mode": "catmullrom"
						},
						"0.9583": {
							"post": [0, 17.5, 0],
							"lerp_mode": "catmullrom"
						},
						"2.2917": {
							"post": [0, -10, 0],
							"lerp_mode": "catmullrom"
						},
						"2.8333": {
							"post": [0, -7, 0],
							"lerp_mode": "catmullrom"
						},
						"3.1667": {
							"post": [0, 0, 0],
							"lerp_mode": "catmullrom"
						},
						"4.0": {
							"post": [0, 0, 0],
							"lerp_mode": "catmullrom"
						}
					}
				},
				"fin_left": {
					"rotation": {
						"0.0": {
							"post": [0, 0, 0],
							"lerp_mode": "catmullrom"
						},
						"0.75": {
							"post": [0, 2.4, 7.5],
							"lerp_mode": "catmullrom"
						},
						"1.1667": {
							"post": [0, 17.65, 16.5],
							"lerp_mode": "catmullrom"
						},
						"1.75": {
							"post": [0, 21.67, 20.49],
							"lerp_mode": "catmullrom"
						},
						"2.375": {
							"post": [0, 15.65, 16.5],
							"lerp_mode": "catmullrom"
						},
						"2.9167": {
							"post": [0, 0, 0],
							"lerp_mode": "catmullrom"
						},
						"3.9583": {
							"post": [0, 0, 0],
							"lerp_mode": "catmullrom"
						}
					}
				},
				"fin_left2": {
					"rotation": {
						"0.0": {
							"post": [0, 0, 0],
							"lerp_mode": "catmullrom"
						},
						"0.7083": {
							"post": [0, -5, 0],
							"lerp_mode": "catmullrom"
						},
						"1.5417": {
							"post": [0, 20, 0],
							"lerp_mode": "catmullrom"
						},
						"2.3333": {
							"post": [0, 20, 0],
							"lerp_mode": "catmullrom"
						},
						"3.0": {
							"post": [0, 0, 0],
							"lerp_mode": "catmullrom"
						},
						"3.9167": {
							"post": [0, 0, 0],
							"lerp_mode": "catmullrom"
						}
					}
				},
				"fin_left3": {
					"rotation": {
						"0.0": {
							"post": [0, 0, 0],
							"lerp_mode": "catmullrom"
						},
						"0.375": {
							"post": [0, 2.5, 0],
							"lerp_mode": "catmullrom"
						},
						"0.9583": {
							"post": [0, -17.5, 0],
							"lerp_mode": "catmullrom"
						},
						"2.2917": {
							"post": [0, 10, 0],
							"lerp_mode": "catmullrom"
						},
						"2.8333": {
							"post": [0, 7, 0],
							"lerp_mode": "catmullrom"
						},
						"3.1667": {
							"post": [0, 0, 0],
							"lerp_mode": "catmullrom"
						},
						"4.0": {
							"post": [0, 0, 0],
							"lerp_mode": "catmullrom"
						}
					}
				}
			},
			"sound_effects": {
				"1.0833": {
					"effect": "pokemon.arctovish.cry"
				}
			}
		},
		"animation.arctovish.water_idle": {
			"loop": true,
			"bones": {
				"body": {
					"rotation": ["-10.5+math.sin(q.anim_time*90*1-70)*4", "math.sin(q.anim_time*90*0.25-80)*1", "math.sin(q.anim_time*90*0.25-100)*-3"],
					"position": ["math.sin(q.anim_time*90*0.5)*2", "math.sin(q.anim_time*90*1)*3", "math.sin(q.anim_time*90*1-160)*1"]
				},
				"torso": {
					"rotation": [0, 0, 0]
				},
				"chest": {
					"rotation": ["-2+math.sin(q.anim_time*90*1-100)*-2", 0, 0]
				},
				"head_rotation": {
					"rotation": ["2+math.sin(q.anim_time*90*1-140)*2", "math.sin(q.anim_time*90*0.75)*1", 0]
				},
				"jaw": {
					"rotation": ["-7.5+math.sin(q.anim_time*90*0.75)*-2", 0, 0]
				},
				"fin_right": {
					"rotation": ["-25+math.sin(q.anim_time*90*0.75-50)*5", "15+math.sin(q.anim_time*90*0.75-90)*10", -30]
				},
				"fin_right2": {
					"rotation": [2, "math.sin(q.anim_time*90*0.75-130)*17", 10]
				},
				"fin_left": {
					"rotation": ["-25+math.sin(q.anim_time*90*0.75-50)*5", "-15+math.sin(q.anim_time*90*0.75-90)*-10", 30]
				},
				"fin_left2": {
					"rotation": [2, "-(math.sin(q.anim_time*90*0.75-130)*17)", -10]
				},
				"tail": {
					"rotation": ["5+math.sin(q.anim_time*90*1-100)*5", 0, "math.sin(q.anim_time*90*0.5-110)*-6"]
				},
				"tail2": {
					"rotation": ["7.5+math.sin(q.anim_time*90*1-130)*8", "math.sin(q.anim_time*90*0.5-150)*9", 0]
				},
				"tail3": {
					"rotation": ["7.5+math.sin(q.anim_time*90*1-160)*10", "math.sin(q.anim_time*90*0.5-190)*12", 0]
				},
				"tail_fin": {
					"rotation": ["2.5+math.sin(q.anim_time*90*1-170)*4", "math.sin(q.anim_time*90*0.5-200)*2", "math.sin(q.anim_time*90*0.5-200)*4"]
				},
				"tail4": {
					"rotation": ["5+math.sin(q.anim_time*90*1-190)*12", "math.sin(q.anim_time*90*0.5-210)*15", 0]
				},
				"tail5": {
					"rotation": ["10+math.sin(q.anim_time*90*1-210)*16", "math.sin(q.anim_time*90*0.5-240)*18", 0]
				},
				"leg_left": {
					"rotation": [0, 0, "-20+math.sin(q.anim_time*90*1-100)*-12"]
				},
				"leg_left2": {
					"rotation": [5, 0, "-(math.sin(q.anim_time*90*1-150)*16)"]
				},
				"leg_left3": {
					"rotation": [0, 0, "-(math.sin(q.anim_time*90*1-180)*12)"],
					"position": [0.5, 0.5, 0]
				},
				"leg_right": {
					"rotation": [0, 0, "20+math.sin(q.anim_time*90*1-100)*12"]
				},
				"leg_right2": {
					"rotation": [5, 0, "math.sin(q.anim_time*90*1-150)*16"]
				},
				"leg_right3": {
					"rotation": [0, 0, "math.sin(q.anim_time*90*1-180)*12"],
					"position": [-0.5, 0.5, 0]
				},
				"fin_right3": {
					"rotation": [0, "math.sin(q.anim_time*90*0.75-190)*13", 0]
				},
				"fin_left3": {
					"rotation": [0, "-(math.sin(q.anim_time*90*0.75-190)*13)", 0]
				}
			}
		},
		"animation.arctovish.water_swim": {
			"loop": true,
			"bones": {
				"body": {
					"rotation": ["math.sin(q.anim_time*90*2-70)*5", "math.sin(q.anim_time*90*1-80)*3", "math.sin(q.anim_time*90*1-100)*-6"],
					"position": ["math.sin(q.anim_time*90*1)*4", "math.sin(q.anim_time*90*2)*2", "-6+math.sin(q.anim_time*90*2-160)*2"]
				},
				"torso": {
					"rotation": [0, 0, 0]
				},
				"chest": {
					"rotation": ["-2+math.sin(q.anim_time*90*2-100)*-3", 0, 0]
				},
				"head_rotation": {
					"rotation": ["2+math.sin(q.anim_time*90*1-140)*2", "math.sin(q.anim_time*90*0.75)*1", 0]
				},
				"jaw": {
					"rotation": ["-7.5+math.sin(q.anim_time*90*0.75)*-2", 0, 0]
				},
				"fin_right": {
					"rotation": ["-25+math.sin(q.anim_time*90*0.75-50)*5", "15+math.sin(q.anim_time*90*0.75-90)*10", -30]
				},
				"fin_right2": {
					"rotation": [2, "math.sin(q.anim_time*90*0.75-130)*17", -10]
				},
				"fin_left": {
					"rotation": ["-25+math.sin(q.anim_time*90*0.75-50)*5", "-15+math.sin(q.anim_time*90*0.75-90)*-10", 30]
				},
				"fin_left2": {
					"rotation": [2, "-(math.sin(q.anim_time*90*0.75-130)*17)", 10]
				},
				"tail": {
					"rotation": ["-2.5527+math.sin(q.anim_time*90*2-100)*2", -0.51075, "math.sin(q.anim_time*90*1-110)*-9.0138"],
					"position": [0, 1.25, 0]
				},
				"tail2": {
					"rotation": ["2.5+math.sin(q.anim_time*90*2-130)*4", "math.sin(q.anim_time*90*1-150)*14", 0]
				},
				"tail3": {
					"rotation": ["math.sin(q.anim_time*90*2-160)*6", "math.sin(q.anim_time*90*1-190)*17", 0]
				},
				"tail_fin": {
					"rotation": ["-5+math.sin(q.anim_time*90*2-170)*4", "math.sin(q.anim_time*90*1-200)*2", "math.sin(q.anim_time*90*1-200)*7"]
				},
				"tail4": {
					"rotation": ["-5+math.sin(q.anim_time*90*2-190)*8", "math.sin(q.anim_time*90*1-210)*15", 0]
				},
				"tail5": {
					"rotation": ["math.sin(q.anim_time*90*2-210)*10", "math.sin(q.anim_time*90*1-240)*20", 0]
				},
				"leg_left": {
					"rotation": [0, 0, "-20+math.sin(q.anim_time*90*2-100)*-12"]
				},
				"leg_left2": {
					"rotation": [5, 0, "-(math.sin(q.anim_time*90*2-150)*16)"]
				},
				"leg_left3": {
					"rotation": [0, 0, "-(math.sin(q.anim_time*90*2-180)*12)"],
					"position": [0.5, 0.5, 0]
				},
				"leg_right": {
					"rotation": [0, 0, "20+math.sin(q.anim_time*90*2-100)*12"]
				},
				"leg_right2": {
					"rotation": [5, 0, "math.sin(q.anim_time*90*2-150)*16"]
				},
				"leg_right3": {
					"rotation": [0, 0, "math.sin(q.anim_time*90*2-180)*12"],
					"position": [-0.5, 0.5, 0]
				},
				"fin_right3": {
					"rotation": [0, "math.sin(q.anim_time*90*0.75-190)*13", 0]
				},
				"fin_left3": {
					"rotation": [0, "-(math.sin(q.anim_time*90*0.75-190)*13)", 0]
				}
			}
		},
		"animation.arctovish.water_sleep": {
			"loop": true,
			"animation_length": 16,
			"bones": {
				"body": {
					"rotation": ["-0.5+math.sin(q.anim_time*90*0.5-70)*4", "0+math.sin(q.anim_time*90*0.25-80)*1", "math.sin(q.anim_time*90*0.25-100)*-3"],
					"position": ["math.sin(q.anim_time*90*0.25)*2", "-4+math.sin(q.anim_time*90*0.5)*3", "math.sin(q.anim_time*90*0.5-160)*1"]
				},
				"torso": {
					"rotation": [0, 0, 0]
				},
				"chest": {
					"rotation": ["3+math.sin(q.anim_time*90*0.5-100)*-2", 0, 0],
					"position": [0, 0, -1.5]
				},
				"head_rotation": {
					"rotation": ["2+math.sin(q.anim_time*90*0.5-140)*2", "math.sin(q.anim_time*90*0.75)*1", 0]
				},
				"jaw": {
					"rotation": ["-7.5+math.sin(q.anim_time*90*0.75)*-2", 0, 0]
				},
				"fin_right": {
					"rotation": ["-25+math.sin(q.anim_time*90*0.75-50)*5", "15+math.sin(q.anim_time*90*0.75-90)*10", -30]
				},
				"fin_right2": {
					"rotation": [2, "math.sin(q.anim_time*90*0.75-130)*17", 10]
				},
				"fin_left": {
					"rotation": ["-25+math.sin(q.anim_time*90*0.75-50)*5", "-15+math.sin(q.anim_time*90*0.75-90)*-10", 30]
				},
				"fin_left2": {
					"rotation": [2, "-(math.sin(q.anim_time*90*0.75-130)*17)", -10]
				},
				"tail": {
					"rotation": ["-5+math.sin(q.anim_time*90*0.5-100)*5", 0, "math.sin(q.anim_time*90*0.25-110)*-6"],
					"position": [0, 1.75, 0]
				},
				"tail2": {
					"rotation": ["-5+math.sin(q.anim_time*90*0.5-130)*8", "0+math.sin(q.anim_time*90*0.25-150)*9", 0]
				},
				"tail3": {
					"rotation": ["-5+math.sin(q.anim_time*90*0.5-160)*10", "math.sin(q.anim_time*90*0.25-190)*12", 0]
				},
				"tail_fin": {
					"rotation": ["-5+math.sin(q.anim_time*90*0.5-170)*4", "0+math.sin(q.anim_time*90*0.25-200)*2", "0+math.sin(q.anim_time*90*0.25-200)*4"]
				},
				"tail4": {
					"rotation": ["-12.5+math.sin(q.anim_time*90*0.5-190)*12", "math.sin(q.anim_time*90*0.25-210)*15", 0]
				},
				"tail5": {
					"rotation": ["math.sin(q.anim_time*90*0.5-210)*16", "math.sin(q.anim_time*90*0.25-240)*18", 0]
				},
				"leg_left": {
					"rotation": [-45.68718, -8.80348, "-11.0908+math.sin(q.anim_time*90*0.5-100)*-12"]
				},
				"leg_left2": {
					"rotation": [5, 0, "-(math.sin(q.anim_time*90*0.5-150)*16)"]
				},
				"leg_left3": {
					"rotation": [0, 0, "-(math.sin(q.anim_time*90*0.5-180)*12)"],
					"position": [0.5, 0.5, 0]
				},
				"leg_right": {
					"rotation": [-45.68718, 8.80348, "11.0908+math.sin(q.anim_time*90*0.5-100)*12"]
				},
				"leg_right2": {
					"rotation": [5, 0, "math.sin(q.anim_time*90*0.5-150)*16"]
				},
				"leg_right3": {
					"rotation": [0, 0, "math.sin(q.anim_time*90*0.5-180)*12"],
					"position": [-0.5, 0.5, 0]
				},
				"fin_right3": {
					"rotation": [0, "math.sin(q.anim_time*90*0.75-190)*13", 0]
				},
				"fin_left3": {
					"rotation": [0, "-(math.sin(q.anim_time*90*0.75-190)*13)", 0]
				},
				"pupil_left": {
					"position": [-0.1, 0, 0]
				},
				"inner_eyelid_left": {
					"position": [0.1, 0, 0]
				},
				"pupil_right": {
					"position": [0.1, 0, 0]
				},
				"inner_eyelid_right": {
					"position": [-0.1, 0, 0]
				}
			}
		},
		"animation.arctovish.water_cry": {
			"animation_length": 4,
			"bones": {
				"torso": {
					"rotation": {
						"0.0": {
							"post": [0, 0, 0],
							"lerp_mode": "catmullrom"
						},
						"0.625": {
							"post": [-1, 0, 0],
							"lerp_mode": "catmullrom"
						},
						"1.375": {
							"post": [2, 0, 0],
							"lerp_mode": "catmullrom"
						},
						"2.0417": {
							"post": [2, 0, 0],
							"lerp_mode": "catmullrom"
						},
						"2.7917": {
							"post": [0, 0, 0],
							"lerp_mode": "catmullrom"
						},
						"3.5": {
							"post": [0, 0, 0],
							"lerp_mode": "catmullrom"
						}
					}
				},
				"chest": {
					"rotation": {
						"0.0": {
							"post": [0, 0, 0],
							"lerp_mode": "catmullrom"
						},
						"0.5417": {
							"post": [-2, 0, 0],
							"lerp_mode": "catmullrom"
						},
						"1.25": {
							"post": [1, 0, 0],
							"lerp_mode": "catmullrom"
						},
						"2.1667": {
							"post": [1, 0, 0],
							"lerp_mode": "catmullrom"
						},
						"2.9167": {
							"post": [0, 0, 0],
							"lerp_mode": "catmullrom"
						},
						"3.7917": {
							"post": [0, 0, 0],
							"lerp_mode": "catmullrom"
						}
					}
				},
				"head_rotation": {
					"rotation": {
						"0.0": {
							"post": [0, 0, 0],
							"lerp_mode": "catmullrom"
						},
						"0.75": {
							"post": [10, 0, 0],
							"lerp_mode": "catmullrom"
						},
						"1.0833": {
							"post": [-4, 0, 0],
							"lerp_mode": "catmullrom"
						},
						"2.125": {
							"post": [-3, 0, 0],
							"lerp_mode": "catmullrom"
						},
						"2.5417": {
							"post": [0, 0, 0],
							"lerp_mode": "catmullrom"
						},
						"3.2917": {
							"post": [0, 0, 0],
							"lerp_mode": "catmullrom"
						}
					}
				},
				"jaw": {
					"rotation": {
						"0.0": {
							"post": [0, 0, 0],
							"lerp_mode": "catmullrom"
						},
						"0.875": {
							"post": [-10, 0, 0],
							"lerp_mode": "catmullrom"
						},
						"1.1667": {
							"post": [7.5, 0, 0],
							"lerp_mode": "catmullrom"
						},
						"1.25": {
							"post": [8.18, 0, 0],
							"lerp_mode": "catmullrom"
						},
						"1.3333": {
							"post": [5.09, 0, 0],
							"lerp_mode": "catmullrom"
						},
						"1.4167": {
							"post": [8.06, 0, 0],
							"lerp_mode": "catmullrom"
						},
						"1.5417": {
							"post": [5.08, 0, 0],
							"lerp_mode": "catmullrom"
						},
						"1.6667": {
							"post": [7.1, 0, 0],
							"lerp_mode": "catmullrom"
						},
						"1.7917": {
							"post": [6.16, 0, 0],
							"lerp_mode": "catmullrom"
						},
						"1.9583": {
							"post": [7.31, 0, 0],
							"lerp_mode": "catmullrom"
						},
						"2.3333": {
							"post": [6, 0, 0],
							"lerp_mode": "catmullrom"
						},
						"2.7083": {
							"post": [-2, 0, 0],
							"lerp_mode": "catmullrom"
						},
						"3.25": {
							"post": [0, 0, 0],
							"lerp_mode": "catmullrom"
						},
						"3.7083": {
							"post": [0, 0, 0],
							"lerp_mode": "catmullrom"
						}
					}
				},
				"fin_right": {
					"rotation": {
						"0.0": {
							"post": [0, 0, 0],
							"lerp_mode": "catmullrom"
						},
						"0.625": {
							"post": [0, -10, 0],
							"lerp_mode": "catmullrom"
						},
						"1.4583": {
							"post": [0, 7.5, 0],
							"lerp_mode": "catmullrom"
						},
						"2.2917": {
							"post": [0, -7, 0],
							"lerp_mode": "catmullrom"
						},
						"2.875": {
							"post": [0, 0, 0],
							"lerp_mode": "catmullrom"
						},
						"3.7917": {
							"post": [0, 0, 0],
							"lerp_mode": "catmullrom"
						}
					}
				},
				"fin_right2": {
					"rotation": {
						"0.0": {
							"post": [0, 0, 0],
							"lerp_mode": "catmullrom"
						},
						"0.625": {
							"post": [0, -2.5, 0],
							"lerp_mode": "catmullrom"
						},
						"1.75": {
							"post": [0, 12.5, 0],
							"lerp_mode": "catmullrom"
						},
						"2.5417": {
							"post": [0, 12.5, 0],
							"lerp_mode": "catmullrom"
						},
						"3.25": {
							"post": [0, 0, 0],
							"lerp_mode": "catmullrom"
						},
						"4.0": {
							"post": [0, 0, 0],
							"lerp_mode": "catmullrom"
						}
					}
				},
				"fin_right3": {
					"rotation": {
						"0.0": {
							"post": [0, 0, 0],
							"lerp_mode": "catmullrom"
						},
						"0.4583": {
							"post": [0, 10, 0],
							"lerp_mode": "catmullrom"
						},
						"0.8333": {
							"post": [0, 1.9, 0],
							"lerp_mode": "catmullrom"
						},
						"1.2083": {
							"post": [0, 0.06, 0],
							"lerp_mode": "catmullrom"
						},
						"1.4167": {
							"post": [0, -3.5, 0],
							"lerp_mode": "catmullrom"
						},
						"1.9167": {
							"post": [0, 3.5, 0],
							"lerp_mode": "catmullrom"
						},
						"3.0": {
							"post": [0, 1, 0],
							"lerp_mode": "catmullrom"
						},
						"3.7917": {
							"post": [0, 0, 0],
							"lerp_mode": "catmullrom"
						}
					}
				},
				"fin_left": {
					"rotation": {
						"0.0": {
							"post": [0, 0, 0],
							"lerp_mode": "catmullrom"
						},
						"0.625": {
							"post": [0, 10, 0],
							"lerp_mode": "catmullrom"
						},
						"1.4583": {
							"post": [0, -7.5, 0],
							"lerp_mode": "catmullrom"
						},
						"2.2917": {
							"post": [0, 7, 0],
							"lerp_mode": "catmullrom"
						},
						"2.875": {
							"post": [0, 0, 0],
							"lerp_mode": "catmullrom"
						},
						"3.7917": {
							"post": [0, 0, 0],
							"lerp_mode": "catmullrom"
						}
					}
				},
				"fin_left2": {
					"rotation": {
						"0.0": {
							"post": [0, 0, 0],
							"lerp_mode": "catmullrom"
						},
						"0.625": {
							"post": [0, 2.5, 0],
							"lerp_mode": "catmullrom"
						},
						"1.75": {
							"post": [0, -12.5, 0],
							"lerp_mode": "catmullrom"
						},
						"2.5417": {
							"post": [0, -12.5, 0],
							"lerp_mode": "catmullrom"
						},
						"3.25": {
							"post": [0, 0, 0],
							"lerp_mode": "catmullrom"
						},
						"4.0": {
							"post": [0, 0, 0],
							"lerp_mode": "catmullrom"
						}
					}
				},
				"fin_left3": {
					"rotation": {
						"0.0": {
							"post": [0, 0, 0],
							"lerp_mode": "catmullrom"
						},
						"0.4583": {
							"post": [0, -10, 0],
							"lerp_mode": "catmullrom"
						},
						"0.8333": {
							"post": [0, -1.9, 0],
							"lerp_mode": "catmullrom"
						},
						"1.2083": {
							"post": [0, -0.06, 0],
							"lerp_mode": "catmullrom"
						},
						"1.4167": {
							"post": [0, 3.5, 0],
							"lerp_mode": "catmullrom"
						},
						"1.9167": {
							"post": [0, -3.5, 0],
							"lerp_mode": "catmullrom"
						},
						"3.0": {
							"post": [0, -1, 0],
							"lerp_mode": "catmullrom"
						},
						"3.7917": {
							"post": [0, 0, 0],
							"lerp_mode": "catmullrom"
						}
					}
				}
			},
			"sound_effects": {
				"1.0833": {
					"effect": "dracovish_cry"
				}
			}
		},
		"animation.arctovish.blink": {
			"animation_length": 0.1667,
			"bones": {
				"pupil_left": {
					"position": {
						"0.0": [-0.1, 0, 0],
						"0.125": [-0.1, 0, 0],
						"0.1667": [0, 0, 0]
					}
				},
				"inner_eyelid_left": {
					"position": {
						"0.0": [0.1, 0, 0],
						"0.125": [0.1, 0, 0],
						"0.1667": [0, 0, 0]
					}
				},
				"pupil_right": {
					"position": {
						"0.0": [0.1, 0, 0],
						"0.125": [0.1, 0, 0],
						"0.1667": [0, 0, 0]
					}
				},
				"inner_eyelid_right": {
					"position": {
						"0.0": [-0.1, 0, 0],
						"0.125": [-0.1, 0, 0],
						"0.1667": [0, 0, 0]
					}
				}
			}
		},
		"animation.arctovish.water_quirk": {
			"animation_length": 7,
			"bones": {
				"body": {
					"rotation": {
						"0.0": {
							"post": [0, 0, 0],
							"lerp_mode": "catmullrom"
						},
						"0.5": {
							"post": [-2, 0, 0],
							"lerp_mode": "catmullrom"
						},
						"1.2917": {
							"post": [15, 0, 0],
							"lerp_mode": "catmullrom"
						},
						"2.125": {
							"post": [19, 0, 0],
							"lerp_mode": "catmullrom"
						},
						"3.0417": {
							"post": [37, 0, 0],
							"lerp_mode": "catmullrom"
						},
						"3.875": {
							"post": [31.03, 0, 0],
							"lerp_mode": "catmullrom"
						},
						"4.9167": {
							"post": [-10.71, 0, 0],
							"lerp_mode": "catmullrom"
						},
						"5.6667": {
							"post": [-9, 0, 0],
							"lerp_mode": "catmullrom"
						},
						"6.3333": {
							"post": [-2, 0, 0],
							"lerp_mode": "catmullrom"
						},
						"7.0": {
							"post": [0, 0, 0],
							"lerp_mode": "catmullrom"
						}
					}
				},
				"chest": {
					"rotation": {
						"0.0": {
							"post": [0, 0, 0],
							"lerp_mode": "catmullrom"
						},
						"0.4583": {
							"post": [-2, 0, 0],
							"lerp_mode": "catmullrom"
						},
						"1.4167": {
							"post": [1, 0, 0],
							"lerp_mode": "catmullrom"
						},
						"2.375": {
							"post": [1, 0, 0],
							"lerp_mode": "catmullrom"
						},
						"3.25": {
							"post": [6, 0, 0],
							"lerp_mode": "catmullrom"
						},
						"3.9583": {
							"post": [6, 0, 0],
							"lerp_mode": "catmullrom"
						},
						"5.1667": {
							"post": [-5, 0, 0],
							"lerp_mode": "catmullrom"
						},
						"6.0833": {
							"post": [0, 0, 0],
							"lerp_mode": "catmullrom"
						},
						"7.0": {
							"post": [0, 0, 0],
							"lerp_mode": "catmullrom"
						}
					},
					"position": {
						"2.375": {
							"pre": [0, 0, 0],
							"post": [0, 0, 0],
							"lerp_mode": "catmullrom"
						},
						"3.25": {
							"post": [0, 0, -1.4],
							"lerp_mode": "catmullrom"
						},
						"3.9583": {
							"post": [0, 0, -1.4],
							"lerp_mode": "catmullrom"
						},
						"5.1667": {
							"post": [0, 0, 0],
							"lerp_mode": "catmullrom"
						}
					}
				},
				"head_rotation": {
					"rotation": {
						"0.0": {
							"post": [0, 0, 0],
							"lerp_mode": "catmullrom"
						},
						"0.4583": {
							"post": [4, 0, 0],
							"lerp_mode": "catmullrom"
						},
						"1.25": {
							"post": [-2, 0, 0],
							"lerp_mode": "catmullrom"
						},
						"1.6667": {
							"post": [2, 0, 0],
							"lerp_mode": "catmullrom"
						},
						"2.375": {
							"post": [-6, 0, 0],
							"lerp_mode": "catmullrom"
						},
						"3.8333": {
							"post": [-6, 0, 0],
							"lerp_mode": "catmullrom"
						},
						"4.7917": {
							"post": [9, 0, 0],
							"lerp_mode": "catmullrom"
						},
						"5.5833": {
							"post": [9.47, 0, 0],
							"lerp_mode": "catmullrom"
						},
						"6.4583": {
							"post": [1.83, 0, 0],
							"lerp_mode": "catmullrom"
						},
						"7.0": {
							"post": [0, 0, 0],
							"lerp_mode": "catmullrom"
						}
					}
				},
				"fin_right": {
					"rotation": {
						"0.0": {
							"post": [0, 0, 0],
							"lerp_mode": "catmullrom"
						},
						"0.5417": {
							"post": [6.8, 4, 0],
							"lerp_mode": "catmullrom"
						},
						"1.3333": {
							"post": [41, -41, 0],
							"lerp_mode": "catmullrom"
						},
						"2.0417": {
							"post": [26.7, -41, 0],
							"lerp_mode": "catmullrom"
						},
						"2.7083": {
							"post": [34.8, -63.5, 0],
							"lerp_mode": "catmullrom"
						},
						"3.7083": {
							"post": [25.3, -63.5, 0],
							"lerp_mode": "catmullrom"
						},
						"5.25": {
							"post": [0, 0, 0],
							"lerp_mode": "catmullrom"
						},
						"6.4583": {
							"post": [0, 0, 0],
							"lerp_mode": "catmullrom"
						}
					}
				},
				"fin_right2": {
					"rotation": {
						"0.0": {
							"post": [0, 0, 0],
							"lerp_mode": "catmullrom"
						},
						"0.4167": {
							"post": [0, 5, 0],
							"lerp_mode": "catmullrom"
						},
						"1.125": {
							"post": [0, 22.5, 0],
							"lerp_mode": "catmullrom"
						},
						"1.625": {
							"post": [0, 2.5, 0],
							"lerp_mode": "catmullrom"
						},
						"2.5": {
							"post": [0, 10, 0],
							"lerp_mode": "catmullrom"
						},
						"3.5417": {
							"post": [0, -27.5, 0],
							"lerp_mode": "catmullrom"
						},
						"4.2917": {
							"post": [0, -27.5, 0],
							"lerp_mode": "catmullrom"
						},
						"5.4167": {
							"post": [0, 0, 0],
							"lerp_mode": "catmullrom"
						},
						"6.7917": {
							"post": [0, 0, 0],
							"lerp_mode": "catmullrom"
						}
					}
				},
				"fin_right3": {
					"rotation": {
						"0.0": {
							"post": [0, 0, 0],
							"lerp_mode": "catmullrom"
						},
						"0.2917": {
							"post": [0, -2.5, 0],
							"lerp_mode": "catmullrom"
						},
						"1.0": {
							"post": [0, 25, 0],
							"lerp_mode": "catmullrom"
						},
						"2.0833": {
							"post": [0, 2.5, 0],
							"lerp_mode": "catmullrom"
						},
						"3.0": {
							"post": [0, 17.5, 0],
							"lerp_mode": "catmullrom"
						},
						"3.9167": {
							"post": [0, -22.5, 0],
							"lerp_mode": "catmullrom"
						},
						"4.5417": {
							"post": [0, -40, 0],
							"lerp_mode": "catmullrom"
						},
						"5.8333": {
							"post": [0, 0, 0],
							"lerp_mode": "catmullrom"
						},
						"7.0": {
							"post": [0, 0, 0],
							"lerp_mode": "catmullrom"
						}
					}
				},
				"fin_left": {
					"rotation": {
						"0.0": {
							"post": [0, 0, 0],
							"lerp_mode": "catmullrom"
						},
						"0.5417": {
							"post": [6.8, -4, 0],
							"lerp_mode": "catmullrom"
						},
						"1.3333": {
							"post": [41, 41, 0],
							"lerp_mode": "catmullrom"
						},
						"2.0417": {
							"post": [26.7, 41, 0],
							"lerp_mode": "catmullrom"
						},
						"2.7083": {
							"post": [34.8, 63.5, 0],
							"lerp_mode": "catmullrom"
						},
						"3.7083": {
							"post": [25.3, 63.5, 0],
							"lerp_mode": "catmullrom"
						},
						"5.25": {
							"post": [0, 0, 0],
							"lerp_mode": "catmullrom"
						},
						"6.4583": {
							"post": [0, 0, 0],
							"lerp_mode": "catmullrom"
						}
					}
				},
				"fin_left2": {
					"rotation": {
						"0.0": {
							"post": [0, 0, 0],
							"lerp_mode": "catmullrom"
						},
						"0.4167": {
							"post": [0, -5, 0],
							"lerp_mode": "catmullrom"
						},
						"1.125": {
							"post": [0, -22.5, 0],
							"lerp_mode": "catmullrom"
						},
						"1.625": {
							"post": [0, -2.5, 0],
							"lerp_mode": "catmullrom"
						},
						"2.5": {
							"post": [0, -10, 0],
							"lerp_mode": "catmullrom"
						},
						"3.5417": {
							"post": [0, 27.5, 0],
							"lerp_mode": "catmullrom"
						},
						"4.2917": {
							"post": [0, 27.5, 0],
							"lerp_mode": "catmullrom"
						},
						"5.4167": {
							"post": [0, 0, 0],
							"lerp_mode": "catmullrom"
						},
						"6.7917": {
							"post": [0, 0, 0],
							"lerp_mode": "catmullrom"
						}
					}
				},
				"fin_left3": {
					"rotation": {
						"0.0": {
							"post": [0, 0, 0],
							"lerp_mode": "catmullrom"
						},
						"0.2917": {
							"post": [0, 2.5, 0],
							"lerp_mode": "catmullrom"
						},
						"1.0": {
							"post": [0, -25, 0],
							"lerp_mode": "catmullrom"
						},
						"2.0833": {
							"post": [0, -2.5, 0],
							"lerp_mode": "catmullrom"
						},
						"3.0": {
							"post": [0, -17.5, 0],
							"lerp_mode": "catmullrom"
						},
						"3.9167": {
							"post": [0, 22.5, 0],
							"lerp_mode": "catmullrom"
						},
						"4.5417": {
							"post": [0, 40, 0],
							"lerp_mode": "catmullrom"
						},
						"5.8333": {
							"post": [0, 0, 0],
							"lerp_mode": "catmullrom"
						},
						"7.0": {
							"post": [0, 0, 0],
							"lerp_mode": "catmullrom"
						}
					}
				},
				"tail": {
					"rotation": {
						"0.0": {
							"post": [0, 0, 0],
							"lerp_mode": "catmullrom"
						},
						"0.5833": {
							"post": [0, 0, 0],
							"lerp_mode": "catmullrom"
						},
						"1.375": {
							"post": [-7.5, 0, 0],
							"lerp_mode": "catmullrom"
						},
						"2.0417": {
							"post": [-2.17, 0, 0],
							"lerp_mode": "catmullrom"
						},
						"2.875": {
							"post": [-6.5, 0, 0],
							"lerp_mode": "catmullrom"
						},
						"3.5417": {
							"post": [-5.79, 0, 0],
							"lerp_mode": "catmullrom"
						},
						"4.625": {
							"post": [6.48, 0, 0],
							"lerp_mode": "catmullrom"
						},
						"5.5": {
							"post": [0, 0, 0],
							"lerp_mode": "catmullrom"
						},
						"6.2083": {
							"post": [0, 0, 0],
							"lerp_mode": "catmullrom"
						}
					}
				},
				"tail2": {
					"rotation": {
						"0.0": {
							"post": [0, 0, 0],
							"lerp_mode": "catmullrom"
						},
						"0.5833": {
							"post": [0, 0, 0],
							"lerp_mode": "catmullrom"
						},
						"1.4167": {
							"post": [-7.5, 0, 0],
							"lerp_mode": "catmullrom"
						},
						"2.0833": {
							"post": [-4.17, 0, 0],
							"lerp_mode": "catmullrom"
						},
						"2.9583": {
							"post": [-6.5, 0, 0],
							"lerp_mode": "catmullrom"
						},
						"3.6667": {
							"post": [-7.79, 0, 0],
							"lerp_mode": "catmullrom"
						},
						"4.7083": {
							"post": [12.48, 0, 0],
							"lerp_mode": "catmullrom"
						},
						"5.5833": {
							"post": [-4, 0, 0],
							"lerp_mode": "catmullrom"
						},
						"6.375": {
							"post": [0, 0, 0],
							"lerp_mode": "catmullrom"
						}
					}
				},
				"tail3": {
					"rotation": {
						"0.0": {
							"post": [0, 0, 0],
							"lerp_mode": "catmullrom"
						},
						"0.625": {
							"post": [0, 0, 0],
							"lerp_mode": "catmullrom"
						},
						"1.4583": {
							"post": [-7.5, 0, 0],
							"lerp_mode": "catmullrom"
						},
						"2.1667": {
							"post": [-4.17, 0, 0],
							"lerp_mode": "catmullrom"
						},
						"3.0833": {
							"post": [-6.5, 0, 0],
							"lerp_mode": "catmullrom"
						},
						"3.8333": {
							"post": [-7.79, 0, 0],
							"lerp_mode": "catmullrom"
						},
						"4.9167": {
							"post": [12.48, 0, 0],
							"lerp_mode": "catmullrom"
						},
						"5.7917": {
							"post": [-4, 0, 0],
							"lerp_mode": "catmullrom"
						},
						"6.625": {
							"post": [0, 0, 0],
							"lerp_mode": "catmullrom"
						}
					}
				},
				"tail_fin": {
					"rotation": {
						"0.0": {
							"post": [0, 0, 0],
							"lerp_mode": "catmullrom"
						},
						"0.6667": {
							"post": [-4, 0, 0],
							"lerp_mode": "catmullrom"
						},
						"1.625": {
							"post": [-11.5, 0, 0],
							"lerp_mode": "catmullrom"
						},
						"4.0833": {
							"post": [-11.5, 0, 0],
							"lerp_mode": "catmullrom"
						},
						"4.9167": {
							"post": [-6.5, 0, 0],
							"lerp_mode": "catmullrom"
						},
						"6.0": {
							"post": [-6.5, 0, 0],
							"lerp_mode": "catmullrom"
						},
						"7.0": {
							"post": [-6.5, 0, 0],
							"lerp_mode": "catmullrom"
						}
					}
				},
				"tail4": {
					"rotation": {
						"0.0": {
							"post": [0, 0, 0],
							"lerp_mode": "catmullrom"
						},
						"0.625": {
							"post": [0, 0, 0],
							"lerp_mode": "catmullrom"
						},
						"1.5": {
							"post": [-7.5, 0, 0],
							"lerp_mode": "catmullrom"
						},
						"2.25": {
							"post": [-4.17, 0, 0],
							"lerp_mode": "catmullrom"
						},
						"3.1667": {
							"post": [-6.5, 0, 0],
							"lerp_mode": "catmullrom"
						},
						"3.9167": {
							"post": [-7.79, 0, 0],
							"lerp_mode": "catmullrom"
						},
						"5.0417": {
							"post": [12.48, 0, 0],
							"lerp_mode": "catmullrom"
						},
						"5.9583": {
							"post": [-4, 0, 0],
							"lerp_mode": "catmullrom"
						},
						"6.8333": {
							"post": [0, 0, 0],
							"lerp_mode": "catmullrom"
						}
					}
				},
				"tail5": {
					"rotation": {
						"0.0": {
							"post": [0, 0, 0],
							"lerp_mode": "catmullrom"
						},
						"0.625": {
							"post": [0, 0, 0],
							"lerp_mode": "catmullrom"
						},
						"1.5417": {
							"post": [-7.5, 0, 0],
							"lerp_mode": "catmullrom"
						},
						"2.2917": {
							"post": [-4.17, 0, 0],
							"lerp_mode": "catmullrom"
						},
						"3.25": {
							"post": [-6.5, 0, 0],
							"lerp_mode": "catmullrom"
						},
						"4.0417": {
							"post": [-7.79, 0, 0],
							"lerp_mode": "catmullrom"
						},
						"5.1667": {
							"post": [12.48, 0, 0],
							"lerp_mode": "catmullrom"
						},
						"6.125": {
							"post": [-4, 0, 0],
							"lerp_mode": "catmullrom"
						},
						"7.0": {
							"post": [0, 0, 0],
							"lerp_mode": "catmullrom"
						}
					}
				},
				"leg_left": {
					"rotation": {
						"0.0": {
							"post": [0, 0, 0],
							"lerp_mode": "catmullrom"
						},
						"0.5": {
							"post": [-5, 0, 0],
							"lerp_mode": "catmullrom"
						},
						"1.1667": {
							"post": [-17.5, 0, 0],
							"lerp_mode": "catmullrom"
						},
						"1.625": {
							"post": [-7.5, 0, 0],
							"lerp_mode": "catmullrom"
						},
						"2.0833": {
							"post": [-8, 0, 0],
							"lerp_mode": "catmullrom"
						},
						"3.0": {
							"post": [-18, 0, 0],
							"lerp_mode": "catmullrom"
						},
						"3.7917": {
							"post": [-13.8, 0, 0],
							"lerp_mode": "catmullrom"
						},
						"4.625": {
							"post": [17.5, 0, 0],
							"lerp_mode": "catmullrom"
						},
						"5.7083": {
							"post": [-5, 0, 0],
							"lerp_mode": "catmullrom"
						},
						"6.75": {
							"post": [0, 0, 0],
							"lerp_mode": "catmullrom"
						}
					}
				},
				"leg_left2": {
					"rotation": {
						"0.0": {
							"post": [0, 0, 0],
							"lerp_mode": "catmullrom"
						},
						"0.4167": {
							"post": [0, 0, 0],
							"lerp_mode": "catmullrom"
						},
						"1.0417": {
							"post": [-12.5, 0, 0],
							"lerp_mode": "catmullrom"
						},
						"1.8333": {
							"post": [0, 0, 0],
							"lerp_mode": "catmullrom"
						},
						"2.875": {
							"post": [-5, 0, 0],
							"lerp_mode": "catmullrom"
						},
						"3.6667": {
							"post": [-1.43, 0, 0],
							"lerp_mode": "catmullrom"
						},
						"4.5": {
							"post": [12.5, 0, 0],
							"lerp_mode": "catmullrom"
						},
						"5.6667": {
							"post": [-10, 0, 0],
							"lerp_mode": "catmullrom"
						},
						"6.7083": {
							"post": [0, 0, 0],
							"lerp_mode": "catmullrom"
						}
					}
				},
				"leg_left3": {
					"rotation": {
						"0.0": {
							"post": [0, 0, 0],
							"lerp_mode": "catmullrom"
						},
						"0.5833": {
							"post": [0, 0, 0],
							"lerp_mode": "catmullrom"
						},
						"1.3333": {
							"post": [-15, 0, 0],
							"lerp_mode": "catmullrom"
						},
						"2.4167": {
							"post": [10, 0, 0],
							"lerp_mode": "catmullrom"
						},
						"3.4583": {
							"post": [0, 0, 0],
							"lerp_mode": "catmullrom"
						},
						"4.0833": {
							"post": [-7.5, 0, 0],
							"lerp_mode": "catmullrom"
						},
						"4.7083": {
							"post": [15, 0, 0],
							"lerp_mode": "catmullrom"
						},
						"5.3333": {
							"post": [13.61, 0, 0],
							"lerp_mode": "catmullrom"
						},
						"6.0": {
							"post": [-4, 0, 0],
							"lerp_mode": "catmullrom"
						},
						"6.9167": {
							"post": [0, 0, 0],
							"lerp_mode": "catmullrom"
						}
					}
				},
				"leg_right": {
					"rotation": {
						"0.0": {
							"post": [0, 0, 0],
							"lerp_mode": "catmullrom"
						},
						"0.5": {
							"post": [-5, 0, 0],
							"lerp_mode": "catmullrom"
						},
						"1.1667": {
							"post": [-17.5, 0, 0],
							"lerp_mode": "catmullrom"
						},
						"1.625": {
							"post": [-7.5, 0, 0],
							"lerp_mode": "catmullrom"
						},
						"2.0833": {
							"post": [-8, 0, 0],
							"lerp_mode": "catmullrom"
						},
						"3.0": {
							"post": [-18, 0, 0],
							"lerp_mode": "catmullrom"
						},
						"3.7917": {
							"post": [-13.8, 0, 0],
							"lerp_mode": "catmullrom"
						},
						"4.625": {
							"post": [17.5, 0, 0],
							"lerp_mode": "catmullrom"
						},
						"5.7083": {
							"post": [-5, 0, 0],
							"lerp_mode": "catmullrom"
						},
						"6.75": {
							"post": [0, 0, 0],
							"lerp_mode": "catmullrom"
						}
					}
				},
				"leg_right2": {
					"rotation": {
						"0.0": {
							"post": [0, 0, 0],
							"lerp_mode": "catmullrom"
						},
						"0.4167": {
							"post": [0, 0, 0],
							"lerp_mode": "catmullrom"
						},
						"1.0417": {
							"post": [-12.5, 0, 0],
							"lerp_mode": "catmullrom"
						},
						"1.8333": {
							"post": [0, 0, 0],
							"lerp_mode": "catmullrom"
						},
						"2.875": {
							"post": [-5, 0, 0],
							"lerp_mode": "catmullrom"
						},
						"3.6667": {
							"post": [-1.43, 0, 0],
							"lerp_mode": "catmullrom"
						},
						"4.5": {
							"post": [12.5, 0, 0],
							"lerp_mode": "catmullrom"
						},
						"5.6667": {
							"post": [-10, 0, 0],
							"lerp_mode": "catmullrom"
						},
						"6.7083": {
							"post": [0, 0, 0],
							"lerp_mode": "catmullrom"
						}
					}
				},
				"leg_right3": {
					"rotation": {
						"0.0": {
							"post": [0, 0, 0],
							"lerp_mode": "catmullrom"
						},
						"0.5833": {
							"post": [0, 0, 0],
							"lerp_mode": "catmullrom"
						},
						"1.3333": {
							"post": [-15, 0, 0],
							"lerp_mode": "catmullrom"
						},
						"2.4167": {
							"post": [10, 0, 0],
							"lerp_mode": "catmullrom"
						},
						"3.4583": {
							"post": [0, 0, 0],
							"lerp_mode": "catmullrom"
						},
						"4.0833": {
							"post": [-7.5, 0, 0],
							"lerp_mode": "catmullrom"
						},
						"4.7083": {
							"post": [15, 0, 0],
							"lerp_mode": "catmullrom"
						},
						"5.3333": {
							"post": [13.61, 0, 0],
							"lerp_mode": "catmullrom"
						},
						"6.0": {
							"post": [-4, 0, 0],
							"lerp_mode": "catmullrom"
						},
						"6.9167": {
							"post": [0, 0, 0],
							"lerp_mode": "catmullrom"
						}
					}
				}
			}
		}
	}
}