{
  "implemented": true,
  "name": "Drakloak",
  "nationalPokedexNumber": 886,
  "primaryType": "dragon",
  "secondaryType": "ghost",
  "abilities": [
    "clearbody",
    "infiltrator",
    "h:cursedbody"
  ],
  "baseStats": {
    "hp": 68,
    "attack": 80,
    "defence": 50,
    "special_attack": 60,
    "special_defence": 50,
    "speed": 102
  },
  "behaviour": {
    "moving": {
      "swim": {
        "swimSpeed": 0.3,
        "canSwimInWater": true,
        "canBreatheUnderwater": true,
        "canWalkOnWater": true
      },
      "fly": {
        "canFly": true
      }
    },
    "resting": {
      "canSleep": true,
      "willSleepOnBed": false,
      "depth": "normal",
      "light": "0-4"
    }
  },
  "catchRate": 45,
  "maleRatio": 0.5,
  "shoulderMountable": false,
  "baseExperienceYield": 144,
  "experienceGroup": "slow",
  "eggCycles": 40,
  "eggGroups": [
    "amorphous",
    "dragon"
  ],
  "moves": [
    "1:astonish",
    "1:bite",
    "1:infestation",
    "1:quickattack",
    "6:lockon",
    "12:assurance",
    "18:hex",
    "24:agility",
    "30:doublehit",
    "36:uturn",
    "42:dragondance",
    "48:phantomforce",
    "54:takedown",
    "61:dragonrush",
    "66:doubleedge",
    "72:lastresort",
    "tm:acrobatics",
    "tm:agility",
    "tm:allyswitch",
    "tm:assurance",
    "tm:attract",
    "tm:batonpass",
    "tm:beatup",
    "tm:breakingswipe",
    "tm:brine",
    "tm:confuseray",
    "tm:curse",
    "tm:dive",
    "tm:doubleedge",
    "tm:dracometeor",
    "tm:dragoncheer",
    "tm:dragondance",
    "tm:dragonpulse",
    "tm:dragontail",
    "tm:endure",
    "tm:facade",
    "tm:fireblast",
    "tm:flamethrower",
    "tm:helpinghand",
    "tm:hex",
    "tm:hydropump",
    "tm:lightscreen",
    "tm:nightshade",
    "tm:outrage",
    "tm:phantomforce",
    "tm:pounce",
    "tm:protect",
    "tm:psychicfangs",
    "tm:reflect",
    "tm:rest",
    "tm:round",
    "tm:scald",
    "tm:shadowball",
    "tm:sleeptalk",
    "tm:snore",
    "tm:steelwing",
    "tm:substitute",
    "tm:sunnyday",
    "tm:surf",
    "tm:swift",
    "tm:takedown",
    "tm:terablast",
    "tm:thief",
    "tm:thunder",
    "tm:thunderbolt",
    "tm:thunderwave",
    "tm:uturn",
    "tm:willowisp",
    "tutor:dracometeor"
  ],
  "labels": [
    "gen8"
  ],
  "pokedex": [
    "cobblemon.species.drakloak.desc"
  ],
  "preEvolution": "dreepy",
  "evolutions": [
    {
      "id": "drakloak_dragapult",
      "variant": "level_up",
      "result": "dragapult",
      "consumeHeldItem": false,
      "learnableMoves": [
        "dragondarts"
      ],
      "requirements": [
        {
          "variant": "level",
          "minLevel": 60
        }
      ]
    }
  ],
  "baseScale": 0.75,
  "hitbox": {
    "width": 0.9,
    "height": 1.55,
    "fixed": false
  },
  "baseFriendship": 50,
  "evYield": {
    "hp": 0,
    "attack": 0,
    "defence": 0,
    "special_attack": 0,
    "special_defence": 0,
    "speed": 2
  },
  "height": 14,
  "weight": 110,
  "aspects": [],
  "cannotDynamax": false,
  "drops": {
    "amount": 2,
    "entries": [
      {
        "item": "minecraft:phantom_membrane",
        "percentage": 5.0
      },
      {
        "item": "cobblemon:haban_berry",
        "percentage": 5.0
      }
    ]
  }
}