{
	"format_version": "1.8.0",
	"animations": {
		"animation.gossifleur.blink": {
			"animation_length": 0.16667,
			"bones": {
				"eyelid_left": {
					"position": {
						"0.0": [0, 0, -0.1],
						"0.125": [0, 0, -0.1],
						"0.1667": [0, 0, 0]
					}
				},
				"eyelid_right": {
					"position": {
						"0.0": [0, 0, -0.1],
						"0.125": [0, 0, -0.1],
						"0.1667": [0, 0, 0]
					}
				}
			}
		},
		"animation.gossifleur.ground_idle": {
			"loop": true,
			"bones": {
				"torso": {
					"rotation": [7.5, 0, 0]
				},
				"tail": {
					"rotation": [12.5, 0, 0]
				},
				"tail2": {
					"rotation": [12.5, 0, 0]
				},
				"arm_left": {
					"rotation": [0, 20, 32.5]
				},
				"arm_right": {
					"rotation": [0, -20, -32.5]
				},
				"head": {
					"rotation": [-10, 0, 0]
				},
				"star": {
					"rotation": [-10, 0, 0]
				},
				"hair": {
					"rotation": [-2.5, 0, 0]
				}
			}
		},
		"animation.gossifleur.cry": {
			"animation_length": 1.5,
			"bones": {
				"mouth_closed": {
					"position": {
						"0.25": [0, 0, 0],
						"0.3333": [0, 0, 0.1],
						"1.1667": [0, 0, 0.1],
						"1.25": [0, 0, 0]
					}
				},
				"mouth_open": {
					"position": {
						"0.0": [0, 0, 0],
						"0.25": [0, 0, -0.1],
						"1.25": [0, 0, -0.1],
						"1.5": [0, 0, 0]
					}
				}
			}
		}
	}
}