{
    "enabled": true,
    "neededInstalledMods": [],
    "neededUninstalledMods": [],
    "spawns": [
        {
            "id": "buizel-1",
            "pokemon": "buizel",
            "presets": [
                "natural",
                "freshwater"
            ],
            "type": "pokemon",
            "context": "grounded",
            "bucket": "common",
            "level": "8-33",
            "weight": 1.8,
            "condition": {
                "minSkyLight": 8,
                "maxSkyLight": 15
            }
        },
        {
            "id": "buizel-2",
            "pokemon": "buizel",
            "presets": [
                "underwater",
                "freshwater"
            ],
            "type": "pokemon",
            "context": "submerged",
            "bucket": "common",
            "level": "8-33",
            "weight": 1.8,
            "condition": {
                "canSeeSky": true
            }
        },
        {
            "id": "buizel-3",
            "pokemon": "buizel",
            "presets": [
                "water_surface",
                "freshwater"
            ],
            "type": "pokemon",
            "context": "surface",
            "bucket": "common",
            "level": "8-33",
            "weight": 0.18,
            "condition": {
                "minSkyLight": 8,
                "maxSkyLight": 15
            }
        }
    ]
}