{
	"format_version": "1.8.0",
	"animations": {
		"animation.goodra_hisuian.ground_idle": {
			"loop": true,
			"bones": {
				"chest2": {
					"rotation": [-12.5, 0, 0]
				},
				"arm_left": {
					"rotation": [36.31434, 46.30284, 22.7094]
				},
				"arm_left2": {
					"rotation": [0, 50, 0]
				},
				"arm_slime_left": {
					"rotation": [10, 0, 0]
				},
				"arm_slime_left2": {
					"rotation": [10, 0, 0]
				},
				"arm_right": {
					"rotation": [35.10372, -45.81952, -23.24648]
				},
				"arm_right2": {
					"rotation": [0, -50, 0]
				},
				"arm_slime_right": {
					"rotation": [10, 0, 0]
				},
				"arm_slime_right2": {
					"rotation": [10, 0, 0]
				},
				"neck": {
					"rotation": [2.5, 0, 0]
				},
				"neck2": {
					"rotation": [10, 0, 0]
				},
				"neck3": {
					"rotation": [-2.5, 0, 0]
				},
				"head_ai": {
					"rotation": [20, 0, 0]
				},
				"chin_slime": {
					"rotation": [-12.5, 0, 0]
				},
				"antenna_back_left_rotation": {
					"rotation": [-1.35158, 22.52101, 2.22641]
				},
				"antenna_back_left2": {
					"rotation": [-30, 0, 0]
				},
				"antenna_back_left3": {
					"rotation": [-22.5, 0, 0]
				},
				"antenna_back_left4": {
					"rotation": [-30, 0, 0]
				},
				"antenna_back_left5": {
					"rotation": [-25, 0, 0]
				},
				"antenna_back_left6": {
					"rotation": [-25, 0, 0]
				},
				"antenna_back_left7": {
					"rotation": [22.5, 0, 0]
				},
				"antenna_back_right_rotation": {
					"rotation": [-1.35158, -22.52101, -2.22641]
				},
				"antenna_back_right2": {
					"rotation": [-30, 0, 0]
				},
				"antenna_back_right3": {
					"rotation": [-22.5, 0, 0]
				},
				"antenna_back_right4": {
					"rotation": [-30, 0, 0]
				},
				"antenna_back_right5": {
					"rotation": [-25, 0, 0]
				},
				"antenna_back_right6": {
					"rotation": [-25, 0, 0]
				},
				"antenna_back_right7": {
					"rotation": [22.5, 0, 0]
				},
				"tail2": {
					"rotation": [-2.5, 0, 0]
				},
				"leg_left": {
					"rotation": [0, -15, 0]
				},
				"leg_right": {
					"rotation": [0, 15, 0]
				},
				"hand_left": {
					"rotation": [0, 10, 0]
				},
				"hand_right": {
					"rotation": [0, -10, 0]
				},
				"chest": {
					"rotation": [7.5, 0, 0]
				},
				"neck4": {
					"rotation": [-10, 0, 0]
				},
				"tail": {
					"rotation": [7.5, 0, 0]
				}
			}
		},
		"animation.goodra_hisuian.blink": {
			"animation_length": 0.16667,
			"bones": {
				"eyelid_left": {
					"position": {
						"0.0": [0.1, 0, -0.1],
						"0.125": [0.1, 0, -0.1],
						"0.1667": [0, 0, 0]
					}
				},
				"eyelid_right": {
					"position": {
						"0.0": [-0.1, 0, -0.1],
						"0.125": [-0.1, 0, -0.1],
						"0.1667": [0, 0, 0]
					}
				}
			}
		},
		"animation.goodra_hisuian.scared": {
			"loop": true,
			"bones": {
				"chest2": {
					"rotation": [-12.5, 0, 0]
				},
				"arm_left": {
					"rotation": [0, 75, 0],
					"position": [-1, 0, 0]
				},
				"arm_left2": {
					"rotation": [0, 20, 0]
				},
				"arm_slime_left": {
					"rotation": [-87.5, 0, 0]
				},
				"arm_slime_left2": {
					"rotation": [10, 0, 0]
				},
				"arm_right": {
					"rotation": [0, -75, 0],
					"position": [1, 0, 0]
				},
				"arm_right2": {
					"rotation": [0, -20, 0]
				},
				"arm_slime_right": {
					"rotation": [-90, 0, 0]
				},
				"arm_slime_right2": {
					"rotation": [10, 0, 0]
				},
				"neck": {
					"rotation": [2.5, 0, 0]
				},
				"neck2": {
					"rotation": [42.5, 0, 0],
					"position": [0, -24, -7],
					"scale": [2, 2, 2]
				},
				"neck3": {
					"rotation": [-10, 0, 0],
					"position": [0, -1, 1]
				},
				"head_ai": {
					"rotation": [20, 0, 0]
				},
				"chin_slime": {
					"rotation": [-12.5, 0, 0]
				},
				"antenna_back_left_rotation": {
					"rotation": [-1.35158, 22.52101, 2.22641]
				},
				"antenna_back_left2": {
					"rotation": [-29.62165, 4.98093, 8.6822]
				},
				"antenna_back_left3": {
					"rotation": [-22.5, 0, 0]
				},
				"antenna_back_left4": {
					"rotation": [-30, 0, 0]
				},
				"antenna_back_left5": {
					"rotation": [-25, 0, 0]
				},
				"antenna_back_left6": {
					"rotation": [-25, 0, 0]
				},
				"antenna_back_left7": {
					"rotation": [22.5, 0, 0]
				},
				"antenna_back_right_rotation": {
					"rotation": [-1.35158, -22.52101, -2.22641]
				},
				"antenna_back_right2": {
					"rotation": [-29.40842, -6.21271, -10.86815]
				},
				"antenna_back_right3": {
					"rotation": [-22.5, 0, 0]
				},
				"antenna_back_right4": {
					"rotation": [-30, 0, 0]
				},
				"antenna_back_right5": {
					"rotation": [-25, 0, 0]
				},
				"antenna_back_right6": {
					"rotation": [-25, 0, 0]
				},
				"antenna_back_right7": {
					"rotation": [22.5, 0, 0]
				},
				"tail2": {
					"rotation": [2.5, 0, 0]
				},
				"leg_left": {
					"rotation": [0, -15, 0]
				},
				"leg_right": {
					"rotation": [0, 15, 0]
				},
				"hand_left": {
					"rotation": [2.18558, 9.76061, 12.68664]
				},
				"hand_right": {
					"rotation": [3.45118, -9.39129, -20.28356]
				},
				"chest": {
					"rotation": [7.5, 0, 0]
				},
				"neck4": {
					"rotation": [-30, 0, 0]
				},
				"tail": {
					"rotation": [7.5, 0, 0],
					"position": [0, 7, -21],
					"scale": 2
				},
				"body": {
					"rotation": [-15, 0, 0],
					"position": [0, -3, 14],
					"scale": 0.5
				},
				"torso": {
					"position": [0, -5, 0]
				},
				"arms": {
					"position": [0, -22, -4],
					"scale": 2
				},
				"legs": {
					"position": [0, 9, 0]
				}
			}
		}
	}
}