{
  "implemented": true,
  "name": "Omastar",
  "nationalPokedexNumber": 139,
  "primaryType": "rock",
  "secondaryType": "water",
  "abilities": [
    "swiftswim",
    "shellarmor",
    "h:weakarmor"
  ],
  "baseStats": {
    "hp": 70,
    "attack": 60,
    "defence": 125,
    "special_attack": 115,
    "special_defence": 70,
    "speed": 55
  },
  "catchRate": 45,
  "maleRatio": 0.875,
  "shoulderMountable": false,
  "baseExperienceYield": 173,
  "experienceGroup": "medium_fast",
  "eggCycles": 30,
  "eggGroups": [
    "water_1",
    "water_3"
  ],
  "behaviour": {
    "resting": {
      "canSleep": true,
      "willSleepOnBed": false,
      "depth": "normal",
      "light": "0-4"
    },
    "moving": {
      "swim": {
        "canSwimInWater": true,
        "canBreatheUnderwater": true
      },
      "walk": {
        "walkSpeed": 0.14
      }
    }
  },
  "drops": {
    "amount": 2,
    "entries": [
      {
        "item": "minecraft:nautilus_shell"
      },
      {
        "item": "minecraft:bone_meal",
        "percentage": 10.0
      }
    ]
  },
  "moves": [
    "1:bind",
    "1:bite",
    "1:constrict",
    "1:rollout",
    "1:sandattack",
    "1:spikecannon",
    "1:withdraw",
    "15:watergun",
    "20:leer",
    "25:mudshot",
    "30:ancientpower",
    "35:brine",
    "43:protect",
    "48:tickle",
    "49:rockblast",
    "56:surf",
    "63:shellsmash",
    "70:hydropump",
    "tm:attract",
    "tm:blizzard",
    "tm:bodyslam",
    "tm:brine",
    "tm:captivate",
    "tm:confide",
    "tm:crunch",
    "tm:dive",
    "tm:doubleteam",
    "tm:earthpower",
    "tm:endure",
    "tm:facade",
    "tm:frustration",
    "tm:gigaimpact",
    "tm:gyroball",
    "tm:hail",
    "tm:hiddenpower",
    "tm:hydropump",
    "tm:hyperbeam",
    "tm:icebeam",
    "tm:icywind",
    "tm:irondefense",
    "tm:liquidation",
    "tm:muddywater",
    "tm:mudshot",
    "tm:naturalgift",
    "tm:pinmissile",
    "tm:protect",
    "tm:raindance",
    "tm:rest",
    "tm:return",
    "tm:rockblast",
    "tm:rockclimb",
    "tm:rockpolish",
    "tm:rockslide",
    "tm:rocksmash",
    "tm:rocktomb",
    "tm:round",
    "tm:sandstorm",
    "tm:scald",
    "tm:secretpower",
    "tm:sleeptalk",
    "tm:smackdown",
    "tm:snore",
    "tm:spikes",
    "tm:stealthrock",
    "tm:stoneedge",
    "tm:substitute",
    "tm:surf",
    "tm:swagger",
    "tm:thief",
    "tm:toxic",
    "tm:toxicspikes",
    "tm:waterfall",
    "tm:waterpulse",
    "tm:whirlpool",
    "tutor:ancientpower",
    "tutor:attract",
    "tutor:bide",
    "tutor:bind",
    "tutor:bite",
    "tutor:blizzard",
    "tutor:bodyslam",
    "tutor:bubblebeam",
    "tutor:constrict",
    "tutor:curse",
    "tutor:dive",
    "tutor:doubleedge",
    "tutor:doubleteam",
    "tutor:earthpower",
    "tutor:endure",
    "tutor:facade",
    "tutor:frustration",
    "tutor:headbutt",
    "tutor:hiddenpower",
    "tutor:hornattack",
    "tutor:horndrill",
    "tutor:hydropump",
    "tutor:hyperbeam",
    "tutor:icebeam",
    "tutor:icywind",
    "tutor:irondefense",
    "tutor:knockoff",
    "tutor:leer",
    "tutor:meteorbeam",
    "tutor:mimic",
    "tutor:protect",
    "tutor:rage",
    "tutor:raindance",
    "tutor:reflect",
    "tutor:rest",
    "tutor:return",
    "tutor:rockslide",
    "tutor:rocksmash",
    "tutor:rockthrow",
    "tutor:rollout",
    "tutor:sandstorm",
    "tutor:scald",
    "tutor:seismictoss",
    "tutor:shellsmash",
    "tutor:skullbash",
    "tutor:sleeptalk",
    "tutor:snore",
    "tutor:spikecannon",
    "tutor:stealthrock",
    "tutor:submission",
    "tutor:substitute",
    "tutor:supersonic",
    "tutor:surf",
    "tutor:swagger",
    "tutor:takedown",
    "tutor:thief",
    "tutor:toxic",
    "tutor:waterfall",
    "tutor:watergun",
    "tutor:waterpulse",
    "tutor:whirlpool",
    "tutor:withdraw"
  ],
  "labels": [
    "gen1"
  ],
  "pokedex": [
    "cobblemon.species.omastar.desc"
  ],
  "preEvolution": "omanyte",
  "evolutions": [],
  "baseScale": 1,
  "hitbox": {
    "width": 0.6,
    "height": 0.7,
    "fixed": false
  },
  "baseFriendship": 50,
  "evYield": {
    "hp": 0,
    "attack": 0,
    "defence": 2,
    "special_attack": 0,
    "special_defence": 0,
    "speed": 0
  },
  "height": 10,
  "weight": 350,
  "aspects": [],
  "cannotDynamax": false
}