{
  "implemented": true,
  "name": "Raichu",
  "nationalPokedexNumber": 26,
  "primaryType": "electric",
  "abilities": [
    "static",
    "h:lightningrod"
  ],
  "drops": {
    "amount": 3,
    "entries": [
      {
        "item": "cobblemon:light_ball",
        "percentage": 10.0
      },
      {
        "item": "cobblemon:thunder_stone",
        "percentage": 10.0
      },
      {
        "item": "cobblemon:oran_berry",
        "percentage": 10.0
      }
    ]
  },
  "baseStats": {
    "hp": 60,
    "attack": 90,
    "defence": 55,
    "special_attack": 90,
    "special_defence": 80,
    "speed": 110
  },
  "features": [
    "alolan"
  ],
  "behaviour": {
    "resting": {
      "canSleep": true,
      "willSleepOnBed": false,
      "depth": "normal",
      "light": "0-4"
    }
  },
  "catchRate": 75,
  "maleRatio": 0.5,
  "shoulderMountable": false,
  "forms": [
    {
      "name": "Alola",
      "primaryType": "electric",
      "secondaryType": "psychic",
      "abilities": [
        "surgesurfer"
      ],
      "baseStats": {
        "hp": 60,
        "attack": 85,
        "defence": 50,
        "special_attack": 95,
        "special_defence": 85,
        "speed": 110
      },
      "catchRate": 75,
      "maleRatio": 0.5,
      "baseExperienceYield": 243,
      "baseFriendship": 50,
      "evYield": {
        "hp": 0,
        "attack": 0,
        "defence": 0,
        "special_attack": 0,
        "special_defence": 0,
        "speed": 3
      },
      "experienceGroup": "medium_fast",
      "eggCycles": 10,
      "eggGroups": [
        "field",
        "fairy"
      ],
      "moves": [
        "1:agility",
        "1:charm",
        "1:discharge",
        "1:doubleteam",
        "1:electroball",
        "1:feint",
        "1:growl",
        "1:irontail",
        "1:lightscreen",
        "1:nastyplot",
        "1:nuzzle",
        "1:playnice",
        "1:psychic",
        "1:quickattack",
        "1:slam",
        "1:spark",
        "1:speedswap",
        "1:sweetkiss",
        "1:tailwhip",
        "1:thunder",
        "1:thundershock",
        "1:thunderwave",
        "5:thunderbolt",
        "tm:agility",
        "tm:alluringvoice",
        "tm:allyswitch",
        "tm:attract",
        "tm:bodyslam",
        "tm:brickbreak",
        "tm:calmmind",
        "tm:charge",
        "tm:chargebeam",
        "tm:charm",
        "tm:confide",
        "tm:dig",
        "tm:doubleteam",
        "tm:drainingkiss",
        "tm:echoedvoice",
        "tm:eerieimpulse",
        "tm:electricterrain",
        "tm:electroball",
        "tm:electroweb",
        "tm:encore",
        "tm:endeavor",
        "tm:endure",
        "tm:expandingforce",
        "tm:facade",
        "tm:faketears",
        "tm:fling",
        "tm:focusblast",
        "tm:focuspunch",
        "tm:frustration",
        "tm:futuresight",
        "tm:gigaimpact",
        "tm:grassknot",
        "tm:helpinghand",
        "tm:hiddenpower",
        "tm:hyperbeam",
        "tm:irontail",
        "tm:knockoff",
        "tm:lightscreen",
        "tm:magicroom",
        "tm:megakick",
        "tm:megapunch",
        "tm:nastyplot",
        "tm:payday",
        "tm:playrough",
        "tm:protect",
        "tm:psychic",
        "tm:psychicnoise",
        "tm:psychicterrain",
        "tm:psyshock",
        "tm:raindance",
        "tm:reflect",
        "tm:rest",
        "tm:return",
        "tm:reversal",
        "tm:round",
        "tm:safeguard",
        "tm:skillswap",
        "tm:sleeptalk",
        "tm:snore",
        "tm:speedswap",
        "tm:storedpower",
        "tm:substitute",
        "tm:surf",
        "tm:swagger",
        "tm:swift",
        "tm:takedown",
        "tm:terablast",
        "tm:thief",
        "tm:thunder",
        "tm:thunderbolt",
        "tm:thunderpunch",
        "tm:thunderwave",
        "tm:toxic",
        "tm:trailblaze",
        "tm:upperhand",
        "tm:uproar",
        "tm:voltswitch",
        "tm:wildcharge",
        "tutor:allyswitch",
        "tutor:brickbreak",
        "tutor:calmmind",
        "tutor:covet",
        "tutor:dig",
        "tutor:doubleteam",
        "tutor:electroweb",
        "tutor:encore",
        "tutor:expandingforce",
        "tutor:facade",
        "tutor:fakeout",
        "tutor:focuspunch",
        "tutor:growl",
        "tutor:headbutt",
        "tutor:helpinghand",
        "tutor:hyperbeam",
        "tutor:irontail",
        "tutor:knockoff",
        "tutor:laserfocus",
        "tutor:lightscreen",
        "tutor:magiccoat",
        "tutor:magicroom",
        "tutor:magnetrise",
        "tutor:payday",
        "tutor:protect",
        "tutor:psychic",
        "tutor:recycle",
        "tutor:reflect",
        "tutor:rest",
        "tutor:risingvoltage",
        "tutor:seismictoss",
        "tutor:shockwave",
        "tutor:signalbeam",
        "tutor:snore",
        "tutor:substitute",
        "tutor:tailwhip",
        "tutor:telekinesis",
        "tutor:teleport",
        "tutor:thunder",
        "tutor:thunderbolt",
        "tutor:thunderpunch",
        "tutor:thundershock",
        "tutor:thunderwave",
        "tutor:toxic"
      ],
      "labels": [
        "gen7",
        "alola_regional"
      ],
      "aspects": [
        "alolan"
      ],
      "height": 7,
      "weight": 210,
      "preEvolution": "pikachu region_bias=alola",
      "baseScale": 0.75,
      "hitbox": {
        "width": 0.8,
        "height": 1.6,
        "fixed": false
      },
      "cannotDynamax": false,
      "battleOnly": false,
      "drops": {
        "amount": 3,
        "entries": [
          {
            "item": "cobblemon:light_ball",
            "percentage": 10.0
          },
          {
            "item": "cobblemon:thunder_stone",
            "percentage": 10.0
          },
          {
            "item": "cobblemon:oran_berry",
            "percentage": 10.0
          }
        ]
      }
    }
  ],
  "baseExperienceYield": 243,
  "experienceGroup": "medium_fast",
  "eggCycles": 10,
  "eggGroups": [
    "field",
    "fairy"
  ],
  "moves": [
    "1:agility",
    "1:charm",
    "1:discharge",
    "1:doubleteam",
    "1:electroball",
    "1:feint",
    "1:growl",
    "1:irontail",
    "1:lightscreen",
    "1:nastyplot",
    "1:nuzzle",
    "1:playnice",
    "1:quickattack",
    "1:slam",
    "1:spark",
    "1:sweetkiss",
    "1:tailwhip",
    "1:thunder",
    "1:thundershock",
    "1:thunderwave",
    "5:thunderbolt",
    "tm:agility",
    "tm:alluringvoice",
    "tm:attract",
    "tm:bodyslam",
    "tm:brickbreak",
    "tm:brutalswing",
    "tm:captivate",
    "tm:charge",
    "tm:chargebeam",
    "tm:charm",
    "tm:confide",
    "tm:dig",
    "tm:disarmingvoice",
    "tm:doubleteam",
    "tm:drainingkiss",
    "tm:echoedvoice",
    "tm:eerieimpulse",
    "tm:electricterrain",
    "tm:electroball",
    "tm:electroweb",
    "tm:encore",
    "tm:endeavor",
    "tm:endure",
    "tm:facade",
    "tm:faketears",
    "tm:flash",
    "tm:fling",
    "tm:focusblast",
    "tm:focuspunch",
    "tm:frustration",
    "tm:gigaimpact",
    "tm:grassknot",
    "tm:helpinghand",
    "tm:hiddenpower",
    "tm:hyperbeam",
    "tm:irontail",
    "tm:knockoff",
    "tm:lightscreen",
    "tm:megakick",
    "tm:megapunch",
    "tm:nastyplot",
    "tm:naturalgift",
    "tm:payday",
    "tm:playrough",
    "tm:protect",
    "tm:raindance",
    "tm:reflect",
    "tm:rest",
    "tm:return",
    "tm:reversal",
    "tm:rocksmash",
    "tm:round",
    "tm:safeguard",
    "tm:secretpower",
    "tm:shockwave",
    "tm:sleeptalk",
    "tm:snore",
    "tm:speedswap",
    "tm:strength",
    "tm:substitute",
    "tm:surf",
    "tm:swagger",
    "tm:swift",
    "tm:takedown",
    "tm:terablast",
    "tm:thief",
    "tm:thunder",
    "tm:thunderbolt",
    "tm:thunderpunch",
    "tm:thunderwave",
    "tm:toxic",
    "tm:trailblaze",
    "tm:upperhand",
    "tm:uproar",
    "tm:voltswitch",
    "tm:wildcharge",
    "tutor:attract",
    "tutor:bide",
    "tutor:bodyslam",
    "tutor:brickbreak",
    "tutor:calmmind",
    "tutor:counter",
    "tutor:covet",
    "tutor:curse",
    "tutor:defensecurl",
    "tutor:detect",
    "tutor:dig",
    "tutor:doubleedge",
    "tutor:doubleteam",
    "tutor:dynamicpunch",
    "tutor:electroweb",
    "tutor:encore",
    "tutor:endure",
    "tutor:facade",
    "tutor:fakeout",
    "tutor:flash",
    "tutor:focuspunch",
    "tutor:frustration",
    "tutor:growl",
    "tutor:headbutt",
    "tutor:helpinghand",
    "tutor:hiddenpower",
    "tutor:hyperbeam",
    "tutor:irontail",
    "tutor:knockoff",
    "tutor:laserfocus",
    "tutor:lightscreen",
    "tutor:magnetrise",
    "tutor:megakick",
    "tutor:megapunch",
    "tutor:mimic",
    "tutor:mudslap",
    "tutor:payday",
    "tutor:protect",
    "tutor:quickattack",
    "tutor:rage",
    "tutor:raindance",
    "tutor:reflect",
    "tutor:rest",
    "tutor:return",
    "tutor:risingvoltage",
    "tutor:rollout",
    "tutor:seismictoss",
    "tutor:shockwave",
    "tutor:signalbeam",
    "tutor:skullbash",
    "tutor:sleeptalk",
    "tutor:snore",
    "tutor:strength",
    "tutor:submission",
    "tutor:substitute",
    "tutor:swagger",
    "tutor:swift",
    "tutor:tailwhip",
    "tutor:takedown",
    "tutor:thief",
    "tutor:thunder",
    "tutor:thunderbolt",
    "tutor:thunderpunch",
    "tutor:thundershock",
    "tutor:thunderwave",
    "tutor:toxic",
    "tutor:zapcannon"
  ],
  "labels": [
    "gen1",
    "kanto_regional"
  ],
  "pokedex": [
    "cobblemon.species.raichu.desc"
  ],
  "preEvolution": "pikachu",
  "evolutions": [],
  "baseScale": 0.75,
  "hitbox": {
    "width": 0.8,
    "height": 1.5,
    "fixed": false
  },
  "baseFriendship": 50,
  "evYield": {
    "hp": 0,
    "attack": 0,
    "defence": 0,
    "special_attack": 0,
    "special_defence": 0,
    "speed": 3
  },
  "height": 8,
  "weight": 300,
  "aspects": [],
  "cannotDynamax": false
}