{
  "implemented": true,
  "name": "Huntail",
  "nationalPokedexNumber": 367,
  "primaryType": "water",
  "abilities": [
    "swiftswim",
    "h:waterveil"
  ],
  "drops": {
    "amount": 1,
    "entries": [
      {
        "item": "cobblemon:deep_sea_tooth",
        "percentage": 5.0
      }
    ]
  },
  "baseStats": {
    "hp": 55,
    "attack": 104,
    "defence": 105,
    "special_attack": 94,
    "special_defence": 75,
    "speed": 52
  },
  "catchRate": 60,
  "maleRatio": 0.5,
  "shoulderMountable": false,
  "baseExperienceYield": 170,
  "experienceGroup": "erratic",
  "eggCycles": 20,
  "eggGroups": [
    "water_1"
  ],
  "behaviour": {
    "moving": {
      "walk": {
        "canWalk": true,
        "avoidsLand": true
      },
      "swim": {
        "canSwimInWater": true,
        "canBreatheUnderwater": true
      }
    },
    "resting": {
      "canSleep": true,
      "willSleepOnBed": false,
      "depth": "normal",
      "light": "0-4"
    }
  },
  "moves": [
    "1:whirlpool",
    "8:bite",
    "11:feintattack",
    "15:screech",
    "22:waterpulse",
    "23:suckerpunch",
    "24:icefang",
    "28:brine",
    "29:scaryface",
    "36:crunch",
    "37:dive",
    "43:batonpass",
    "45:coil",
    "46:aquatail",
    "50:hydropump",
    "tm:attract",
    "tm:blizzard",
    "tm:brine",
    "tm:captivate",
    "tm:confide",
    "tm:dive",
    "tm:doubleteam",
    "tm:endure",
    "tm:facade",
    "tm:frustration",
    "tm:gigaimpact",
    "tm:hail",
    "tm:hiddenpower",
    "tm:hyperbeam",
    "tm:icebeam",
    "tm:infestation",
    "tm:naturalgift",
    "tm:protect",
    "tm:raindance",
    "tm:rest",
    "tm:return",
    "tm:rocktomb",
    "tm:round",
    "tm:scald",
    "tm:secretpower",
    "tm:sleeptalk",
    "tm:snatch",
    "tm:substitute",
    "tm:surf",
    "tm:swagger",
    "tm:toxic",
    "tm:waterfall",
    "tm:waterpulse",
    "tm:whirlpool",
    "tutor:aquatail",
    "tutor:bind",
    "tutor:bodyslam",
    "tutor:bounce",
    "tutor:dive",
    "tutor:doubleedge",
    "tutor:endure",
    "tutor:icywind",
    "tutor:mimic",
    "tutor:mudslap",
    "tutor:sleeptalk",
    "tutor:snatch",
    "tutor:snore",
    "tutor:substitute",
    "tutor:suckerpunch",
    "tutor:superfang",
    "tutor:swagger",
    "tutor:swift",
    "tutor:waterpulse"
  ],
  "labels": [
    "gen3"
  ],
  "pokedex": [
    "cobblemon.species.huntail.desc"
  ],
  "preEvolution": "clamperl",
  "evolutions": [],
  "baseScale": 1.15,
  "hitbox": {
    "width": 1.3,
    "height": 0.45,
    "fixed": false
  },
  "baseFriendship": 70,
  "evYield": {
    "hp": 0,
    "attack": 1,
    "defence": 1,
    "special_attack": 0,
    "special_defence": 0,
    "speed": 0
  },
  "height": 17,
  "weight": 270,
  "aspects": [],
  "cannotDynamax": false
}