{
  "implemented": true,
  "name": "Numel",
  "nationalPokedexNumber": 322,
  "primaryType": "fire",
  "secondaryType": "ground",
  "abilities": [
    "oblivious",
    "simple",
    "h:owntempo"
  ],
  "drops": {
    "amount": 2,
    "entries": [
      {
        "item": "minecraft:magma_cream",
        "percentage": 2.5
      },
      {
        "item": "cobblemon:rawst_berry",
        "percentage": 2.5
      }
    ]
  },
  "baseStats": {
    "hp": 60,
    "attack": 60,
    "defence": 40,
    "special_attack": 65,
    "special_defence": 45,
    "speed": 35
  },
  "catchRate": 255,
  "maleRatio": 0.5,
  "shoulderMountable": false,
  "baseExperienceYield": 61,
  "experienceGroup": "medium_fast",
  "eggCycles": 20,
  "eggGroups": [
    "field"
  ],
  "behaviour": {
    "resting": {
      "canSleep": true,
      "depth": "normal",
      "light": "0-4"
    }
  },
  "moves": [
    "1:growl",
    "1:tackle",
    "5:ember",
    "8:focusenergy",
    "12:bulldoze",
    "12:magnitude",
    "15:flameburst",
    "15:incinerate",
    "19:amnesia",
    "22:lavaplume",
    "26:earthpower",
    "29:curse",
    "31:takedown",
    "36:yawn",
    "40:earthquake",
    "43:flamethrower",
    "47:doubleedge",
    "egg:ancientpower",
    "egg:bodyslam",
    "egg:defensecurl",
    "egg:endure",
    "egg:growth",
    "egg:heatwave",
    "egg:heavyslam",
    "egg:howl",
    "egg:ironhead",
    "egg:mudbomb",
    "egg:rollout",
    "egg:scaryface",
    "egg:spitup",
    "egg:stockpile",
    "egg:stomp",
    "egg:swallow",
    "egg:yawn",
    "tm:amnesia",
    "tm:attract",
    "tm:bodypress",
    "tm:bodyslam",
    "tm:bulldoze",
    "tm:captivate",
    "tm:charm",
    "tm:confide",
    "tm:curse",
    "tm:dig",
    "tm:doubleedge",
    "tm:doubleteam",
    "tm:earthpower",
    "tm:earthquake",
    "tm:echoedvoice",
    "tm:endeavor",
    "tm:endure",
    "tm:facade",
    "tm:fireblast",
    "tm:firespin",
    "tm:flamecharge",
    "tm:flamethrower",
    "tm:flareblitz",
    "tm:flashcannon",
    "tm:frustration",
    "tm:heatcrash",
    "tm:heatwave",
    "tm:heavyslam",
    "tm:helpinghand",
    "tm:hiddenpower",
    "tm:highhorsepower",
    "tm:incinerate",
    "tm:ironhead",
    "tm:lashout",
    "tm:mudshot",
    "tm:mudslap",
    "tm:naturalgift",
    "tm:naturepower",
    "tm:overheat",
    "tm:protect",
    "tm:raindance",
    "tm:rest",
    "tm:return",
    "tm:roar",
    "tm:rockslide",
    "tm:rocksmash",
    "tm:rocktomb",
    "tm:round",
    "tm:sandstorm",
    "tm:scaryface",
    "tm:scorchingsands",
    "tm:secretpower",
    "tm:sleeptalk",
    "tm:stealthrock",
    "tm:stompingtantrum",
    "tm:stoneedge",
    "tm:strength",
    "tm:substitute",
    "tm:sunnyday",
    "tm:swagger",
    "tm:takedown",
    "tm:temperflare",
    "tm:terablast",
    "tm:toxic",
    "tm:trailblaze",
    "tm:willowisp",
    "tm:zenheadbutt",
    "tutor:afteryou",
    "tutor:bodyslam",
    "tutor:charm",
    "tutor:defensecurl",
    "tutor:dig",
    "tutor:doubleedge",
    "tutor:earthpower",
    "tutor:ember",
    "tutor:endure",
    "tutor:growl",
    "tutor:headbutt",
    "tutor:heatwave",
    "tutor:ironhead",
    "tutor:mimic",
    "tutor:mudslap",
    "tutor:rockslide",
    "tutor:rollout",
    "tutor:sleeptalk",
    "tutor:snore",
    "tutor:stealthrock",
    "tutor:substitute",
    "tutor:swagger",
    "tutor:tackle",
    "tutor:takedown"
  ],
  "labels": [
    "gen3"
  ],
  "pokedex": [
    "cobblemon.species.numel.desc"
  ],
  "evolutions": [
    {
      "id": "numel_camerupt",
      "variant": "level_up",
      "result": "camerupt",
      "consumeHeldItem": false,
      "learnableMoves": [
        "rockslide"
      ],
      "requirements": [
        {
          "variant": "level",
          "minLevel": 33
        }
      ]
    }
  ],
  "baseScale": 1,
  "hitbox": {
    "width": 1,
    "height": 1,
    "fixed": false
  },
  "baseFriendship": 70,
  "evYield": {
    "hp": 0,
    "attack": 0,
    "defence": 0,
    "special_attack": 1,
    "special_defence": 0,
    "speed": 0
  },
  "height": 7,
  "weight": 240,
  "aspects": [],
  "cannotDynamax": false
}