{
	"format_version": "1.8.0",
	"animations": {
		"animation.dartrix.ground_idle": {
			"loop": true,
			"bones": {
				"wing_right_closed2": {
					"rotation": [0, 0, -2.5]
				},
				"wing_right_closed_tips_main": {
					"rotation": [0, 0, -5]
				},
				"wing_right_closed_tip": {
					"rotation": [7.5, 0, 0]
				},
				"wing_right_closed_tip4": {
					"rotation": [-7.5, 0, 0]
				},
				"wing_left_closed": {
					"rotation": [0, 0, 0]
				},
				"wing_left_closed2": {
					"rotation": [0, 0, 2.5]
				},
				"wing_left_closed_tips_main": {
					"rotation": [0, 0, 5]
				},
				"wing_left_closed_tip": {
					"rotation": [7.5, 0, 0]
				},
				"wing_left_closed_tip4": {
					"rotation": [-7.5, 0, 0]
				},
				"toe_front_right": {
					"rotation": [0, -12.5, 0]
				},
				"toe_front_right2": {
					"rotation": [0, 12.5, 0]
				},
				"toe_front_left": {
					"rotation": [0, 12.5, 0]
				},
				"toe_front_left2": {
					"rotation": [0, -12.5, 0]
				}
			}
		}
	}
}